<svg xmlns="http://www.w3.org/2000/svg" width="23202" height="212" viewBox="0 0 23202 212">
  <g id="indele12" transform="translate(1 1)">
    <path id="Rectangle" d="M112.012.083l22976.536,0C23163.76.087,23200,44.772,23200,100v5H0v-5C0,44.772,36.8.083,112.013.083Z" fill="#7bb2bd"/>
    <path id="Rectangle_Copy_3" data-name="Rectangle Copy 3" d="M0,0H23200V5c0,55.228-36.943,99.438-112.154,99.438l-22975.831.347C36.8,104.785,0,60.228,0,5Z" transform="translate(0 105)" fill="#efd527"/>
    <rect id="Rectangle_Copy_2" data-name="Rectangle Copy 2" width="23200" height="210" rx="99" fill="none" stroke="#002e38" stroke-miterlimit="10" stroke-width="2"/>
  </g>
</svg>
