<svg xmlns="http://www.w3.org/2000/svg" xmlns:xlink="http://www.w3.org/1999/xlink" width="1920" height="530" viewBox="0 0 1920 530">
  <defs>
    <clipPath id="clip-path">
      <rect id="Rectangle_2" data-name="Rectangle 2" width="1920" height="530" transform="translate(19841 1152)" fill="#fff" stroke="#707070" stroke-width="1"/>
    </clipPath>
  </defs>
  <g id="indele09" transform="translate(-19841 -1152)" clip-path="url(#clip-path)">
    <path id="首頁_雲朵_copy_4" data-name="首頁/雲朵 copy 4" d="M-1.753,498.806H-2805.146s-72.644,8.24-176.515-82.629c-57.755-50.527-45.182-125.235-45.182-125.235,49.769-169.935,255.544-171.663,273.513-171.663a213.966,213.966,0,0,1,59.465,8.315c35.224-35.379,86.862-57.736,144.414-57.736a219.918,219.918,0,0,1,34.38,2.707C-2480.379,28.712-2422.737,0-2357.491,0c59.777,0,113.195,24.122,148.421,61.894A272.37,272.37,0,0,1-2090.586,35.3c65.157,0,124.444,22.2,168.655,58.521a165.316,165.316,0,0,1,76.277-18.278c83.038,0,150.375,59.148,150.375,132.065v1.726a198.231,198.231,0,0,1,42.52,10.551,184.546,184.546,0,0,1,37.45,18.983c27.663-30.32,70.229-49.773,117.952-49.773,49.724,0,93.8,21.1,121.33,53.695a206.063,206.063,0,0,1,95.314-22.867,206.144,206.144,0,0,1,99.361,25.025c42.7-61.111,119.507-101.9,207.172-101.9,93.225,0,174.215,46.164,214.911,113.864,30.821-20.79,69.428-33.144,111.325-33.144a210.108,210.108,0,0,1,38.517,3.531c19.524-26.2,45.588-48.284,76.187-64.483A258.154,258.154,0,0,1-429.92,133.79c23.528-43.185,73.7-72.995,131.874-72.995A165.131,165.131,0,0,1-262.51,64.64,160.954,160.954,0,0,1-230.089,75.5C-174.715,28.946-99.593.352-16.911.352-6.282.352,4.259.862-1.753,1.8Z" transform="translate(22188 1182.5)" fill="#6ab3bf"/>
  </g>
</svg>
