<svg xmlns="http://www.w3.org/2000/svg" xmlns:xlink="http://www.w3.org/1999/xlink" width="1920" height="470" viewBox="0 0 1920 470">
  <defs>
    <clipPath id="clip-path">
      <rect id="Rectangle_3" data-name="Rectangle 3" width="1920" height="470" transform="translate(462 880)" fill="#efd527" stroke="#707070" stroke-width="1"/>
    </clipPath>
  </defs>
  <g id="indele11" transform="translate(-462 -880)" clip-path="url(#clip-path)">
    <path id="白雲朵" d="M1.753,1.8v497H2805.146s72.644,8.24,176.515-82.629c57.755-50.527,45.182-125.235,45.182-125.235C2977.074,121.006,2771.3,119.278,2753.33,119.278a213.966,213.966,0,0,0-59.465,8.315C2658.641,92.214,2607,69.857,2549.451,69.857a219.918,219.918,0,0,0-34.38,2.707C2480.379,28.712,2422.737,0,2357.491,0,2297.714,0,2244.3,24.122,2209.07,61.894A272.37,272.37,0,0,0,2090.586,35.3c-65.157,0-124.444,22.2-168.655,58.521a165.316,165.316,0,0,0-76.277-18.278c-83.038,0-150.375,59.148-150.375,132.065v1.726a198.231,198.231,0,0,0-42.52,10.551,184.546,184.546,0,0,0-37.45,18.983c-27.663-30.32-70.229-49.773-117.952-49.773-49.724,0-93.8,21.1-121.33,53.695a209.916,209.916,0,0,0-194.675,2.158c-42.7-61.111-119.507-101.9-207.172-101.9-93.225,0-174.215,46.164-214.911,113.864-30.821-20.79-69.428-33.144-111.325-33.144a210.108,210.108,0,0,0-38.517,3.531c-19.524-26.2-45.588-48.284-76.187-64.483A258.154,258.154,0,0,0,429.92,133.79C406.392,90.606,356.223,60.8,298.047,60.8A165.131,165.131,0,0,0,262.51,64.64,160.954,160.954,0,0,0,230.089,75.5C174.715,28.946,99.593.352,16.911.352,6.282.352-4.259.862,1.753,1.8" transform="translate(182 851)" fill="#fff"/>
  </g>
</svg>
