<svg id="logo" xmlns="http://www.w3.org/2000/svg" xmlns:xlink="http://www.w3.org/1999/xlink" width="303.649" height="44.091" viewBox="0 0 303.649 44.091">
  <defs>
    <clipPath id="clip-path">
      <path id="Clip_6" data-name="Clip 6" d="M0,0H73.429V21.932H0Z" transform="translate(0.031 0.539)" fill="none"/>
    </clipPath>
    <clipPath id="clip-path-2">
      <path id="Clip_11" data-name="Clip 11" d="M0,0H302.194V8.617H0Z" transform="translate(0 0.474)" fill="none"/>
    </clipPath>
  </defs>
  <path id="Fill_1" data-name="Fill 1" d="M70.88,20c-.22,0-.481-.381-.776-1.132a2.653,2.653,0,0,1-.164-.809,2.338,2.338,0,0,1,.164-.928,3.543,3.543,0,0,0,.164-1.038A70.3,70.3,0,0,0,70.6,7.6c0-3.633-.141-5.616-.418-5.9A5.637,5.637,0,0,0,69.8.876a.488.488,0,0,1-.139-.323c0-.231.157-.347.467-.347a4.689,4.689,0,0,1,1.593.28c.564.172.839.436.839.809a.662.662,0,0,1-.139.462,2.7,2.7,0,0,0-.4,1.11,19.444,19.444,0,0,0-.3,4.738c0,2.182.062,5.637.184,10.269a2.281,2.281,0,0,1-.4,1.527C71.322,19.8,71.11,20,70.88,20Zm-36.473-.576a.471.471,0,0,1-.4-.28.947.947,0,0,1-.163-.462,7.457,7.457,0,0,1-.588-2.289,5.493,5.493,0,0,0-.539-1.571,1.7,1.7,0,0,0-.655-.743c0-.2.1-.3.284-.3a3.6,3.6,0,0,1,.958.161,1.437,1.437,0,0,1,.563.372,3.817,3.817,0,0,0,.607-.119c.9-.187,1.737-.343,2.481-.464v.742a25.577,25.577,0,0,0-2.717.65.35.35,0,0,1-.162.043l.514,2.569a18.865,18.865,0,0,0,2.272-.256l.093-.011v.884c-1.156.162-1.837.24-2.082.24h-.1v.091C34.766,19.181,34.643,19.424,34.406,19.424Zm-22.52-.371a.472.472,0,0,1-.4-.3.849.849,0,0,1-.164-.443,10.986,10.986,0,0,1-.491-2.659,6.649,6.649,0,0,0-.471-1.8,2.018,2.018,0,0,0-.535-.876c0-.2.091-.3.279-.3a4.014,4.014,0,0,1,.958.138,1.24,1.24,0,0,1,.611.485c.176-.03.334-.062.468-.094.992-.213,1.87-.375,2.607-.482v.627l-.1.016a16.925,16.925,0,0,0-2.692.647.308.308,0,0,1-.188.071l.328,2.936c.539-.047,1.208-.14,1.989-.276.232-.03.456-.062.667-.094v.9c-.141.018-.264.034-.387.052a20.028,20.028,0,0,1-2.082.276h-.1l.1.437C12.237,18.8,12.1,19.053,11.886,19.053Zm25.073-.7h0v-.883a18.5,18.5,0,0,0,2.432-.427c.106-.293.206-.626.307-1.017a6.257,6.257,0,0,0,.14-1.319c0-.275-.22-.43-.655-.462a13.633,13.633,0,0,0-1.661.139c-.187.027-.377.058-.562.092V13.73c.548-.088,1.051-.158,1.5-.207a5.535,5.535,0,0,0,1.57-.343,1.046,1.046,0,0,1,.279-.047,9.156,9.156,0,0,1,1.427.624c.855.444,1.289.763,1.289.947,0,.093-.077.207-.235.347a2.762,2.762,0,0,0-1.03.857,7.69,7.69,0,0,0-.867,1.341.067.067,0,0,1,.048.024c.326.306.491.537.491.689a.181.181,0,0,1-.187.119,33.66,33.66,0,0,0-4.166.253l-.114.016ZM3.838,18.125a.466.466,0,0,1-.4-.276,1.105,1.105,0,0,1-.139-.461,9.21,9.21,0,0,1-.491-2.427,7.228,7.228,0,0,0-.423-1.642,1.924,1.924,0,0,0-.515-.833.25.25,0,0,1,.283-.281,3.623,3.623,0,0,1,.958.162,1.571,1.571,0,0,1,.515.324c.3-.047.595-.1.819-.139a4.91,4.91,0,0,0,.619-.14V13.1a7.916,7.916,0,0,1-1.3.12L4,15.308c.238-.031.528-.084.886-.163l.176-.032v.868a8.712,8.712,0,0,1-.947.111H4.069l.14,1.3C4.182,17.877,4.057,18.125,3.838,18.125Zm57.68-.567h0v-.2c.07-.086.147-.186.233-.305v.41a1.092,1.092,0,0,1-.232.1Zm-46.765-.014h0v-.9c.495-.076.955-.16,1.37-.252a6.128,6.128,0,0,0,.375-1.2,7.044,7.044,0,0,0,.165-1.5c0-.274-.22-.429-.655-.461a8.786,8.786,0,0,0-1.255.122v-.627c.277-.041.519-.071.74-.094a4.2,4.2,0,0,0,1.309-.276.757.757,0,0,1,.231-.048,8.182,8.182,0,0,1,1.241.509c.74.375,1.1.632,1.1.786a.638.638,0,0,1-.232.394A2.9,2.9,0,0,0,18.2,15a6.735,6.735,0,0,0-.655,1.275.967.967,0,0,1,.467.252c.342.322.516.548.516.671-.015.079-.067.115-.164.115a28.69,28.69,0,0,0-3.613.228Zm47-.088v-.41a8.218,8.218,0,0,0,.562-.906,12.026,12.026,0,0,0,.958-2.569,22.725,22.725,0,0,0,.4-5.135,8.056,8.056,0,0,0-.188-1.826,1.722,1.722,0,0,0-.563-1.062.224.224,0,0,1-.092-.185c0-.108.19-.162.563-.162a2.353,2.353,0,0,1,1.262.347A.548.548,0,0,1,65,6.034a.781.781,0,0,1-.14.347A1.842,1.842,0,0,0,64.7,7.1c-.031,1.837-.094,3.4-.188,4.645a12.165,12.165,0,0,1-.61,2.984,4.979,4.979,0,0,1-1.566,2.312,4.44,4.44,0,0,1-.584.416Zm-4.635-.068a.47.47,0,0,1-.4-.257.712.712,0,0,1-.165-.391,7.921,7.921,0,0,1-.471-2.127,5.611,5.611,0,0,0-.491-1.412,1.453,1.453,0,0,0-.535-.715c0-.126.121-.186.371-.186a2.979,2.979,0,0,1,.8.139,1.6,1.6,0,0,1,.394.253,8.19,8.19,0,0,0,1.006-.139,5.125,5.125,0,0,0,.54-.12v.681a9.189,9.189,0,0,1-1.334.11h-.049l.376,2.1a4.248,4.248,0,0,0,.842-.162l.161-.028,0,.881a6.489,6.489,0,0,1-.68.075H57.28l.12.647C57.383,17.17,57.287,17.388,57.116,17.388Zm1.055-1.37h0v-.88a3.931,3.931,0,0,0,.982-.3l.024-.006c.053-.013.1-.023.14-.037a9.277,9.277,0,0,0,.236-1.665c0-.109-.061-.162-.187-.162a8.9,8.9,0,0,0-1.006.115l-.188.028v-.681a5.045,5.045,0,0,0,1.006-.409,1.484,1.484,0,0,1,.655-.281,3.43,3.43,0,0,1,.983.324,4.2,4.2,0,0,1,.7.434v.648a4.036,4.036,0,0,0-.983,1.207,4.9,4.9,0,0,0-.3.718.289.289,0,0,1,.068.048c.31.274.467.476.467.6a.09.09,0,0,1-.093.071,13.176,13.176,0,0,0-2.084.162l-.132.02-.285.043ZM5.064,15.982h0v-.867a8.387,8.387,0,0,0,.926-.224,7.025,7.025,0,0,0,.372-1.756c0-.109-.06-.162-.184-.162a8.2,8.2,0,0,0-1.006.115l-.108.018v-.692a4.576,4.576,0,0,0,.926-.388,1.647,1.647,0,0,1,.655-.281,3.683,3.683,0,0,1,1.006.324c.575.308.867.541.867.694a.417.417,0,0,1-.1.277,4.859,4.859,0,0,0-1.17,1.2l-.037.075c-.079.161-.153.311-.219.458a1.034,1.034,0,0,1,.491.252c.319.287.467.479.467.6a.11.11,0,0,1-.116.067,12.767,12.767,0,0,0-2.435.233l-.338.05Zm62.256-.816c-.14,0-.27-.128-.4-.391a3.68,3.68,0,0,1-.163-1.366c.124-2.635.187-4.937.187-6.843a4.228,4.228,0,0,0-.468-2.312.328.328,0,0,1,.376-.371,1.826,1.826,0,0,1,.958.3c.357.169.538.379.538.624a1.029,1.029,0,0,1-.094.323,3.546,3.546,0,0,0-.188,1.251c0,1.072.016,2.231.049,3.445.031,1.382.047,2.68.047,3.859A1.822,1.822,0,0,1,67.9,14.7C67.672,15.011,67.476,15.166,67.32,15.166Zm-5.8-2.016V12.5c.125.1.187.191.187.26a.455.455,0,0,1-.1.3l-.089.086ZM35.25,11.839a5.41,5.41,0,0,1-1.5-.185c-.371-.122-.559-.247-.559-.371,0-.141.094-.225.279-.252,1.209-.125,2.383-.272,3.487-.436v1.088C36.066,11.788,35.507,11.839,35.25,11.839Zm1.709-.156h0V10.595c.468-.069.95-.146,1.473-.236a3.912,3.912,0,0,1,.655-.095c1.181,0,1.78.258,1.78.766,0,.107-.111.176-.33.205-1.208.2-2.4.345-3.531.441l-.047.006Zm-27.6-.4A2.335,2.335,0,0,1,8.8,11.2h0c-.128-.032-.269-.075-.419-.128-.347-.155-.516-.269-.516-.347,0-.122.062-.181.188-.181l.748-.073h0c1.062-.1,2.062-.212,2.974-.322.278-1.057.537-2.162.77-3.283a16.7,16.7,0,0,1-1.777.185,2.744,2.744,0,0,1-.746-.119c-.308-.042-.472-.1-.472-.181,0-.094.154-.155.472-.186a20.17,20.17,0,0,0,2.547-.232h.1c.032-.182.065-.364.1-.546V5.78q.042-.232.084-.464a7.628,7.628,0,0,0,.167-1.709,1.909,1.909,0,0,0-.12-.623L12.8,3c-.243.051-.518.109-.8.161a2.256,2.256,0,0,1-.491.1A2.558,2.558,0,0,1,10.528,3c-.339-.136-.511-.245-.511-.324a.164.164,0,0,1,.184-.185c1.245-.174,2.395-.36,3.418-.553.364-.066.735-.139,1.134-.226V2.748c-.208.019-.442.042-.715.074a.977.977,0,0,1-.187.02,4.49,4.49,0,0,0,.7.6.414.414,0,0,1,.139.348.889.889,0,0,1-.043.253,11.243,11.243,0,0,0-.655,1.965l.759-.226h0l1.042-.307a2.553,2.553,0,0,1,.868-.205,6.145,6.145,0,0,1,1.17.347c.6.311.886.56.886.761,0,.093-.1.2-.3.324a1.547,1.547,0,0,0-.771.808,12.485,12.485,0,0,1-.751,1.919c.769-.117,1.451-.23,2.084-.347a9.016,9.016,0,0,1,1.147-.091,3.128,3.128,0,0,1,1.214.276.838.838,0,0,1,.563.742c0,.231-.126.347-.374.347-2.406,0-4.685.087-6.773.26h0V9.763l.579-.085.047-.007.533-.078V9.341a8.719,8.719,0,0,1,.28-1.228,8.42,8.42,0,0,0,.283-1.271c0-.306-.126-.462-.375-.462l-1.346.194h0l-.9.13c-.276,1.253-.544,2.335-.82,3.307.252-.034.489-.069.718-.1l.245-.036.759-.111v.856c-.341.028-.658.057-.97.087-1.083.09-2.288.245-3.582.462A5.421,5.421,0,0,1,9.357,11.282Zm48.226-.462a5.625,5.625,0,0,1-1.1-.095c-.261-.059-.4-.121-.4-.181a.272.272,0,0,1,.188-.281,18.687,18.687,0,0,0,1.9-.4v.883A4.546,4.546,0,0,1,57.583,10.821Zm.588-.07h0V9.868c.289-.078.572-.162.841-.251a1.112,1.112,0,0,1,.353-.09c.93,0,1.4.194,1.4.576,0,.095-.059.154-.187.185-.669.163-1.345.3-2.01.4-.147.026-.281.048-.4.067ZM3.742,10.636a6.033,6.033,0,0,1-1.1-.091c-.265-.063-.4-.126-.4-.186a.236.236,0,0,1,.188-.257c.933-.142,1.819-.307,2.632-.489v.87l-.1.014A11.263,11.263,0,0,1,3.742,10.636Zm1.322-.152h0V9.614c.261-.059.511-.118.762-.182a1.829,1.829,0,0,1,.467-.091c.917,0,1.382.186,1.382.553,0,.108-.069.177-.212.209-.828.158-1.635.286-2.4.381Zm30.186-1.6a5.406,5.406,0,0,1-1.5-.186c-.366-.12-.559-.248-.559-.371,0-.139.094-.225.279-.253,1.219-.133,2.392-.291,3.487-.469V8.711l-.073.006C36,8.828,35.478,8.879,35.25,8.879Zm1.709-.168h0V7.6c.371-.059.764-.127,1.17-.2a2.861,2.861,0,0,1,.582-.094c1.182,0,1.782.257,1.782.764,0,.109-.1.178-.284.205-1.112.191-2.205.338-3.249.436Zm20.624-.3a5.655,5.655,0,0,1-1.1-.092c-.273-.064-.4-.115-.4-.161,0-.167.063-.268.188-.3.661-.115,1.3-.252,1.9-.408v.9A5.515,5.515,0,0,1,57.583,8.414Zm.588-.057h0v-.9c.288-.076.571-.156.841-.24a1.354,1.354,0,0,1,.353-.07c.93,0,1.4.179,1.4.533,0,.109-.061.169-.187.185a14.808,14.808,0,0,1-2.01.437l-.4.058ZM3.929,8.322a6.292,6.292,0,0,1-1.1-.09c-.33-.078-.4-.131-.4-.163,0-.17.063-.272.188-.3a24.659,24.659,0,0,0,2.444-.492v.92A10.845,10.845,0,0,1,3.929,8.322Zm1.135-.129h0V7.274c.285-.073.58-.155.878-.245a1.456,1.456,0,0,1,.419-.1c.933,0,1.406.187,1.406.556,0,.123-.071.193-.212.21a24.481,24.481,0,0,1-2.432.485l-.058.009ZM54.309,6.657a4.414,4.414,0,0,1-1.055-.371c-.6-.338-.911-.649-.911-.923,0-.061.061-.091.187-.091a17.174,17.174,0,0,0,2.2-.142c.838-.106,1.963-.279,3.439-.528V5.7a29.67,29.67,0,0,0-3.488.868A1.583,1.583,0,0,1,54.309,6.657ZM1.869,6.287A4.369,4.369,0,0,1,.862,5.963C.29,5.689,0,5.432,0,5.2a.164.164,0,0,1,.188-.185,20.748,20.748,0,0,0,2.22-.209C3.1,4.718,4,4.566,5.064,4.355V5.38c-.781.182-1.711.448-2.844.815A1.241,1.241,0,0,1,1.869,6.287Zm27.39-.067a3.331,3.331,0,0,1-1.4-.348c-.434-.2-.654-.339-.654-.418,0-.17.061-.252.187-.252,1.178,0,3.649-.2,7.555-.6.621-.064,1.341-.138,2.014-.211v.9c-.856.036-1.659.085-2.389.148a39.335,39.335,0,0,0-4.373.624A2.8,2.8,0,0,1,29.259,6.22ZM58.171,5.7h0V4.6c.646-.109,1.361-.234,2.128-.371a3.925,3.925,0,0,1,.563-.048,2.771,2.771,0,0,1,.655.091v.969l-.116,0a20.578,20.578,0,0,0-3.16.439l-.07.011ZM45.829,5.453c-.519,0-1.385-.048-2.5-.138-.757-.077-1.378-.114-1.9-.114-1.647,0-3.15.029-4.468.085v-.9c2.681-.292,4.838-.571,6.41-.831a2.857,2.857,0,0,1,.4-.048,4.681,4.681,0,0,1,1.8.443c.607.38.914.769.914,1.156C46.484,5.338,46.264,5.453,45.829,5.453ZM5.064,5.38h0V4.355c.829-.162,1.8-.367,2.891-.61A4.4,4.4,0,0,1,8.518,3.7c.1,0,.192.012.277.022V4.726a17.448,17.448,0,0,0-2.993.5c-.232.043-.48.095-.738.155Zm56.453-.137h0V4.274a1.3,1.3,0,0,1,.233.088v.861c-.069.009-.147.015-.232.02Zm.233-.02h0v-.86a.687.687,0,0,1,.421.653c0,.1-.141.171-.42.208ZM8.8,4.726h0V3.719c.631.074.938.311.938.721,0,.154-.253.245-.772.276l-.165.01Zm28.235-1.4a.373.373,0,0,1-.071-.006h0A.768.768,0,0,1,36.516,3a10.393,10.393,0,0,1-1.5-2.265.547.547,0,0,1-.14-.276A.186.186,0,0,1,35.062.3a3.511,3.511,0,0,1,.8.115,5.367,5.367,0,0,1,1.1.442,2.882,2.882,0,0,1,.467.323,1.394,1.394,0,0,1,.447,1.133,1.155,1.155,0,0,1-.236.69A.923.923,0,0,1,37.03,3.326Zm22.426-.252a.775.775,0,0,1-.539-.3,4.726,4.726,0,0,1-.747-.814l0,0c-.243-.316-.518-.711-.818-1.173a.371.371,0,0,1-.139-.232c.032-.125.094-.185.188-.185a3.328,3.328,0,0,1,.77.106l.048.012a5.179,5.179,0,0,1,1.614.624,1.053,1.053,0,0,1,.467.948,1.151,1.151,0,0,1-.256.694A.846.846,0,0,1,59.457,3.074ZM6.082,2.96c-.268,0-.6-.231-1.018-.706l0,0C4.95,2.124,4.832,1.977,4.7,1.8a4.936,4.936,0,0,1-.959-1.6A.188.188,0,0,1,3.929,0,3.2,3.2,0,0,1,5.064.257c.122.049.241.1.364.157a2.867,2.867,0,0,1,1.146.741,1.535,1.535,0,0,1,.26.9C6.834,2.656,6.581,2.96,6.082,2.96Zm8.671-.212h0V1.715c.563-.122,1.15-.263,1.745-.421a3.247,3.247,0,0,1,.632-.071,3.154,3.154,0,0,1,1.214.28.831.831,0,0,1,.563.738c0,.234-.123.348-.375.348-1.355,0-2.626.053-3.777.158Z" transform="translate(98.831 8.75)" fill="#1e2087"/>
  <path id="Fill_3" data-name="Fill 3" d="M44.148,20a.842.842,0,0,1-.836-.571,10.114,10.114,0,0,0-2-2.271l0,0c-.195-.185-.356-.336-.51-.477,0-.187.061-.277.186-.277l.325.155a6.307,6.307,0,0,0,2,.694c.187,0,.3-.15.349-.457a17.366,17.366,0,0,0,.278-2.957c.139-2.215.209-4.544.209-6.921a33.077,33.077,0,0,0-.162-3.5,5.467,5.467,0,0,0-.674-2.4.681.681,0,0,1-.1-.277c0-.241.188-.364.559-.364a3.653,3.653,0,0,1,1.718.571c.527.214.795.516.795.9a.6.6,0,0,1-.12.274,6.777,6.777,0,0,0-.717,2.541,29.285,29.285,0,0,0-.186,3.277c0,3.682.061,6.672.186,9.141a4.7,4.7,0,0,1-.561,2.179C44.614,19.746,44.364,20,44.148,20ZM12.28,20c-.187,0-.422-.362-.7-1.076a2.6,2.6,0,0,1-.139-.758,2.544,2.544,0,0,1,.139-.915,5.5,5.5,0,0,0,.139-1.1c.092-.764.16-1.919.21-3.531-.017.016-.033.032-.048.048a11.929,11.929,0,0,1-1.417,1.7c-.089.086-.151.146-.211.2a10.534,10.534,0,0,1-2.21,1.606,10.731,10.731,0,0,1-2.18.819h0v-.2c.325-.184.612-.358.88-.532a19.111,19.111,0,0,0,2.186-1.833,15.494,15.494,0,0,0,1.536-1.665c.272-.337.537-.686.789-1.038a3.061,3.061,0,0,0,.4-.8c-.581.063-.925.1-1.187.121-.285.027-.488.04-.6.04H9.743c-.033.307-.116.457-.255.457a.508.508,0,0,1-.4-.25.738.738,0,0,1-.163-.391,7.022,7.022,0,0,1-.536-2.178,5.228,5.228,0,0,0-.532-1.49,1.623,1.623,0,0,0-.607-.707c0-.121.13-.185.374-.185a3.438,3.438,0,0,1,.788.114,2.089,2.089,0,0,1,.212.117c.625-.046,1.244-.107,1.837-.18.471-.056.979-.127,1.512-.212,0-.577-.007-1.08-.023-1.536-.238.016-.441.024-.6.024a8.414,8.414,0,0,1-.885-.041h0A2.037,2.037,0,0,1,9.6,4.4c-.2-.131-.3-.228-.3-.274a.163.163,0,0,1,.186-.184c.356-.018.676-.037.976-.06.542-.042,1.035-.091,1.464-.147a5.488,5.488,0,0,0-.326-2.2,3.408,3.408,0,0,0-.3-.825.511.511,0,0,1-.139-.344A.324.324,0,0,1,11.534,0a3.8,3.8,0,0,1,1.512.3c.54.183.814.452.814.8a.634.634,0,0,1-.163.482A2.345,2.345,0,0,0,13.327,2.7a2.969,2.969,0,0,0-.143.8,14.491,14.491,0,0,0,1.444-.481,1,1,0,0,1,.115-.048V4.191c-.574.114-1.137.214-1.675.3-.015.4-.029.868-.049,1.537.566-.1,1.146-.211,1.723-.325v.823c-.658.084-1.221.154-1.723.213v.755c0,.717.008,1.608.025,2.725.5-.089.921-.176,1.282-.25a2.082,2.082,0,0,1,.417-.069v.835c-.569.017-1.132.045-1.675.083v.09a2.857,2.857,0,0,1,.814.711c.294.3.584.582.861.842v1.6c-.321-.454-.627-.9-.909-1.323-.206-.273-.468-.592-.719-.9.056,2.028.118,4.087.187,6.12a2.236,2.236,0,0,1-.4,1.49C12.7,19.821,12.5,20,12.28,20ZM8.929,7.058l.746,3.48c.238-.007.5-.023.79-.048.419-.035.887-.088,1.393-.157h.119C11.993,9.467,12,8.51,12,7.492V6.85c-.577.062-1.094.11-1.536.143-.569.043-1.053.065-1.441.065ZM30.285,17.779a.083.083,0,0,1-.091-.094c.136-.125.257-.242.371-.357v.383A.694.694,0,0,1,30.285,17.779Zm.28-.068v-.383a13.7,13.7,0,0,0,1.189-1.383A9.971,9.971,0,0,0,33.1,13.766a1.51,1.51,0,0,0,.164-.843c0-.062.062-.094.185-.094a.3.3,0,0,1,.047,0V15.3a10.667,10.667,0,0,1-1.6,1.6,5.528,5.528,0,0,1-1.234.759c-.036.019-.065.033-.092.045Zm-2.6-.21c-.219,0-.492-.262-.814-.778a4.245,4.245,0,0,1-.489-1.4.557.557,0,0,1,.186-.481A3.4,3.4,0,0,0,27.892,14a43.229,43.229,0,0,0,2.673-3.812v.971c-.913,2.217-1.46,3.589-1.673,4.194a7.562,7.562,0,0,0-.3,1.169C28.406,17.171,28.194,17.5,27.96,17.5Zm-26.195-.25c-.262,0-.614-.447-1.044-1.329A6.447,6.447,0,0,1,0,14.135c0-.075.073-.114.21-.114a2,2,0,0,1,1.091.528,2.411,2.411,0,0,1,.814.939,2.63,2.63,0,0,1,.211,1.1C2.326,17.027,2.137,17.251,1.766,17.251ZM38.2,17.067a.526.526,0,0,1-.373-.112,6.5,6.5,0,0,1-.7-1.1,9.283,9.283,0,0,0-.886-1.673,1.488,1.488,0,0,1-.278-.618.084.084,0,0,1,.1-.095,1.968,1.968,0,0,1,.464.095,12.9,12.9,0,0,1,1.139.641,3.007,3.007,0,0,1,1,.986,1.945,1.945,0,0,1,.186.845,1.76,1.76,0,0,1-.162.711A.559.559,0,0,1,38.2,17.067Zm-20.523-.112a1.22,1.22,0,0,1-.7-.137,21.2,21.2,0,0,1-2.23-2.756v-1.6a19.755,19.755,0,0,0,1.9,1.587A20.564,20.564,0,0,0,21.3,16.4V16.5c0,.09-.124.144-.369.16A20.812,20.812,0,0,1,17.672,16.954ZM4,15.855a.448.448,0,0,1-.349-.255A9.067,9.067,0,0,1,2.6,13.791a.456.456,0,0,1-.091-.227.186.186,0,0,1,.186-.095,1.463,1.463,0,0,1,.512.118,2.859,2.859,0,0,1,1.067.617,1.344,1.344,0,0,1,.282.94.831.831,0,0,1-.162.481A.528.528,0,0,1,4,15.855ZM33.5,15.3V12.833a4.094,4.094,0,0,1,.743.227c.408.185.607.38.607.594a.274.274,0,0,1-.115.254,10.32,10.32,0,0,0-.957,1.052c-.087.109-.18.226-.276.34Zm-27.17-.639a.594.594,0,0,1-.373-.207c-.027-.032-.056-.07-.09-.116l0,0a13.627,13.627,0,0,1-.932-1.575.463.463,0,0,1-.091-.207c.016-.064.077-.095.186-.095a1.629,1.629,0,0,1,.513.095c.12.04.229.08.326.119A2.7,2.7,0,0,1,6.6,13.1a1.117,1.117,0,0,1,.283.825.887.887,0,0,1-.187.528A.531.531,0,0,1,6.325,14.663Zm34.961-1.65h0c-.122,0-.3-.162-.535-.481a1.292,1.292,0,0,1-.23-.434l.091-1.009a17.2,17.2,0,0,0-.42-4.833,2.03,2.03,0,0,1-.139-.575c0-.231.153-.344.468-.344a2.455,2.455,0,0,1,.718.16l.044.014.027.009v7.491Zm-3.928,0c-.126,0-.306-.2-.535-.595a1.425,1.425,0,0,1-.3-.6.059.059,0,0,1,.024-.044l-.077,0c-.425,0-.873.013-1.332.039-.12.006-.251.014-.428.026-.63.045-1.015.068-1.211.07h-.048a1.86,1.86,0,0,1-.254.5.628.628,0,0,1-.4.227c-.187,0-.351-.224-.488-.665a2.747,2.747,0,0,1-.163-.778l.023-.208a10.291,10.291,0,0,0,.4-1.692c.091-.952.138-2.14.138-3.532a6.743,6.743,0,0,0-.325-2.245c-.016-.118-.024-.2-.024-.227,0-.123.083-.183.255-.183a1.783,1.783,0,0,1,.837.273l.047.024v7.477l-.023.448H33.5c.3-.019.621-.048.953-.089.275-.028.493-.052.687-.077.322-.042.584-.084.8-.13a1.114,1.114,0,0,1,.3-.048,1.291,1.291,0,0,1,.445.07c.076-.844.115-2.841.115-5.935a2.4,2.4,0,0,0-.325-1.212.6.6,0,0,0-.513-.254,2.377,2.377,0,0,0-.6.094l-.222.051a6.474,6.474,0,0,0-.734.221,2.214,2.214,0,0,1-.67.095h-.072c-.015.287-.023.7-.023,1.212V6.1c.282-.116.533-.225.746-.325a1.324,1.324,0,0,1,.464-.179c.11,0,.213.009.29.015V6.678l-.15.036a4.092,4.092,0,0,1-.7.066c-.281,0-.508-.008-.674-.023-.016.643-.025,1.284-.025,1.9.265-.109.525-.217.77-.32a1.461,1.461,0,0,1,.488-.184c.088,0,.178.007.29.016V9.235l-.2.043a3.166,3.166,0,0,1-.742.09,3.306,3.306,0,0,1-.627-.043c-.024.583-.047,1.083-.07,1.527h0V3.414c.075.038.129.07.164.09.587-.131,1.07-.243,1.476-.344s.769-.194,1.036-.275a1.223,1.223,0,0,1,.349-.047,5.273,5.273,0,0,1,1.068.207c.711.3,1.071.574,1.071.8a2.71,2.71,0,0,1-.187.711,2.771,2.771,0,0,0-.162,1.122c0,.728-.023,1.313-.071,1.787-.029,1.5-.044,2.876-.044,4.078a2.9,2.9,0,0,1-.305,1.032C37.708,12.867,37.529,13.013,37.358,13.013Zm3.952,0h0V5.521c.341.12.513.3.513.528l-.1,6.049a1.357,1.357,0,0,1-.115.594c-.074.2-.173.307-.3.319ZM1.766,12.923c-.153,0-.335-.18-.555-.552a1.291,1.291,0,0,1-.278-.642c0-.136.116-.29.345-.457a1.5,1.5,0,0,0,.468-.3,19.7,19.7,0,0,0,1.508-1.9c.256-.345.483-.677.675-.986A6.122,6.122,0,0,0,1.488,9.165.73.73,0,0,1,.814,8.7,1.216,1.216,0,0,1,.56,7.883a.321.321,0,0,1,.186-.278A5.954,5.954,0,0,0,2.489,5.634,18.359,18.359,0,0,0,3.675,3.069a3.3,3.3,0,0,0,.234-.778,1.194,1.194,0,0,1-.1-.457c0-.231.122-.344.374-.344a2,2,0,0,1,1.091.41,1.039,1.039,0,0,1,.585.849.453.453,0,0,1-.187.32A31.28,31.28,0,0,0,2.627,7.033c-.14.227-.258.423-.373.618l2.071-.113a13.5,13.5,0,0,0,.861-1.513,1.721,1.721,0,0,0,.211-.9.47.47,0,0,1,.465-.544V7.409c-.182.189-.383.4-.632.677A29.591,29.591,0,0,0,2.861,11.2c.913-.2,1.884-.41,2.79-.617a5.7,5.7,0,0,0-.374-.9,1.1,1.1,0,0,1-.162-.411c0-.077.03-.113.1-.113a1.5,1.5,0,0,1,.3.043l.35.2V11.17l-.025-.058c-.038.025-.082.048-.129.072l-.033.018a11.315,11.315,0,0,0-2.236.758,5.136,5.136,0,0,0-1.325.8A.888.888,0,0,1,1.766,12.923Zm4.747-1.1a.493.493,0,0,1-.349-.091,2.076,2.076,0,0,1-.3-.56V9.409l.146.085L6.3,9.67a1.715,1.715,0,0,1,.627.664,1.207,1.207,0,0,1,.139.571,1.5,1.5,0,0,1-.163.664A.422.422,0,0,1,6.512,11.821Zm9.3-.435a.4.4,0,0,1-.349-.25,1.118,1.118,0,0,0-.326-.415l-.4.012V9.9h.048a1.136,1.136,0,0,1,.742.231l.024.023A8.772,8.772,0,0,0,16.3,8.34a5.68,5.68,0,0,0,.163-1.282c0-.473-.126-.713-.374-.713-.463.063-.9.12-1.349.178V5.7c.536-.107,1.1-.226,1.723-.364a4.319,4.319,0,0,1,1.369.481c.819.456,1.234.78,1.234.962,0,.092-.067.181-.21.278a4.969,4.969,0,0,0-1.139,1.4,10.041,10.041,0,0,1-1.072,2.267,1.167,1.167,0,0,1-.417.552A1.1,1.1,0,0,1,15.816,11.386Zm14.751-.234h0v-.966l.189-.289a.124.124,0,0,1,.091-.09.18.18,0,0,1,.091.184,2.4,2.4,0,0,1-.229.825ZM28.8,9.528a.725.725,0,0,1-.487-.25,10.461,10.461,0,0,1-1.417-1.97.455.455,0,0,1-.14-.25c.032-.125.092-.184.187-.184a2.875,2.875,0,0,1,.719.113,3.98,3.98,0,0,1,1.463.641,1.2,1.2,0,0,1,.421.986,1.093,1.093,0,0,1-.234.641A.722.722,0,0,1,28.8,9.528Zm-17.915,0c-.077,0-.157-.062-.23-.179a3.383,3.383,0,0,1-.186-.331v0h0c-.132-.263-.288-.622-.463-1.065a.348.348,0,0,1-.047-.16c0-.061.029-.09.091-.09a.909.909,0,0,1,.373.09l.047.02a1.969,1.969,0,0,1,.7.461,1.128,1.128,0,0,1,.186.711.686.686,0,0,1-.142.388A.518.518,0,0,1,10.882,9.528Zm2.607-.25v0c.274-.443.473-.784.626-1.074a4.481,4.481,0,0,0,.392-1.056c.017-.061.047-.089.1-.089a.361.361,0,0,1,.139.041V8.583c-.3.182-.641.38-1.048.606a.369.369,0,0,1-.205.089Zm21.646-.043h0V8.173c.743.065,1.1.269,1.1.625,0,.168-.107.265-.326.3-.195.024-.449.07-.776.14ZM14.744,8.583V7.1a2.933,2.933,0,0,1,.441.28c.294.24.443.41.443.5a.247.247,0,0,1-.142.2c-.185.141-.427.3-.74.5ZM5.863,7.409V4.586a.72.72,0,0,1,.09,0,2.069,2.069,0,0,1,.91.481c.383.226.578.464.578.707a.368.368,0,0,1-.186.278c-.41.362-.878.819-1.39,1.358Zm29.273-.731h0V5.607c.733.061,1.1.272,1.1.626,0,.185-.1.282-.3.3-.239.031-.509.081-.8.148ZM30.285,4.95a.806.806,0,0,1-.531-.255,9.577,9.577,0,0,1-1.56-1.97.488.488,0,0,1-.139-.227c.014-.142.074-.208.186-.208a3.035,3.035,0,0,1,.766.113,5.78,5.78,0,0,1,1.557.613V4.866A.54.54,0,0,1,30.285,4.95Zm.28-.084V3.017l.046.029a1.19,1.19,0,0,1,.42.985,1.027,1.027,0,0,1-.233.643,1.079,1.079,0,0,1-.232.193ZM14.744,4.191h0V2.974a.737.737,0,0,1,.234-.042,3.281,3.281,0,0,1,.695.113c.4.168.607.322.607.458a.475.475,0,0,1-.071.254.425.425,0,0,1-.3.184c-.388.089-.779.173-1.162.25Z" transform="translate(178.897 8.75)" fill="#1e2087"/>
  <g id="Group_7" data-name="Group 7" transform="translate(230.189 6.25)">
    <path id="Clip_6-2" data-name="Clip 6" d="M0,0H73.429V21.932H0Z" transform="translate(0.031 0.539)" fill="none"/>
    <g id="Group_7-2" data-name="Group 7" clip-path="url(#clip-path)">
      <path id="Fill_5" data-name="Fill 5" d="M37.23,21.932c-.142,0-.236-.586-.28-1.742-.048-.286-.08-3-.1-8.079-.975.132-1.726.227-2.293.291-.662.075-1.111.113-1.334.113-.065,0-.1-.017-.116-.05-.032.66-.187.981-.472.981-.182,0-.361-.129-.535-.382a1.087,1.087,0,0,1-.212-.549,11.471,11.471,0,0,1-.656-3.1,9.352,9.352,0,0,0-.654-2.1,2.437,2.437,0,0,0-.751-1.025c0-.192.153-.284.467-.284A4.4,4.4,0,0,1,31.45,6.2a2.481,2.481,0,0,1,.582.456,7.406,7.406,0,0,0,1.243-.167q.663-.1,1.286-.2c.794-.12,1.565-.229,2.293-.326V2.575A4.4,4.4,0,0,0,36.292.192c0-.127.1-.192.284-.192A3.028,3.028,0,0,1,37.7.216c.62.3.934.58.934.833a4.2,4.2,0,0,1-.044.55,4.861,4.861,0,0,0-.236,1.859V5.793c.66-.076,1.306-.14,1.922-.192.122-.007.252-.016.408-.031v.695c-.528.037-1.1.086-1.7.146-.223.034-.436.058-.632.073,0,1.806-.008,3.28-.023,4.5.877-.1,1.668-.22,2.353-.349v1.113c-.791.047-1.582.111-2.353.193-.015,1.547-.039,2.807-.068,3.645a40.551,40.551,0,0,1-.4,4.6C37.639,21.362,37.433,21.932,37.23,21.932ZM34.561,7.016c-.742.131-1.513.281-2.292.445l.679,4.077c.446-.015.974-.049,1.614-.106.669-.061,1.44-.146,2.293-.252V6.652C36.1,6.758,35.325,6.88,34.561,7.016ZM6.272,20.594c-.124,0-.216-.1-.28-.31l-.046-.113v-.005h0a9.958,9.958,0,0,0-.959-1.835.573.573,0,0,1-.115-.31v-.1a8.721,8.721,0,0,0,1.076.622.673.673,0,0,0,.234.069.439.439,0,0,0,.4-.309A8.612,8.612,0,0,0,7.163,16.4,18.747,18.747,0,0,0,7.4,13.255a2.761,2.761,0,0,0-.211-.957c-.083-.191-.19-.284-.329-.284a7.554,7.554,0,0,0-.913.068c-.228.028-.5.068-.821.122-.284.045-.543.093-.77.142h0v-.6c.4-.064.755-.115,1.1-.157.047-.643.071-1.142.071-1.481V9.679a3.663,3.663,0,0,1-.467.049c-.257,0-.494-.01-.7-.031h0c-.111-.01-.221-.025-.327-.042-.246-.075-.375-.142-.375-.192a.275.275,0,0,1,.212-.309L3.9,9.147c.152-.026.3-.052.452-.079.37-.067.763-.142,1.17-.223-.016-.572-.031-1.066-.047-1.552a3.112,3.112,0,0,1-.42.049,5.648,5.648,0,0,1-.7-.04h0c-.116-.015-.226-.034-.326-.057-.246-.06-.375-.126-.375-.192a.282.282,0,0,1,.212-.284c.146-.025.3-.053.491-.09.352-.069.711-.149,1.1-.243-.012-.439-.031-1.1-.068-1.742a7.749,7.749,0,0,1-.891.074H4.354v-.9a12.106,12.106,0,0,0,1.31-.221c.1-.023.193-.048.282-.071a8.131,8.131,0,0,0,1.241-.429.637.637,0,0,1,.3-.093,3.86,3.86,0,0,1,.727.118,2.976,2.976,0,0,1,.4.227v.625a.367.367,0,0,1-.191.079c-.635.158-1.3.3-1.966.427V6.151L6.647,6.1a1.217,1.217,0,0,1,.375-.093c.809,0,1.219.168,1.219.5a.2.2,0,0,1-.163.211c-.6.169-1.13.295-1.619.383V8.6a.27.27,0,0,1,.121-.023,1.4,1.4,0,0,1,.346-.07c.809,0,1.22.152,1.22.453a.21.21,0,0,1-.164.214l-1.005.237-.013,0-.5.119v1.883a3.778,3.778,0,0,0,.563-.167,1.213,1.213,0,0,1,.467-.1,1.965,1.965,0,0,1,.844.334c.115.074.2.134.282.189v1.431a.792.792,0,0,0-.094.337c-.294,3.638-.68,5.795-1.147,6.412A1.369,1.369,0,0,1,6.272,20.594Zm12.736-.736a.323.323,0,0,1-.279-.1,9.07,9.07,0,0,1-1.2-1.046c-.5-.592-.9-1.041-1.2-1.336a3.272,3.272,0,0,0-.35-.311.348.348,0,0,1-.139-.118,8.024,8.024,0,0,1-1.243,1.309,4,4,0,0,1-.934.655h0v-.681a11.29,11.29,0,0,0,1.57-2.119,4.284,4.284,0,0,0,.4-1.624.192.192,0,0,1,.212-.186,1.423,1.423,0,0,1,.489.123v1.883c-.052.065-.105.134-.163.211l.163.056h0c.479.17.945.362,1.427.587a4.479,4.479,0,0,1,1.431,1,1.693,1.693,0,0,1,.279.9,1.132,1.132,0,0,1-.139.526C19.255,19.771,19.147,19.858,19.008,19.858Zm-10.674-.1c-.127,0-.188-.031-.188-.094.189-.2.334-.346.47-.49v.514A.7.7,0,0,1,8.334,19.76Zm.282-.07v-.514a11.728,11.728,0,0,0,1.9-2.37,3.935,3.935,0,0,0,.444-1.643c.031-.127.094-.192.187-.192a.78.78,0,0,1,.106.009V17.5l-.034-.049a8.946,8.946,0,0,1-1.407,1.477,5.242,5.242,0,0,1-1.147.741l-.044.023Zm4.588-.622c-.128,0-.188-.029-.188-.093.234-.26.454-.509.655-.742v.681c-.053.029-.106.055-.163.083A.73.73,0,0,1,13.2,19.067Zm-.655-.187a.4.4,0,0,1-.283-.073,3.642,3.642,0,0,1-.561-.643c-.187-.279-.341-.5-.456-.668V14.98a3.37,3.37,0,0,1,.833.3c.327.236.484.421.468.549a.287.287,0,0,1-.1.212c-.307.314-.6.636-.868.956a3.961,3.961,0,0,1,.5.167,2.149,2.149,0,0,1,.795.525.71.71,0,0,1,.14.427,1.63,1.63,0,0,1-.116.55A.419.419,0,0,1,12.549,18.88Zm54.4-.667a9.2,9.2,0,0,1-2.225-.265,8.987,8.987,0,0,1-1.85-.666,6.76,6.76,0,0,1-1.8-1.408,8.9,8.9,0,0,1-1.054-1.526,9.751,9.751,0,0,1-.724-2.218,10.1,10.1,0,0,0-.75-2.477c0-.208.031-.309.1-.309a1.089,1.089,0,0,1,1.215.858,8.053,8.053,0,0,0,.8,2.717,4.281,4.281,0,0,0,1,1.57,4.038,4.038,0,0,0,1.71,1.172,6.327,6.327,0,0,0,2.363.452,10.336,10.336,0,0,0,2.857-.382c.172,0,.256-.156.256-.476L67.9,11.92c0-.173.032-.264.092-.264a.277.277,0,0,1,.236.167,24.385,24.385,0,0,0,2.2,2.481v3.46A15.065,15.065,0,0,1,66.946,18.213Zm3.486-.449h0V14.3c.156.153.309.3.47.452a1.52,1.52,0,0,0,.631.427c.451.146.679.556.679,1.217a.86.86,0,0,1-.256.623,2.819,2.819,0,0,1-1.127.643c-.136.036-.27.069-.4.1ZM.654,17.758a.6.6,0,0,1-.538-.4A1.868,1.868,0,0,1,0,16.708a1.818,1.818,0,0,1,.1-.57A9.3,9.3,0,0,0,.867,14.23c.016-.211.069-.309.164-.309.077,0,.148.088.212.261a2.557,2.557,0,0,1,.351,1.074,4.561,4.561,0,0,1-.259,1.453,2.441,2.441,0,0,1-.351.788C.859,17.673.751,17.758.654,17.758Zm15.683-1.447V14.428c.122.05.253.11.4.185.353.235.518.42.49.549a.412.412,0,0,1-.072.212c-.327.346-.6.66-.819.935Zm-13.622-.1a.127.127,0,0,1-.1-.056h0l0,0A.616.616,0,0,1,2.529,16a9.982,9.982,0,0,1-.516-1.6.538.538,0,0,1-.048-.191c.016-.062.049-.094.1-.094a.778.778,0,0,1,.328.094,2.149,2.149,0,0,1,.232.122,1.567,1.567,0,0,1,.471.427,1.405,1.405,0,0,1,.184.81.789.789,0,0,1-.164.452A.538.538,0,0,1,2.716,16.208Zm1.874-.545c-.072,0-.152-.061-.236-.18l0,0-.022-.033A10.443,10.443,0,0,1,3.6,14.015a.619.619,0,0,1-.044-.191.091.091,0,0,1,.093-.069,1.5,1.5,0,0,1,.4.069,2.816,2.816,0,0,1,.3.134,1.6,1.6,0,0,1,.467.346,1.154,1.154,0,0,1,.236.76.581.581,0,0,1-.14.382C4.787,15.592,4.68,15.663,4.59,15.663Zm50.486-.5a.843.843,0,0,1-.726-.455,3.438,3.438,0,0,1-.116-.883,3.4,3.4,0,0,1,.14-.9A14.656,14.656,0,0,0,55.8,9.772c.029-.348.131-.525.3-.525.092,0,.179.12.257.357a3.367,3.367,0,0,1,.4,1.359,7.037,7.037,0,0,1-.467,2.433,3.563,3.563,0,0,1-.655,1.383A.763.763,0,0,1,55.076,15.162Zm-44.492-.1a.4.4,0,0,1-.332-.216.706.706,0,0,1-.139-.358,6.292,6.292,0,0,1-.352-1.477,3.38,3.38,0,0,0-.3-.976.944.944,0,0,0-.371-.476c0-.144.094-.216.28-.216a2.134,2.134,0,0,1,.679.143.855.855,0,0,1,.279.167l.127-.026c.11-.023.215-.044.316-.067a2.484,2.484,0,0,0,.481-.164v.613l-.011,0c-.287.049-.524.081-.726.1l.163,1.693a2.4,2.4,0,0,0,.517-.122l.058-.016v.694a1.986,1.986,0,0,1-.293.038,1.079,1.079,0,0,1-.208-.023l.02.117C10.75,14.877,10.69,15.065,10.583,15.065Zm-4.311,0a.326.326,0,0,1-.257-.192c-.023-.025-.046-.053-.069-.083V13.37a1.663,1.663,0,0,1,.562.384,1.018,1.018,0,0,1,.236.736.61.61,0,0,1-.164.407A.411.411,0,0,1,6.272,15.065Zm-.326-.274,0,0a7.223,7.223,0,0,1-.723-1.368.413.413,0,0,1-.073-.166c.017-.066.049-.1.1-.1a.941.941,0,0,1,.4.1,2.677,2.677,0,0,1,.305.115v1.42Zm9.223-.393a.39.39,0,0,1-.328-.239.575.575,0,0,1-.139-.334,4.98,4.98,0,0,1-.305-1.379,3.119,3.119,0,0,0-.307-.907.87.87,0,0,0-.328-.476c0-.129.093-.192.284-.192a2.522,2.522,0,0,1,.679.118.566.566,0,0,1,.208.119,4.073,4.073,0,0,0,.679-.143,2.771,2.771,0,0,0,.725-.209V11.5c-.069.013-.145.028-.21.042a4.865,4.865,0,0,1-.935.118l.116,1.574c.142-.015.329-.044.587-.094.16-.032.309-.066.442-.1v.724c-.455.049-.708.067-.793.067a.8.8,0,0,1-.188-.02v.02C15.341,14.2,15.278,14.4,15.169,14.4Zm-3.921-.038h0v-.693a1.829,1.829,0,0,0,.5-.22,6.767,6.767,0,0,0,.235-1.432c0-.064-.059-.094-.187-.094a2.974,2.974,0,0,0-.549.092V11.4a2.562,2.562,0,0,0,.5-.312.953.953,0,0,1,.423-.216,2.96,2.96,0,0,1,.82.261c.456.292.672.48.679.592v.019a.328.328,0,0,1-.092.222,4.536,4.536,0,0,0-.823,1.026l-.073.168c-.048.11-.093.213-.134.311l.123.093.065.05c.245.235.37.4.37.5,0,.032-.013.045-.044.045a7.985,7.985,0,0,0-1.4.122l-.013,0c-.156.032-.29.059-.4.077Zm5.09-.6h0v-.722a3.676,3.676,0,0,0,.354-.113.092.092,0,0,1,.067-.024,4.586,4.586,0,0,0,.284-1.24c0-.143-.1-.216-.284-.216a2.693,2.693,0,0,0-.421.056v-.741a2.868,2.868,0,0,0,.4-.218,1.136,1.136,0,0,1,.49-.24,3.218,3.218,0,0,1,.911.309c.519.291.771.5.771.647a.436.436,0,0,1-.068.237,3.509,3.509,0,0,0-.958.956,2.633,2.633,0,0,0-.327.643l.014.016c.009.011.018.022.029.032.246.23.375.41.375.52,0,.017-.024.025-.071.025-.526,0-1.045.025-1.544.073l-.024,0Zm-7.72-.652h0V11.678c.312.225.469.4.469.526a1.073,1.073,0,0,1-.12.383A2.874,2.874,0,0,0,8.618,13.106Zm-6.089-.14a.581.581,0,0,1-.468-.309.978.978,0,0,1-.188-.545,1.122,1.122,0,0,1,.116-.383A5.6,5.6,0,0,0,2.2,10.419c.093-.987.14-2.111.14-3.34a11.069,11.069,0,0,0-.256-2.5,4.059,4.059,0,0,1-.212-.765c0-.125.092-.186.281-.186a1.9,1.9,0,0,1,.467.09v9.238A.422.422,0,0,1,2.529,12.965Zm.092-.013h0V3.715l.07.022.094.03a1.231,1.231,0,0,1,.375.215c.432-.033.834-.072,1.194-.116v.9a6.174,6.174,0,0,1-.984-.073c-.013.512-.046,1.447-.1,2.863v.01l-.018.514c-.049,2.54-.072,3.793-.072,3.839h.091a1.411,1.411,0,0,0,.352-.048c.276-.052.507-.093.727-.13v.6a3.191,3.191,0,0,0-.984.334,5.1,5.1,0,0,1-.748.272Zm38.061-1.2h0V10.639c.366-.07.708-.143,1.019-.22.137-.028.278-.06.443-.1a6.49,6.49,0,0,0,.632-1.668,7.573,7.573,0,0,0,.259-1.977c0-.306-.214-.463-.655-.481-.466,0-1.037.024-1.7.07V5.571a12.247,12.247,0,0,0,2.329-.47,3.41,3.41,0,0,1,.49-.049,7.618,7.618,0,0,1,1.431.668c.866.47,1.287.783,1.287.956a.711.711,0,0,1-.3.476,4.18,4.18,0,0,0-1.242,1.285,11.884,11.884,0,0,0-1.1,2.168.838.838,0,0,0,.116.074c.379.369.563.618.563.76a.275.275,0,0,1-.309.216c-1.107,0-2.2.032-3.262.1ZM8.146,10.964h0V10.87c.184-.229.334-.418.47-.594v.481l-.026.015a1.123,1.123,0,0,1-.443.191Zm64.441-.094a.579.579,0,0,1-.467-.167,10.584,10.584,0,0,1-1.267-1.456c-.131-.2-.268-.407-.421-.634l0,0a10.986,10.986,0,0,0-1.238-1.626c-.358-.349-.539-.614-.539-.789,0-.125.031-.186.1-.186a3.326,3.326,0,0,1,.747.118c.307.125.622.261.937.4.375.17.7.326,1.008.479A4.833,4.833,0,0,1,73.1,8.345,2.423,2.423,0,0,1,73.43,9.56a2.222,2.222,0,0,1-.236.928A.663.663,0,0,1,72.587,10.87ZM8.616,10.758v-.481c.707-.911,1.353-1.818,1.919-2.7.238-.394.471-.81.714-1.272v2c-.3.376-.6.727-.9,1.042a7.9,7.9,0,0,1-1.729,1.411Zm10.672-.652a1.3,1.3,0,0,1-.771-.142,20.791,20.791,0,0,1-2.179-2.5h0l0,0c-.418-.545-.874-1.17-1.355-1.858A13.92,13.92,0,0,0,13.95,4.41c-.109-.1-.2-.183-.279-.261V1.371a4.512,4.512,0,0,1,.4.248c.3.148.444.336.444.573a.507.507,0,0,1-.073.265,4.8,4.8,0,0,0-.279.57c-.04.1-.079.191-.117.286s-.078.192-.118.288a3.378,3.378,0,0,1,.963.809c.487.528.975,1.022,1.448,1.47s.93.842,1.384,1.2a23.129,23.129,0,0,0,4.847,2.575v.073c0,.077-.115.126-.332.142A21.141,21.141,0,0,1,19.288,10.105Zm-6.739-.378a6.746,6.746,0,0,1-1.031-.073,2.192,2.192,0,0,1-.269-.1V9.191a.238.238,0,0,1,.081-.037,21.28,21.28,0,0,0,2.342-.614v1A7.671,7.671,0,0,1,12.549,9.727Zm1.122-.191h0v-1c.3-.1.6-.206.89-.319a1.478,1.478,0,0,1,.42-.118c.809,0,1.219.168,1.219.5a.284.284,0,0,1-.188.29,24.173,24.173,0,0,1-2.34.642Zm50.395-.289a.994.994,0,0,1-.68-.354,15.819,15.819,0,0,1-1.966-2.84.645.645,0,0,1-.165-.333.173.173,0,0,1,.189-.167,2.854,2.854,0,0,1,.887.167A5.172,5.172,0,0,1,64.2,6.77a2.285,2.285,0,0,1,.517,1.619,1.011,1.011,0,0,1-.212.6A.64.64,0,0,1,64.066,9.248ZM11.248,8.3v-2c.21-.4.419-.823.621-1.255a12.237,12.237,0,0,0,.843-2.36,3.159,3.159,0,0,0,.139-.785.948.948,0,0,1-.211-.549c0-.141.1-.215.279-.215a1.626,1.626,0,0,1,.752.227V4.15A20.658,20.658,0,0,1,12.428,6.6,18.534,18.534,0,0,1,11.25,8.3ZM8.616,4.022V3.4c.125.09.185.165.185.229a.469.469,0,0,1-.092.284.414.414,0,0,1-.092.111Z" transform="translate(0.031 0.539)" fill="#1e2087"/>
    </g>
  </g>
  <path id="Fill_8" data-name="Fill 8" d="M7.777,21.25a.247.247,0,0,1-.22-.094,4.893,4.893,0,0,1-.464-.806c-.08-.186-.154-.358-.22-.513a9.187,9.187,0,0,0-1.514.468,7.614,7.614,0,0,0-1.437.617,3.067,3.067,0,0,0-.319.223.4.4,0,0,1-.2.1.651.651,0,0,1-.42-.221.759.759,0,0,1-.2-.384.2.2,0,0,1,.088-.187,4.646,4.646,0,0,0,.5-.433,8.758,8.758,0,0,0,.94-1.319,6.871,6.871,0,0,0,.52-.979,2.021,2.021,0,0,0,.032-.352c-.411.069-.876.17-1.381.3a.562.562,0,0,1-.167.024,1.16,1.16,0,0,1-.452-.139c-.176-.1-.255-.156-.255-.188a.081.081,0,0,1,.088-.093c.615-.1,1.117-.176,1.492-.221L4.593,17H4.6l.447-.067.067-1.517a3.416,3.416,0,0,1-.476.046,1.648,1.648,0,0,1-.972-.187c-.119-.086-.176-.144-.176-.175s.03-.046.089-.046c.572-.05,1.092-.114,1.545-.188l.023-.559a8.891,8.891,0,0,0-.111-1.449.958.958,0,0,0-.286-.572.2.2,0,0,1-.023-.093c0-.124.074-.186.22-.186a1.842,1.842,0,0,1,.774.2c.279.148.42.29.42.42,0,.031-.024.067-.077.118a2.466,2.466,0,0,0-.255.91l-.043,1.075a.03.03,0,0,1,.022-.012,6.511,6.511,0,0,0,1.1-.433.415.415,0,0,1,.223-.082,1.952,1.952,0,0,1,.387.069c.213.095.32.185.32.269a.337.337,0,0,1-.046.165.3.3,0,0,1-.176.105,14.7,14.7,0,0,1-1.868.49l-.066,1.54c.727-.121,1.378-.258,1.933-.408a3.412,3.412,0,0,1,.883-.127,2.544,2.544,0,0,1,.73.117c.312.149.464.279.464.4,0,.044-.041.1-.122.175a.381.381,0,0,1-.275.115c-1.427,0-2.642.051-3.612.151a2.4,2.4,0,0,0-.254.036l.013.009a.989.989,0,0,1,.074.072.6.6,0,0,1,.288.467.162.162,0,0,1-.067.118,2.885,2.885,0,0,0-.441.478c-.427.555-.864,1.146-1.337,1.809.911-.168,1.866-.364,2.839-.583-.135-.285-.237-.487-.3-.584a.947.947,0,0,1-.211-.442c0-.057.014-.082.045-.082a1.026,1.026,0,0,1,.3.069,7.427,7.427,0,0,1,.75.536,2.375,2.375,0,0,1,.63.807,2.018,2.018,0,0,1,.135.723.917.917,0,0,1-.1.4A.277.277,0,0,1,7.777,21.25ZM.839,21.075c-.1,0-.232-.138-.387-.41a2.163,2.163,0,0,1-.231-.723A.28.28,0,0,1,.31,19.71a2.283,2.283,0,0,0,.5-.479,27.258,27.258,0,0,0,1.358-2.417.067.067,0,0,1,.044-.049.1.1,0,0,1,.044.094,1.608,1.608,0,0,1-.11.457c-.483,1.384-.753,2.189-.85,2.533a4.348,4.348,0,0,0-.155.665C1.051,20.887.95,21.075.839,21.075Zm19.79-.2a2.508,2.508,0,0,1-1.159-.141,32.191,32.191,0,0,1-2.6-4.039c-.15-.272-.263-.483-.372-.689-.217.5-.408.905-.582,1.229h0V15.566c.105-.27.2-.549.285-.83a4.115,4.115,0,0,0,.221-1.238c0-.23-.032-.371-.1-.432a.924.924,0,0,1-.033-.221c0-.124.074-.187.22-.187a.882.882,0,0,1,.361.1v2.419c-.058.14-.12.283-.183.426.044.07.088.138.132.206l.051.079a13.943,13.943,0,0,0,1.43,1.9,6.923,6.923,0,0,0,1.237,1.132,12.2,12.2,0,0,0,2.983,1.694c0,.116-.026.182-.077.2C21.872,20.854,21.263,20.877,20.629,20.877Zm-8.672-.268c-.059,0-.088-.032-.088-.094A10.675,10.675,0,0,0,13.592,19.2a11.205,11.205,0,0,0,1.568-2.079,10.611,10.611,0,0,0,.753-1.552V17.24c-.083.154-.165.3-.243.425A7.843,7.843,0,0,1,13.8,19.71a11.626,11.626,0,0,1-1.271.723A5.574,5.574,0,0,1,11.957,20.609ZM1.116,16.673a.312.312,0,0,1-.244-.14A4.82,4.82,0,0,1,.2,15.448a.242.242,0,0,1-.068-.128c.008-.063.037-.094.089-.094a1.2,1.2,0,0,1,.343.058,2.074,2.074,0,0,1,.707.374.746.746,0,0,1,.188.548.574.574,0,0,1-.111.327A.328.328,0,0,1,1.116,16.673Zm15.755-1.5h0V12.754a2.615,2.615,0,0,1,.336.194c.3.194.454.379.454.55a.31.31,0,0,1-.111.222,1.637,1.637,0,0,0-.275.444C17.138,14.513,17,14.851,16.871,15.168Zm-14.617-.83a.332.332,0,0,1-.233-.141,5.447,5.447,0,0,1-.672-1.074.231.231,0,0,1-.066-.139c.015-.062.044-.094.087-.094a1.275,1.275,0,0,1,.341.058,2.6,2.6,0,0,1,.587.28v1.106A.18.18,0,0,1,2.254,14.339Zm.044,0h0v-1.1c.038.026.076.054.11.083a.733.733,0,0,1,.2.56A.547.547,0,0,1,2.5,14.2a.384.384,0,0,1-.2.137ZM20,10.322a.262.262,0,0,1-.232-.175,6.5,6.5,0,0,0-.509-1.213.4.4,0,0,1-.043-.082c-.785.01-1.575.04-2.347.092-.281.018-.59.04-.945.071l-.01,0h0V8.653l.265-.024c.217-.016.443-.035.69-.056.7-.062,1.315-.133,1.817-.211a2.79,2.79,0,0,1,.475-.048.665.665,0,0,1,.441.15l.014.015.02.021V8.477c.095-.932.143-2.161.143-3.655,0-1.118-.056-2.276-.167-3.443a.956.956,0,0,0-.231-.666.381.381,0,0,0-.31-.153,7.1,7.1,0,0,0-1.084.094c-.4.026-.775.059-1.12.1l-.284.033L16.62.8c.023.011.045.021.066.032a1.1,1.1,0,0,1,.183.093V2.115c0,.1-.006.213-.006.338h.006c.366-.07.75-.156,1.142-.256a1.339,1.339,0,0,1,.475.187c.271.176.409.3.409.373a.145.145,0,0,1-.054.106,2.012,2.012,0,0,0-.343.524,4.529,4.529,0,0,1-.31.864.384.384,0,0,1-.155.188.343.343,0,0,1-.155.046.151.151,0,0,1-.122-.082.5.5,0,0,0-.144-.187,6.357,6.357,0,0,0-.744.068l-.029,0c.015.2.023.413.023.63l.006,0h0c.129-.03.256-.056.392-.08.2-.046.334-.078.419-.093-.02-.035-.041-.074-.067-.116a.3.3,0,0,1-.043-.094c.007-.031.022-.048.043-.048a.891.891,0,0,1,.232.036,1.587,1.587,0,0,1,.474.233.442.442,0,0,1,.134.351.317.317,0,0,1-.068.186.214.214,0,0,1-.154.082.232.232,0,0,1-.166-.082,2.838,2.838,0,0,1-.265-.363l-.118.041c-.116.041-.236.083-.356.122a2.8,2.8,0,0,1,.243.175.445.445,0,0,1,.231.35.459.459,0,0,0-.066.116c.086-.016.164-.028.234-.04l.107-.018a4.138,4.138,0,0,1,.6-.058,1.42,1.42,0,0,1,.376.128c.189.116.285.21.285.282,0,.122-.059.184-.175.184a3.284,3.284,0,0,1-.355-.033,2.4,2.4,0,0,0-.441-.048H17.7v1.3a1.538,1.538,0,0,1-.22.7c-.131.217-.235.327-.31.327a.126.126,0,0,1-.122-.1C17,8.28,16.939,8.2,16.869,8.1l0,0c-.122-.163-.279-.369-.48-.629,0-.06.011-.093.031-.093a1.056,1.056,0,0,0,.45.2.253.253,0,0,0,.037,0,.223.223,0,0,0,.22-.163,10.631,10.631,0,0,0,.046-1.262l-.037,0c-.068.007-.133.013-.2.021l-.071,0a7.261,7.261,0,0,0-.955.141h0v-.3c.395-.06.7-.106.956-.148l.3-.049a1.624,1.624,0,0,0-.143-.642h-.012l-.148.044a9.292,9.292,0,0,0-.954.344h0V5.051l.518-.065c0-.243,0-.454.012-.643-.228.036-.4.061-.53.077-.113.013-.167.017-.2.017a.319.319,0,0,1-.086-.013c-.022.171-.068.257-.134.257s-.108-.046-.155-.14a.453.453,0,0,1-.066-.2,2.792,2.792,0,0,1-.2-.84,2.02,2.02,0,0,0-.2-.561.588.588,0,0,0-.22-.269c0-.062.044-.094.131-.094a1.527,1.527,0,0,1,.344.048.484.484,0,0,1,.121.069c.217-.018.441-.043.664-.074.172-.024.357-.054.552-.089V2.09a2.767,2.767,0,0,1-.53.07h-.022v-.4c.184-.022.358-.047.518-.077a.67.67,0,0,0-.013-.15,1.528,1.528,0,0,0-.175-.41A.7.7,0,0,1,16.11.841l-.2.025h0c-.429.058-.841.123-1.226.2a1.293,1.293,0,0,1-.389.071.828.828,0,0,1-.241-.036c-.015.176-.023.429-.023.772-.021,2.742-.048,5.132-.077,6.91.476-.012,1.116-.053,1.956-.127v.364c-1.131.1-1.738.149-1.967.149v.083a1.16,1.16,0,0,1-.132.4c-.087.109-.162.164-.222.164-.133,0-.24-.146-.319-.433a1.913,1.913,0,0,1-.122-.548.711.711,0,0,0,.034-.2c.124-.9.2-1.609.232-2.112.059-1.152.088-2.605.088-4.32A4.376,4.376,0,0,0,13.262.713.786.786,0,0,1,13.24.56c0-.062.074-.093.219-.093a.845.845,0,0,1,.454.186c.051.028.1.054.145.082.577-.03,1.2-.08,1.856-.149.327-.034.639-.068.956-.107.2-.024.5-.06.833-.105A10.524,10.524,0,0,0,19.336.048.23.23,0,0,1,19.47,0a3.318,3.318,0,0,1,.685.257c.41.24.61.4.6.49a.512.512,0,0,1-.089.281,4.093,4.093,0,0,0-.309,2c0,.5.025,1.287.077,2.394.065,1.831.1,3.022.1,3.445a2.77,2.77,0,0,1-.2,1.014C20.211,10.177,20.1,10.322,20,10.322ZM15.913,2.867c-.211.019-.4.029-.553.029L15.6,4.2c.092,0,.2-.012.31-.026.16-.019.342-.045.54-.08V3.6a1.045,1.045,0,0,1-.121.012,1.384,1.384,0,0,1-.419-.059v-.2c.216-.033.391-.063.552-.1V2.8C16.225,2.834,16.054,2.853,15.913,2.867Zm.956.669-.029,0v.49l.029,0h0a3.706,3.706,0,0,0,.524-.113.5.5,0,0,1,.177-.033.473.473,0,0,1,.243.057,4.232,4.232,0,0,0,.155-.608,3.064,3.064,0,0,0,.043-.478c0-.181-.043-.269-.132-.269-.428.078-.74.131-1.01.171l-.029,0v.42l.019-.006.01,0,.012,0,.025,0a.573.573,0,0,1,.134-.024c.352,0,.53.075.53.223,0,.03-.022.049-.067.059-.233.044-.441.082-.633.113h0Zm-9.71,6.647a.379.379,0,0,1-.386-.292A7,7,0,0,0,5.567,8.5a.082.082,0,0,1,.089-.094A3.408,3.408,0,0,0,6.8,8.873c.074,0,.121-.072.145-.22A12.431,12.431,0,0,0,7.07,7.1c.035-.753.061-1.563.078-2.475a8.245,8.245,0,0,1-.53.9A6.828,6.828,0,0,1,5.657,6.68a4.472,4.472,0,0,1-.885.642,2.38,2.38,0,0,1-.485.2H4.2a10.265,10.265,0,0,0,.894-.947A11.778,11.778,0,0,0,6.231,5.033,5.84,5.84,0,0,0,6.8,3.981a1.162,1.162,0,0,0,.066-.2.011.011,0,0,1-.01,0,9.509,9.509,0,0,1-1.336.139,1.671,1.671,0,0,1-.973-.186c-.119-.088-.177-.15-.177-.188S4.4,3.5,4.462,3.5a18.079,18.079,0,0,0,2.7-.3c-.008-.58-.03-1.111-.067-1.577A3.423,3.423,0,0,0,6.8.374.4.4,0,0,1,6.773.233c0-.123.085-.185.254-.185a1.475,1.475,0,0,1,.728.267.487.487,0,0,1,.332.432A.394.394,0,0,1,8.032.9a3.975,3.975,0,0,0-.3,1.31c-.038.3-.063.586-.076.851a6.355,6.355,0,0,0,.862-.267.622.622,0,0,1,.274-.082,1.69,1.69,0,0,1,.387.07c.212.1.319.187.319.257a.322.322,0,0,1-.053.176.211.211,0,0,1-.167.1c-.5.118-1.036.228-1.634.338v.257c0,1.913.045,3.55.132,4.868a2.337,2.337,0,0,1-.266,1.052C7.377,10.068,7.262,10.183,7.159,10.183ZM.045,8.967A.04.04,0,0,1,0,8.922a6.352,6.352,0,0,0,.741-.806A4.483,4.483,0,0,0,1.38,7.088a.77.77,0,0,0,.079-.408c0-.056.042-.082.132-.082a1.806,1.806,0,0,1,.418.115.665.665,0,0,1,.288.213v.241a.08.08,0,0,1-.023.013A3.5,3.5,0,0,0,1.8,7.66a6.427,6.427,0,0,1-.949.911,3.361,3.361,0,0,1-.618.351A.518.518,0,0,1,.045,8.967ZM3.8,8.734a.158.158,0,0,1-.133-.045,4.087,4.087,0,0,1-.31-.562,5.622,5.622,0,0,0-.4-.9.774.774,0,0,1-.132-.315.04.04,0,0,1,.045-.046.782.782,0,0,1,.2.046c.168.113.336.239.5.374a1.988,1.988,0,0,1,.419.537,1.591,1.591,0,0,1,.078.491.791.791,0,0,1-.067.3A.226.226,0,0,1,3.8,8.734ZM15.889,7.427h0a.154.154,0,0,1-.121-.082,3.563,3.563,0,0,1-.341-.632.167.167,0,0,1-.024-.069c.008-.03.039-.046.089-.046a.75.75,0,0,1,.178.023,1.491,1.491,0,0,1,.243.087v.716Zm.023,0h0V6.709a.744.744,0,0,1,.143.086.336.336,0,0,1,.1.269.433.433,0,0,1-.078.245.259.259,0,0,1-.164.116Zm-.994-.781h0a.7.7,0,0,1-.331-.175c-.127-.1-.2-.179-.2-.21s.015-.048.045-.048c.122-.006.262-.016.441-.033.4-.059.743-.109,1.04-.155v.3c-.051.01-.109.023-.189.042a6.074,6.074,0,0,0-.718.245c-.06.008-.085.018-.086.033ZM3.491,6.6c-.06,0-.145-.106-.254-.316a.68.68,0,0,1-.143-.3,5.581,5.581,0,0,0-.8.077l-.114.02-.04.007a5.45,5.45,0,0,1-.642.095.1.1,0,0,1-.054-.013.693.693,0,0,1-.122.281c-.085.1-.152.152-.21.152C1,6.6.908,6.468.851,6.211a1.618,1.618,0,0,1-.1-.466l.01-.081a9.238,9.238,0,0,0,.122-.935C.913,4.2.928,3.552.928,2.8a3.909,3.909,0,0,0-.2-1.271A.679.679,0,0,1,.707,1.4c0-.062.06-.094.177-.094a.823.823,0,0,1,.4.153.945.945,0,0,1,.12.083c.356-.069.649-.131.9-.19s.447-.112.6-.161a1.368,1.368,0,0,1,.2-.012,2.425,2.425,0,0,1,.508.105c.337.138.508.275.508.409a1.583,1.583,0,0,1-.087.35,1.523,1.523,0,0,0-.077.584c0,.372-.012.7-.034.968-.014.8-.021,1.551-.021,2.242a1.484,1.484,0,0,1-.146.515C3.658,6.516,3.573,6.6,3.491,6.6ZM1.4,4.552c.016.47.026.885.034,1.228.12-.02.264-.049.464-.094A3.914,3.914,0,0,0,2.3,5.6a2.07,2.07,0,0,0,.31-.1.324.324,0,0,1,.132-.036.614.614,0,0,1,.432.153c.035-.455.055-1.59.055-3.281a1.2,1.2,0,0,0-.156-.608A.277.277,0,0,0,2.828,1.6a2.074,2.074,0,0,0-.387.046L2.3,1.679a4.634,4.634,0,0,0-.464.13,1.335,1.335,0,0,1-.419.059H1.38c-.006.184-.01.4-.01.653v.466a6.351,6.351,0,0,0,.729-.2.311.311,0,0,1,.111-.036H2.3v.481l-.154.032a2.548,2.548,0,0,1-.332.046,3.863,3.863,0,0,1-.432-.022c0,.339,0,.665.012.968.27-.048.513-.1.741-.164a.562.562,0,0,1,.122-.023H2.3V4.51l-.132.022a2.441,2.441,0,0,1-.354.058A2.185,2.185,0,0,1,1.4,4.552Zm14.09,1.193a.984.984,0,0,1-.474-.269c-.155-.115-.233-.213-.233-.291,0-.055.028-.081.089-.081a.89.89,0,0,1,.22.045c.074,0,.3-.026.609-.069l.21-.029v.523c-.114.048-.219.1-.321.148A.213.213,0,0,1,15.492,5.745ZM2.3,4.51h0V4.076c.411.005.619.1.619.267,0,.031-.021.05-.067.058-.185.041-.365.076-.551.108Zm0-1.272h0v-.48c.382.013.575.107.575.28,0,.047-.019.074-.057.082-.176.045-.35.085-.517.119ZM15.913,2.16h0A.933.933,0,0,1,15.26,2c-.077-.058-.122-.1-.122-.127s.014-.048.044-.048c.3-.019.528-.039.73-.063v.4Zm.958-.087h0V.922c.085.056.127.111.127.164a.858.858,0,0,0-.033.211,1,1,0,0,0-.045.257,4.059,4.059,0,0,0,.586-.236.3.3,0,0,1,.155-.057,1.131,1.131,0,0,1,.265.057c.148.064.222.123.222.176a.233.233,0,0,1-.034.118.184.184,0,0,1-.1.082,10.763,10.763,0,0,1-1.137.291Z" transform="translate(71.309 8.75)" fill="#1e2087"/>
  <g id="Group_12" data-name="Group 12" transform="translate(0 35)">
    <path id="Clip_11-2" data-name="Clip 11" d="M0,0H302.194V8.617H0Z" transform="translate(0 0.474)" fill="none"/>
    <g id="Group_12-2" data-name="Group 12" clip-path="url(#clip-path-2)">
      <path id="Fill_10" data-name="Fill 10" d="M255.54,8.618a5.41,5.41,0,0,1-3.909-1.225,4.171,4.171,0,0,1-1.239-3.078,4.1,4.1,0,0,1,1.286-3.1A5.6,5.6,0,0,1,255.618,0a18.242,18.242,0,0,1,3.319.359V1.452a20.123,20.123,0,0,0-2.2-.5A8.977,8.977,0,0,0,255.589.87a3.444,3.444,0,0,0-2.752,1,3.671,3.671,0,0,0-.853,2.453,3.236,3.236,0,0,0,.982,2.448,3.892,3.892,0,0,0,2.781.935,6.963,6.963,0,0,0,1-.07,7.734,7.734,0,0,0,.989-.2,10.645,10.645,0,0,0,1.22-.442v1a8.785,8.785,0,0,1-1.16.386,8.006,8.006,0,0,1-1.059.181A10.83,10.83,0,0,1,255.54,8.618Zm-13.691,0a6.949,6.949,0,0,1-2.988-.533,3.754,3.754,0,0,1-1.654-1.536,4.486,4.486,0,0,1-.569-2.239,4.072,4.072,0,0,1,1.291-3.1A5.573,5.573,0,0,1,241.849,0a16,16,0,0,1,3.335.371V1.446a20.122,20.122,0,0,0-2.211-.5A9.227,9.227,0,0,0,241.835.87a3.424,3.424,0,0,0-2.754,1.008,3.656,3.656,0,0,0-.85,2.436,3.833,3.833,0,0,0,.361,1.654A2.942,2.942,0,0,0,239.8,7.24a4.464,4.464,0,0,0,2.283.507c.244,0,.475-.01.685-.031a7.746,7.746,0,0,0,.936-.175V4.869H245.2v3.32a17.4,17.4,0,0,1-2.023.369C242.754,8.6,242.32,8.618,241.849,8.618Zm-32.581,0a9.679,9.679,0,0,1-1.1-.059c-.355-.038-.909-.139-1.645-.3V7.1a12.091,12.091,0,0,0,1.869.548,7.086,7.086,0,0,0,1.094.094,2.4,2.4,0,0,0,1.441-.387,1.123,1.123,0,0,0,.528-.922,1.174,1.174,0,0,0-.277-.75,4.231,4.231,0,0,0-1.4-.826l-.732-.327a6.433,6.433,0,0,1-1.969-1.176,1.69,1.69,0,0,1-.5-1.181,1.753,1.753,0,0,1,.4-1.093,2.66,2.66,0,0,1,1.07-.8A4.338,4.338,0,0,1,209.743,0a11.65,11.65,0,0,1,2.6.316V1.382a15.844,15.844,0,0,0-1.631-.436,5.238,5.238,0,0,0-.882-.076,2.1,2.1,0,0,0-1.364.372,1.027,1.027,0,0,0-.444.759.9.9,0,0,0,.209.542,1.782,1.782,0,0,0,.563.471c.249.137.576.295.972.468l.763.333A6.354,6.354,0,0,1,212.5,5a1.808,1.808,0,0,1,.494,1.248,2.053,2.053,0,0,1-.942,1.663A4.646,4.646,0,0,1,209.268,8.618Zm-28.647,0-.137,0V7.779c.111.011.233.017.365.017a3.876,3.876,0,0,0,1.9-.5c-.667-.632-1.2-1.18-1.587-1.627-.209-.239-.437-.515-.678-.819-.213-.269-.42-.538-.616-.8a2.666,2.666,0,0,0-1.306.728,1.459,1.459,0,0,0-.344.924,1.817,1.817,0,0,0,.363,1.048,2.3,2.3,0,0,0,.941.781,2.965,2.965,0,0,0,.962.25v.836h0a5.558,5.558,0,0,1-1.794-.322,3.022,3.022,0,0,1-1.381-.958,2.178,2.178,0,0,1-.5-1.364,2.361,2.361,0,0,1,.571-1.484A3.745,3.745,0,0,1,179.388,3.4a3.138,3.138,0,0,1-.711-1.667,1.332,1.332,0,0,1,.336-.863,2.262,2.262,0,0,1,.924-.635,3.315,3.315,0,0,1,.547-.161,3.807,3.807,0,0,1,.75-.071,2.827,2.827,0,0,1,1.7.482,1.423,1.423,0,0,1,.662,1.174c0,.816-.779,1.535-2.315,2.138a17.779,17.779,0,0,0,2.5,2.74,2.415,2.415,0,0,0,.391-.554,2.758,2.758,0,0,0,.2-.667,4.816,4.816,0,0,0,.078-.868l-.008-.4h1.4a4.181,4.181,0,0,1-1.408,3.139A12.753,12.753,0,0,0,185.9,8.413h-2.006l-.526-.49A5.328,5.328,0,0,1,180.621,8.618Zm-.137-5.9c.084.128.177.258.277.385,1-.357,1.513-.837,1.513-1.429a.765.765,0,0,0-.293-.609,1.222,1.222,0,0,0-.805-.245,1.294,1.294,0,0,0-.691.158.619.619,0,0,0-.145.119.869.869,0,0,0-.249.583A2.016,2.016,0,0,0,180.484,2.719Zm-12,5.9a6.944,6.944,0,0,1-2.988-.533,3.758,3.758,0,0,1-1.655-1.536,4.5,4.5,0,0,1-.567-2.239,4.074,4.074,0,0,1,1.289-3.1A5.578,5.578,0,0,1,168.484,0a15.994,15.994,0,0,1,3.334.371V1.446a20.106,20.106,0,0,0-2.21-.5A9.256,9.256,0,0,0,168.469.87a3.426,3.426,0,0,0-2.754,1.008,3.656,3.656,0,0,0-.851,2.436,3.833,3.833,0,0,0,.362,1.654,2.939,2.939,0,0,0,1.211,1.272,4.464,4.464,0,0,0,2.283.507c.247,0,.471-.01.684-.031a7.732,7.732,0,0,0,.937-.175V4.869h1.491v3.32a17.4,17.4,0,0,1-2.023.369C169.388,8.6,168.955,8.618,168.484,8.618Zm-76.187,0a6.946,6.946,0,0,1-2.989-.533,3.757,3.757,0,0,1-1.654-1.536,4.5,4.5,0,0,1-.568-2.239,4.074,4.074,0,0,1,1.289-3.1A5.576,5.576,0,0,1,92.3,0,16,16,0,0,1,95.63.371V1.446a20.162,20.162,0,0,0-2.21-.5A9.279,9.279,0,0,0,92.282.87a3.426,3.426,0,0,0-2.754,1.008,3.66,3.66,0,0,0-.851,2.436,3.821,3.821,0,0,0,.362,1.654A2.933,2.933,0,0,0,90.249,7.24a4.464,4.464,0,0,0,2.283.507c.247,0,.471-.01.685-.031a7.864,7.864,0,0,0,.937-.175V4.869h1.49v3.32a17.333,17.333,0,0,1-2.023.369C93.207,8.6,92.761,8.618,92.3,8.618Zm-19.966,0a5.709,5.709,0,0,1-2.2-.36,2.846,2.846,0,0,1-1.269-.988,3.405,3.405,0,0,1-.429-1.9V.2h1.5V5.383a2.238,2.238,0,0,0,.651,1.858,2.9,2.9,0,0,0,1.813.507,3.438,3.438,0,0,0,1.24-.2,1.569,1.569,0,0,0,.787-.639,2.959,2.959,0,0,0,.278-1.487V.2h1.314v5.2a3.392,3.392,0,0,1-.425,1.927,2.91,2.91,0,0,1-1.2.937A5.139,5.139,0,0,1,72.33,8.618Zm-9.282,0a6.946,6.946,0,0,1-2.987-.533,3.754,3.754,0,0,1-1.654-1.536,4.478,4.478,0,0,1-.57-2.239,4.072,4.072,0,0,1,1.291-3.1A5.573,5.573,0,0,1,63.049,0a16.016,16.016,0,0,1,3.335.371V1.446a20.114,20.114,0,0,0-2.211-.5A9.361,9.361,0,0,0,63.035.87a3.424,3.424,0,0,0-2.754,1.008,3.652,3.652,0,0,0-.85,2.436,3.857,3.857,0,0,0,.36,1.654A2.939,2.939,0,0,0,61,7.24a4.464,4.464,0,0,0,2.283.507c.247,0,.471-.01.684-.031a7.745,7.745,0,0,0,.936-.175V4.869H66.4v3.32a17.346,17.346,0,0,1-2.023.369C63.954,8.6,63.52,8.618,63.049,8.618Zm206.266-.2h-1.285V.2h1.47l5.315,6.338V.2H276.1V8.412h-1.462l-5.322-6.341V8.413Zm-41.06,0H226.97V.2h1.47l5.315,6.338V.2h1.284V8.412h-1.462l-5.323-6.341V8.413Zm-73.365,0H153.6V.2h1.469l5.316,6.338V.2h1.284V8.412h-1.462l-5.324-6.341V8.413Zm-13.99,0h-1.283V.2h1.47L146.4,6.542V.2h1.285V8.412h-1.462L140.9,2.073V8.413Zm-91.444,0H48.172V.2H49.64l5.315,6.338V.2H56.24V8.412H54.778L49.455,2.073V8.413Zm-37.988,0h-1.5V.2h1.5V3.665H16.5V.2h1.5V8.412H16.5V4.536H11.467V8.413Zm290.727,0h-1.837l-2.751-3.174-.259-.3h-1.4V8.412h-1.484V.2h3.2a3.7,3.7,0,0,1,2.455.619,1.874,1.874,0,0,1,.678,1.416,1.994,1.994,0,0,1-.239.922,2.615,2.615,0,0,1-.682.808,3.788,3.788,0,0,1-1.206.6l3.522,3.842Zm-6.246-7.339v3h.485a6.764,6.764,0,0,0,1.173-.09,2.12,2.12,0,0,0,1.074-.448,1.6,1.6,0,0,0,.582-1.181,1.077,1.077,0,0,0-.217-.669,1.4,1.4,0,0,0-.679-.447,3.186,3.186,0,0,0-.76-.136c-.212-.016-.452-.025-.715-.025Zm-2.669,7.339h-6.228V.2h5.919v.87h-4.42V3.71h3.706v.86h-3.706V7.542h4.729v.87Zm-10.949,0h-1.5V1.075h-3.749V.2h8.995v.87H282.33V8.412Zm-15.486,0h-6.226V.2h5.919v.87h-4.42V3.71h3.706v.86h-3.706V7.542h4.727v.87Zm-42.083,0h-1.5V.2h1.5V8.412Zm-6.212,0h-1.5V1.075H213.3V.2h9v.87h-3.749V8.412Zm-12.557,0h-6.227V.2h5.92v.87h-4.421V3.71h3.706v.86h-3.706V7.542h4.728v.87Zm-10.949,0h-1.5V1.075H189.8V.2h8.995v.87h-3.749V8.412Zm-43.646,0h-1.5V.2h1.5V8.412Zm-13.99,0h-1.5V.2h1.5V8.412Zm-2.509,0h-1.621L132.124,6.14h-4.477l-1.16,2.273h-1.151l-.12-.131v-.1L129.288.2h1.48L134.9,8.412Zm-5.01-3.14h1.8l-1.791-3.538-.007.015h0l-1.8,3.523ZM125.1,8.413h-1.6l-2.751-3.174-.258-.3h-1.4V8.412h-1.483V.2h3.2a3.7,3.7,0,0,1,2.455.619,1.875,1.875,0,0,1,.679,1.416,1.984,1.984,0,0,1-.239.922,2.61,2.61,0,0,1-.681.808,3.794,3.794,0,0,1-1.208.6l3.37,3.675-.086.168ZM119.09,1.075v3h.485a6.764,6.764,0,0,0,1.173-.09,2.126,2.126,0,0,0,1.075-.448,1.6,1.6,0,0,0,.582-1.181,1.072,1.072,0,0,0-.218-.669,1.394,1.394,0,0,0-.68-.447,3.175,3.175,0,0,0-.76-.136c-.212-.016-.452-.025-.714-.025Zm-6.2,7.339h-1.5V1.075h-3.749V.2h8.995v.87h-3.747V8.412Zm-8.9,0H97.762V.2h5.919v.87H99.26V3.71h3.706v.86H99.26V7.542h4.728v.87Zm-17.3,0H85.07L83.917,6.14H79.44l-1.16,2.273H76.888L81.08.2h1.479l4.13,8.207Zm-5.01-3.14h1.8L81.688,1.735l-.008.015-1.8,3.522ZM47.154,8.413h-1.62L44.381,6.14H39.9L38.743,8.413H37.5v-.3l-.076.148-.076.149h-6.04V.2h1.5V7.542H37.5v.574L41.543.2h1.48l4.13,8.207Zm-5.01-3.14h1.8L42.151,1.735l-.007.015h0l-1.8,3.523ZM26.427,8.413H20.2V.2h5.92v.87H21.7V3.71h3.707v.86H21.7V7.542h4.728v.87Zm-21.18,0h-1.5V1.075H0V.2H8.995v.87H5.247V8.412Z" transform="translate(0 0.474)" fill="#1e2087"/>
    </g>
  </g>
  <path id="Fill_13" data-name="Fill 13" d="M5.082,0H16.263V2.5H11.18v20h-6.1V2.5H0V0Z" transform="translate(8.757 2.5)" fill="#1e2087"/>
  <path id="Fill_15" data-name="Fill 15" d="M5.082,0H16.263V2.5H11.181v20h-6.1V2.5H0V0Z" transform="translate(26.272 2.5)" fill="#1e2087"/>
  <path id="Fill_17" data-name="Fill 17" d="M0,0H6V24.983H60.049v2.5H6V27.5H0Z" transform="translate(0 1.25)" fill="#1e2087"/>
  <path id="Fill_19" data-name="Fill 19" d="M8.39,22.5C3.769,22.5,0,17.446,0,11.25S3.769,0,8.39,0c3.6,0,6.69,3.075,7.873,7.369H13.276c-.748-2.118-2.087-3.534-3.608-3.534-2.334,0-4.238,3.332-4.238,7.416s1.9,7.415,4.238,7.415c1.354,0,2.564-1.122,3.34-2.862h3.051c-1.308,3.939-4.255,6.7-7.669,6.7" transform="translate(43.786 2.5)" fill="#1e2087"/>
  <path id="Fill_21" data-name="Fill 21" d="M3.13,6.25h0a3.16,3.16,0,0,1-1.552-.412A2.917,2.917,0,0,1,.416,4.679,3.142,3.142,0,0,1,0,3.128,3.174,3.174,0,0,1,.421,1.56,2.884,2.884,0,0,1,1.592.4,3.23,3.23,0,0,1,3.128,0V.517A2.7,2.7,0,0,0,1.846.855a2.454,2.454,0,0,0-.976.964A2.654,2.654,0,0,0,.518,3.128,2.623,2.623,0,0,0,.865,4.421a2.464,2.464,0,0,0,.968.966,2.638,2.638,0,0,0,1.294.346h.007a2.64,2.64,0,0,0,1.293-.346,2.46,2.46,0,0,0,.966-.966,2.618,2.618,0,0,0-.006-2.6A2.433,2.433,0,0,0,4.41.855,2.691,2.691,0,0,0,3.13.517l0-.517a3.228,3.228,0,0,1,1.54.4A2.889,2.889,0,0,1,5.837,1.56a3.2,3.2,0,0,1,.418,1.568,3.158,3.158,0,0,1-.413,1.552A2.914,2.914,0,0,1,4.686,5.837,3.171,3.171,0,0,1,3.13,6.25Zm1.454-1.4H3.921l-.3-.53a3.478,3.478,0,0,0-.495-.72.847.847,0,0,0-.072-.062.7.7,0,0,0-.436-.116H2.3V4.853H1.758V1.491H2.913c.076,0,.147,0,.214,0a2.223,2.223,0,0,1,.644.089.839.839,0,0,1,.423.325.876.876,0,0,1,.157.493.9.9,0,0,1-.263.642,1.048,1.048,0,0,1-.7.307.87.87,0,0,1,.285.178,3.811,3.811,0,0,1,.5.667l.409.656ZM2.3,1.947V2.962H2.96c.059,0,.115,0,.167-.005A.856.856,0,0,0,3.6,2.821a.459.459,0,0,0,.174-.374.45.45,0,0,0-.085-.266.488.488,0,0,0-.23-.176,1.076,1.076,0,0,0-.336-.053c-.06,0-.126-.005-.21-.005Z" transform="translate(62.551)" fill="#1e2087"/>
</svg>
