<svg xmlns="http://www.w3.org/2000/svg" width="248" height="248" viewBox="0 0 248 248">
  <g id="pagEx05-18" transform="translate(6 6)">
    <path id="Shape" d="M118-6A124,124,0,1,1-6,118,124.14,124.14,0,0,1,118-6Zm0,236A112,112,0,1,0,6,118,112.127,112.127,0,0,0,118,230Z" fill="#fff"/>
    <path id="Shape-2" data-name="Shape" d="M77.705,44.88l-70-44.1A5.075,5.075,0,0,0,2.608.6,4.88,4.88,0,0,0,0,4.9V93.1a4.88,4.88,0,0,0,2.608,4.3,5.082,5.082,0,0,0,5.1-.182l70-44.1a4.846,4.846,0,0,0,0-8.24Z" transform="translate(88 70)" fill="#fff"/>
  </g>
</svg>
