<svg xmlns="http://www.w3.org/2000/svg" width="328" height="328" viewBox="0 0 328 328">
  <path id="pagEx05-24" d="M328,164A164,164,0,1,1,164,0,164,164,0,0,1,328,164" fill="rgba(181,213,255,0.2)"/>
</svg>
