<?xml version="1.0" encoding="UTF-8"?>
<svg width="621px" height="83px" viewBox="0 0 621 83" version="1.1" xmlns="http://www.w3.org/2000/svg" xmlns:xlink="http://www.w3.org/1999/xlink">
    <!-- Generator: Sketch 59.1 (86144) - https://sketch.com -->
    <title>Group 59 Copy</title>
    <desc>Created with Sketch.</desc>
    <g id="Page-1" stroke="none" stroke-width="1" fill="none" fill-rule="evenodd">
        <g id="Group-59-Copy" transform="translate(2.000000, 1.000000)">
            <polygon id="Fill-1-Copy-2" fill="#F4D0B7" points="19.4673218 0 0 81 597.531243 81 617 0"></polygon>
            <polygon id="Stroke-2-Copy-2" stroke="#002D37" stroke-width="2" points="597.531243 81 0 81 19.4673218 0 617 0"></polygon>
            <path d="M269.446667,27.474 L269.446667,22.144 L276.128667,22.144 L276.128667,20.506 L269.446667,20.506 L269.446667,16.97 L277.506667,16.97 L277.506667,15.254 L262.244667,15.254 C262.686667,14.396 263.076667,13.512 263.388667,12.68 L259.670667,11.64 C258.890667,15.098 257.356667,18.894 255.328667,21.65 L256.238667,22.612 C258.058667,21.312 259.852667,19.232 261.256667,16.97 L265.988667,16.97 L265.988667,20.506 L258.812667,20.506 L258.812667,27.474 L254.782667,27.474 L254.782667,29.216 L265.988667,29.216 L265.988667,36.34 L269.446667,36.34 L269.446667,29.216 L277.948667,29.216 L277.948667,27.474 L269.446667,27.474 Z M265.988667,27.474 L262.114667,27.474 L262.114667,22.144 L265.988667,22.144 L265.988667,27.474 Z M296.131333,19.882 C296.599333,21.104 296.989333,22.482 297.327333,23.938 L299.901333,22.768 C299.199333,21.468 298.159333,19.96 297.041333,18.842 L296.677333,19.076 C297.327333,18.01 297.925333,16.84 298.419333,15.54 C299.251333,18.608 300.655333,21.312 302.449333,23.21 L304.607333,20.558 C302.137333,18.842 300.187333,16.268 299.043333,13.408 C299.147333,13.018 299.225333,12.602 299.277333,12.186 L296.209333,11.744 C295.715333,15.28 294.311333,19.414 292.647333,21.754 L292.647333,20.012 L290.437333,20.012 L290.437333,23.34 C290.099333,22.924 289.709333,22.534 289.319333,22.17 C289.579333,21.416 289.761333,20.662 289.839333,19.908 L287.967333,19.596 C287.863333,20.818 287.655333,21.936 287.395333,22.898 C287.083333,22.43 286.745333,21.962 286.433333,21.598 C286.589333,21 286.693333,20.402 286.745333,19.83 L284.899333,19.544 C284.821333,21.364 284.457333,23.054 284.015333,24.224 L284.015333,20.116 L281.727333,20.116 L281.727333,36.132 L284.015333,36.132 L284.015333,34.494 L290.437333,34.494 L290.437333,35.898 L292.647333,35.898 L292.647333,23.132 L292.907333,23.418 C293.843333,22.716 295.013333,21.468 296.131333,19.882 Z M293.531333,17.646 L289.241333,17.646 L289.241333,15.8 L292.725333,15.8 L292.725333,14.266 L289.241333,14.266 L289.241333,12.03 L286.511333,12.03 L286.511333,17.646 L285.185333,17.646 L285.185333,13.122 L282.689333,13.122 L282.689333,17.646 L280.895333,17.646 L280.895333,19.206 L293.531333,19.206 L293.531333,17.646 Z M284.587333,25.42 C285.081333,24.822 285.549333,23.964 285.939333,23.054 L286.123205,23.61976 C286.211813,23.90056 286.292933,24.172 286.355333,24.406 L287.057333,23.912 C286.875333,24.458 286.641333,24.9 286.407333,25.29 L287.135333,25.862 L284.015333,25.862 L284.015333,25.004 L284.587333,25.42 Z M300.447333,23.444 L299.641333,23.99 L293.349333,23.99 L293.349333,25.576 L299.719333,25.576 C299.407333,27.032 298.783333,28.826 297.847333,30.646 C296.859333,29.762 295.819333,28.93 294.909333,28.306 L294.051333,29.19 C295.767333,31.296 297.821333,34.52 298.809333,36.548 L301.513333,34.494 C300.941333,33.714 300.031333,32.726 298.991333,31.712 C300.655333,29.944 302.189333,27.396 303.281333,24.848 L300.447333,23.444 Z M288.799333,23.496 L289.005336,23.9500905 C289.241012,24.4788642 289.452222,24.9866667 289.553333,25.29 L290.437333,24.692 L290.437333,25.862 L287.265333,25.862 C287.837333,25.264 288.357333,24.432 288.799333,23.496 Z M287.967333,27.396 C287.889333,28.592 287.707333,29.71 287.447333,30.646 C287.135333,30.23 286.771333,29.814 286.381333,29.424 C286.563333,28.8 286.693333,28.202 286.771333,27.63 L285.003333,27.344 C284.847333,29.268 284.483333,30.854 284.015333,31.842 L284.015333,27.058 L290.437333,27.058 L290.437333,30.75 C290.099333,30.36 289.761333,29.97 289.397333,29.606 C289.579333,28.982 289.735333,28.332 289.839333,27.682 L287.967333,27.396 Z M284.015333,32.284 L284.613333,32.83 C285.133333,32.31 285.549333,31.608 285.887333,30.828 L286.173749,31.653552 C286.233653,31.82952 286.287733,31.998 286.329333,32.154 L287.161333,31.556 C286.979333,32.024 286.797333,32.414 286.589333,32.752 L287.239333,33.246 L284.015333,33.246 L284.015333,32.284 Z M287.525333,33.246 C288.071333,32.622 288.513333,31.868 288.877333,31.036 C289.137333,31.608 289.371333,32.258 289.579333,32.804 L290.437333,32.206 L290.437333,33.246 L287.525333,33.246 Z M322.998,12.758 L316.992,12.758 L316.992,14.552 L321.646,14.552 C322.114,17.048 323.232,19.96 325.13,22.378 L311.844,22.378 C314.106,19.83 315.536,16.84 316.238,14.37 L312.728,13.408 C311.636,17.776 310.05,21.546 306.566,24.796 L307.398,25.966 C308.672,25.264 309.816,24.38 310.83,23.418 L310.83,24.172 L314.548,24.172 L314.493166,24.6625907 C314.031119,28.5072753 312.757714,32.3768571 307.346,35.17 L307.84,36.444 C315.016,34.572 317.538,29.268 318.058,24.172 L322.374,24.172 L322.29502,25.8808481 C322.163308,28.4144911 321.999157,30.1654168 321.791156,31.6244004 L321.724,32.076 C321.464,33.792 320.736,33.87 316.654,33.168 L316.29,34.494 C321.49,37.25 324.506,36.366 325.026,33.22 L325.12802,32.5416641 C325.375781,30.7849375 325.68575,27.799 325.936,23.34 C326.742,24.198 327.652,24.952 328.666,25.576 L330.72,22.196 C326.534,20.09 324.038,16.866 322.998,12.758 Z M356.000667,17.932 L356.000667,16.164 L343.806667,16.164 C344.170667,14.942 344.482667,13.72 344.690667,12.524 L341.024667,11.978 C340.816667,13.46 340.530667,14.838 340.192667,16.164 L333.536667,16.164 L333.536667,17.932 L339.672667,17.932 C338.164667,22.742 335.798667,26.408 332.782667,29.164 L333.536667,30.256 C335.070667,29.398 336.500667,28.228 337.800667,26.85 L337.800667,34.234 L341.128667,34.234 L341.128667,24.016 L344.404667,24.016 L344.404667,36.21 L347.836667,36.21 L347.836667,24.016 L351.164667,24.016 L351.164667,30.672 C351.164667,31.894 350.644667,32.076 348.512667,31.738 L348.200667,33.064 C351.398667,34.858 354.466667,34.156 354.466667,31.452 L354.466667,22.378 L347.836667,22.378 L347.836667,18.764 L344.404667,18.764 L344.404667,22.378 L341.076667,22.378 C341.908667,20.974 342.610667,19.466 343.182667,17.932 L356.000667,17.932 Z M47.3763333,68 L47.3763333,65.79 L40.6163333,65.79 L40.6163333,48.89 L36.9503333,48.89 L36.9503333,68 L47.3763333,68 Z M51.649,68.026 L55.315,68.026 L55.315,51.1 L60.021,51.1 L60.021,48.916 L47.047,48.916 L47.047,51.1 L51.649,51.1 L51.649,68.026 Z M66.4776667,68.026 L70.1436667,68.026 L70.1436667,51.1 L74.8496667,51.1 L74.8496667,48.916 L61.8756667,48.916 L61.8756667,51.1 L66.4776667,51.1 L66.4776667,68.026 Z M89.6783333,52.998 L89.6783333,49.878 C88.4303333,49.098 86.4803333,48.4997462 84.2963333,48.4997462 C79.0703333,48.474 75.8983333,52.426 75.8723333,58.406 C75.8463333,64.022 78.6803333,68.442 84.5563333,68.442 C86.7923333,68.442 88.6123333,68.052 89.7043333,67.22 L89.7043333,64.23 C88.3783333,65.4 86.8703333,66.128 85.0243333,66.128 C80.9475333,66.128 79.6674181,62.5822032 79.6423152,58.6963096 L79.6423333,58.458 C79.6423333,54.584 80.8903333,50.788 84.5563333,50.788 C86.3763333,50.788 88.4303333,51.776 89.6783333,52.998 Z M110.313667,68 L110.313667,65.79 L103.553667,65.79 L103.553667,48.89 L99.8876667,48.89 L99.8876667,68 L110.313667,68 Z M119.630333,68.494 C121.684333,68.494 123.244333,68.104 124.258333,67.35 L124.258333,64.906 C122.958333,65.92 121.528333,66.466 119.838333,66.414 C117.160333,66.362 115.938333,64.672 115.938333,61.708 L125.064333,61.708 C125.126733,61.292 125.155853,60.92592 125.151693,60.5432 L125.142333,60.252 C125.116333,57.34 123.296333,54.038 118.954333,54.038 C114.768333,54.038 112.350333,57.34 112.324333,61.136 C112.298333,65.816 114.768333,68.494 119.630333,68.494 Z M116.016333,59.914 C116.016333,57.834 117.056333,55.884 118.902333,55.884 C120.670333,55.884 121.710333,57.756 121.684333,59.914 L116.016333,59.914 Z M136.097,68.052 L139.399,68.052 C139.217,67.272 139.087,65.946 139.061,65.088 L139.061,58.77 C139.061,55.832 137.215,54.012 133.835,54.038 C131.703,54.064 129.779,54.688 128.427,55.546 L128.427,57.964 C129.857,56.846 131.807,56.092 133.445,56.092 C134.901,56.092 135.655,56.924 135.655,58.588 L135.655,59.628 C135.059167,59.5088333 134.463333,59.4770556 133.507021,59.5326667 L133.237,59.55 C129.389,59.732 127.413,61.604 127.387,63.996 C127.361,66.388 128.661,68.442 132.197,68.364 C134.147,68.338 135.395,67.324 135.915,66.336 C135.915,66.856 135.967,67.402 136.097,68.052 Z M135.733,61.396 L135.733,62.93 C135.707,63.918 135.629,64.672 134.927,65.426 C134.199,66.102 133.471,66.206 132.665,66.154 C131.391,66.076 130.715,65.218 130.715,63.762 C130.741,62.176 132.041,61.5 133.471,61.344 C134.303,61.24 135.083,61.266 135.733,61.396 Z M142.371667,68.026 L145.829667,68.026 L145.829667,61.136 C145.829667,59.524 146.687667,57.678 148.559667,57.184 C149.157667,57.028 149.599667,57.028 150.249667,57.262 L150.249667,54.142 C149.573667,54.012 149.079667,54.038 148.585667,54.142 C147.519667,54.324 146.115667,55.494 145.621667,56.95 C145.673667,56.222 145.647667,55.26 145.647667,54.506 L142.371667,54.506 L142.371667,68.026 Z M160.918333,68 L164.376333,68 L164.376333,58.9 C164.376333,56.144 162.842333,54.142 159.800333,54.116 C157.694333,54.09 156.082333,55.286 155.536333,56.612 L155.536333,54.454 L152.338333,54.454 L152.338333,68.026 L155.770333,68.026 L155.770333,60.798 C155.770333,58.276 156.550333,56.482 158.682333,56.482 C160.372333,56.482 160.918333,57.704 160.918333,59.186 L160.918333,68 Z M174.499,68.494 C176.553,68.494 178.113,68.104 179.127,67.35 L179.127,64.906 C177.827,65.92 176.397,66.466 174.707,66.414 C172.029,66.362 170.807,64.672 170.807,61.708 L179.933,61.708 C180.011,61.188 180.037,60.746 180.011,60.252 C179.985,57.34 178.165,54.038 173.823,54.038 C169.637,54.038 167.219,57.34 167.193,61.136 C167.167,65.816 169.637,68.494 174.499,68.494 Z M170.885,59.914 C170.885,57.834 171.925,55.884 173.771,55.884 C175.539,55.884 176.579,57.756 176.553,59.914 L170.885,59.914 Z M182.827667,68.026 L186.285667,68.026 L186.285667,61.136 C186.285667,59.524 187.143667,57.678 189.015667,57.184 C189.613667,57.028 190.055667,57.028 190.705667,57.262 L190.705667,54.142 C190.029667,54.012 189.535667,54.038 189.041667,54.142 C187.975667,54.324 186.571667,55.494 186.077667,56.95 C186.129667,56.222 186.103667,55.26 186.103667,54.506 L182.827667,54.506 L182.827667,68.026 Z M206.505,68 C210.171,67.844 212.589,66.232 213.811,64.152 C214.747,62.566 215.137,60.746 215.163,58.354 C215.163,56.248 214.773,54.402 213.915,52.946 C212.615,50.684 210.197,49.098 206.297,48.89 C204.269,48.786 201.591,48.916 199.771,49.072 L199.771,67.792 C201.825,68.026 204.139,68.104 206.505,68 Z M205.829188,65.7461151 L205.569,65.764 C204.919,65.816 204.113,65.79 203.411,65.66 L203.411,51.178 C203.923571,51.1111429 204.531653,51.0824898 205.186125,51.108414 L205.517,51.126 C209.807,51.308 211.471,53.57 211.471,58.38 C211.471,63.24668 210.022717,65.4165568 205.829188,65.7461151 L205.829188,65.7461151 Z M225.233667,68.494 C227.287667,68.494 228.847667,68.104 229.861667,67.35 L229.861667,64.906 C228.561667,65.92 227.131667,66.466 225.441667,66.414 C222.763667,66.362 221.541667,64.672 221.541667,61.708 L230.667667,61.708 C230.745667,61.188 230.771667,60.746 230.745667,60.252 C230.719667,57.34 228.899667,54.038 224.557667,54.038 C220.371667,54.038 217.953667,57.34 217.927667,61.136 C217.901667,65.816 220.371667,68.494 225.233667,68.494 Z M221.619667,59.914 C221.619667,57.834 222.659667,55.884 224.505667,55.884 C226.273667,55.884 227.313667,57.756 227.287667,59.914 L221.619667,59.914 Z M233.666333,68 L237.098333,68 L237.098333,60.512 C237.098333,58.094 237.826333,56.43 239.542333,56.43 C241.180333,56.43 241.804333,57.808 241.804333,59.446 L241.804333,68 L245.262333,68 L245.262333,60.538 C245.262333,58.146 245.938333,56.43 247.758333,56.43 C249.396333,56.43 249.968333,57.6 249.968333,59.498 L249.968333,68.026 L253.400333,68.026 L253.400333,59.134 C253.400333,56.144 251.996333,54.09 248.746333,54.09 C246.692333,54.09 245.184333,55.442 244.586333,56.898 C244.040333,55.234 242.636333,54.09 240.426333,54.116 C238.580333,54.116 237.254333,55.468 236.890333,56.586 L236.890333,54.454 L233.666333,54.454 L233.666333,68 Z M269.321,61.266 C269.321,57.86 267.501,54.116 262.873,54.09 C258.349,54.09 256.217,57.782 256.217,61.292 C256.217,65.088 258.167,68.442 262.691,68.468 C267.397,68.494 269.321,65.166 269.321,61.266 Z M265.811,61.318 C265.811,63.892 265.083,66.57 262.873,66.57 C260.803706,66.57 259.787614,63.9982266 259.729634,61.5409945 L259.727,61.318 C259.701,58.978 260.455,55.988 262.665,56.014 C264.875,56.014 265.785,59.004 265.811,61.318 Z M277.597667,74.11 C283.551667,74.188 285.059667,70.808 284.955667,65.868 L284.955667,54.454 L281.705667,54.454 L281.705667,56.144 C281.029667,54.844 279.599667,53.986 277.805667,53.986 C273.931667,54.012 271.565667,57.106 271.565667,61.058 C271.539667,65.27 273.541667,68.156 277.805667,68.156 C279.365667,68.156 280.951667,67.376 281.575667,66.232 C281.534067,66.856 281.542387,67.38016 281.507443,67.950912 L281.471667,68.39 C281.341667,70.314 280.301667,71.952 277.701667,71.952 C275.907667,71.9 274.399667,71.25 272.865667,70.158 L272.865667,72.602 C274.191667,73.512 276.037667,74.058 277.597667,74.11 Z M278.351667,66.102 C276.245667,66.076 275.049667,63.814 275.049667,61.11 C275.049667,58.172 276.219667,55.936 278.481667,55.936 C280.379667,55.936 281.445667,57.912 281.575667,60.226 L281.575667,61.5 C281.523667,64.36 280.457667,66.128 278.351667,66.102 Z M288.396333,68.026 L291.854333,68.026 L291.854333,61.136 C291.854333,59.524 292.712333,57.678 294.584333,57.184 C295.182333,57.028 295.624333,57.028 296.274333,57.262 L296.274333,54.142 C295.598333,54.012 295.104333,54.038 294.610333,54.142 C293.544333,54.324 292.140333,55.494 291.646333,56.95 C291.698333,56.222 291.672333,55.26 291.672333,54.506 L288.396333,54.506 L288.396333,68.026 Z M306.423,68.052 L309.725,68.052 C309.543,67.272 309.413,65.946 309.387,65.088 L309.387,58.77 C309.387,55.832 307.541,54.012 304.161,54.038 C302.029,54.064 300.105,54.688 298.753,55.546 L298.753,57.964 C300.183,56.846 302.133,56.092 303.771,56.092 C305.227,56.092 305.981,56.924 305.981,58.588 L305.981,59.628 C305.385167,59.5088333 304.789333,59.4770556 303.833021,59.5326667 L303.563,59.55 C299.715,59.732 297.739,61.604 297.713,63.996 C297.687,66.388 298.987,68.442 302.523,68.364 C304.473,68.338 305.721,67.324 306.241,66.336 C306.241,66.856 306.293,67.402 306.423,68.052 Z M306.059,61.396 L306.059,62.93 C306.033,63.918 305.955,64.672 305.253,65.426 C304.525,66.102 303.797,66.206 302.991,66.154 C301.717,66.076 301.041,65.218 301.041,63.762 C301.067,62.176 302.367,61.5 303.797,61.344 C304.629,61.24 305.409,61.266 306.059,61.396 Z M319.925667,54.012 C317.975667,54.012 316.571667,55.078 316.051667,56.196 L316.051667,54.48 L312.801667,54.48 L312.801667,74.136 L316.233667,74.136 L316.233667,66.518 C317.065667,67.662 318.443667,68.338 320.185667,68.312 C323.435667,68.286 325.827667,65.608 325.853667,61.292 C325.879667,56.716 323.721667,54.012 319.925667,54.012 Z M319.171667,56.04 C321.329667,56.066 322.343667,58.146 322.343667,61.214 C322.343667,64.1 321.277667,66.154 319.119667,66.18 C317.247667,66.18 316.051667,64.62 315.921667,61.812 L315.921667,60.694 C316.051667,57.912 317.325667,56.066 319.171667,56.04 Z M337.432333,68 L340.864333,68 L340.864333,58.796 C340.864333,56.04 339.148333,54.142 336.158333,54.116 C334.260333,54.09 332.752333,55.208 332.180333,56.326 L332.180333,48.058 L328.722333,48.058 L328.722333,68 L332.232333,68 L332.232333,60.642 C332.232333,58.146 333.064333,56.378 335.196333,56.378 C336.808333,56.404 337.432333,57.652 337.432333,59.03 L337.432333,68 Z M346.203,52.374 C347.295,52.374 348.205,51.464 348.205,50.372 C348.205,49.306 347.295,48.396 346.203,48.396 C345.085,48.396 344.149,49.306 344.149,50.372 C344.149,51.464 345.085,52.374 346.203,52.374 Z M344.461,68 L347.893,68 L347.893,54.506 L344.461,54.506 L344.461,68 Z M362.227667,67.324 L362.227667,64.88 C360.979667,66.024 360.095667,66.44 358.353667,66.44 C355.389667,66.466 354.479667,64.152 354.427667,61.292 L354.429812,60.92795 C354.482145,58.6608547 355.280333,56.0373333 358.067667,55.988 C359.679667,55.962 360.901667,56.586 362.175667,57.834 L362.175667,55.26 C360.979667,54.428 359.497667,53.9857357 357.625667,53.9857357 C353.049667,53.96 350.917667,57.756 350.917667,61.266 C350.917667,65.608 353.153667,68.442 357.885667,68.494 C359.757667,68.494 361.161667,68.13 362.227667,67.324 Z M373.988333,64.204 C373.962333,62.202 372.220333,61.084 369.906333,60.018 L369.4837,59.8277322 C368.090855,59.1820189 367.592333,58.7247826 367.592333,57.704 C367.592333,56.742 368.424333,56.066 369.750333,56.04 C370.582333,56.04 371.778333,56.378 373.182333,57.47 L373.182333,54.922 C372.038333,54.298 370.764333,54.038 369.620333,54.038 C366.292333,54.038 364.342333,55.806 364.342333,58.146 C364.342333,60.2277931 365.672043,61.160176 367.743935,62.0552555 L368.216333,62.254 C369.672333,62.852 370.634333,63.554 370.634333,64.49 C370.634333,65.478 370.114333,66.492 368.268333,66.466 C366.838333,66.414 365.590333,65.946 364.212333,65.062 L364.212333,67.48 C365.460333,68.13 367.124333,68.494 368.684333,68.468 C372.272333,68.442 373.988333,66.856 373.988333,64.204 Z M387.083667,71.276 L389.033667,71.276 C386.394667,67.4808667 385.626424,63.2970044 385.554655,59.3585273 L385.549667,58.952 C385.497667,55.26 386.329667,50.632 388.929667,46.732 L386.979667,46.732 C383.807667,50.164 382.273667,54.688 382.273667,58.952 C382.273667,63.372 383.859667,67.948 387.083667,71.276 Z M398.246333,68.416 C402.068333,68.468 404.200333,65.686 404.174333,61.136 C404.148333,56.794 401.756333,54.116 398.506333,54.116 C396.764333,54.09 395.386333,54.74 394.580333,55.884 L394.580333,48.084 L391.122333,48.084 L391.122333,68.026 L394.372333,68.026 L394.372333,66.232 C394.918333,67.35 396.244333,68.416 398.246333,68.416 Z M397.492333,66.388 C395.698333,66.336 394.372333,64.49 394.242333,61.708 L394.242333,60.59 C394.372333,57.782 395.568333,56.222 397.440333,56.248 C399.598333,56.248 400.664333,58.328 400.664333,61.188 C400.664333,64.256 399.858333,66.362 397.492333,66.388 Z M405.639,73.356 C407.979,74.084 410.319,73.642 411.515,71.744 C412.347,70.6 413.127,68.988 413.907,66.986 L418.509,54.48 L415.259,54.48 L413.413,60.876 C413.127,61.786 412.789,62.956 412.529,63.97 L412.373,63.97 C412.061,62.956 411.619,61.708 411.255,60.72 L409.123,54.48 L405.301,54.48 L410.969,67.48 C410.579,68.754 409.929,69.95 409.487,70.574 C408.629,71.692 407.381,71.536 405.639,70.86 L405.639,73.356 Z M438.806333,68.026 L442.836333,68.026 L436.336333,48.942 L432.306333,48.942 L426.040333,68.026 L429.238333,68.026 L430.902333,62.41 L437.194333,62.41 L438.806333,68.026 Z M435.062333,55.312 L436.570333,60.304 L431.500333,60.304 L432.982333,55.364 C433.372333,54.22 433.788333,52.686 433.996333,51.802 L434.152333,51.802 C434.308333,52.634 434.724333,54.142 435.062333,55.312 Z M450.359,74.11 C456.313,74.188 457.821,70.808 457.717,65.868 L457.717,54.454 L454.467,54.454 L454.467,56.144 C453.791,54.844 452.361,53.986 450.567,53.986 C446.693,54.012 444.327,57.106 444.327,61.058 C444.301,65.27 446.303,68.156 450.567,68.156 C452.127,68.156 453.713,67.376 454.337,66.232 C454.2954,66.856 454.30372,67.38016 454.268776,67.950912 L454.233,68.39 C454.103,70.314 453.063,71.952 450.463,71.952 C448.669,71.9 447.161,71.25 445.627,70.158 L445.627,72.602 C446.953,73.512 448.799,74.058 450.359,74.11 Z M451.113,66.102 C449.007,66.076 447.811,63.814 447.811,61.11 C447.811,58.172 448.981,55.936 451.243,55.936 C453.141,55.936 454.207,57.912 454.337,60.226 L454.337,61.5 C454.285,64.36 453.219,66.128 451.113,66.102 Z M467.917667,68.494 C469.971667,68.494 471.531667,68.104 472.545667,67.35 L472.545667,64.906 C471.245667,65.92 469.815667,66.466 468.125667,66.414 C465.447667,66.362 464.225667,64.672 464.225667,61.708 L473.351667,61.708 C473.429667,61.188 473.455667,60.746 473.429667,60.252 C473.403667,57.34 471.583667,54.038 467.241667,54.038 C463.055667,54.038 460.637667,57.34 460.611667,61.136 C460.585667,65.816 463.055667,68.494 467.917667,68.494 Z M464.303667,59.914 C464.303667,57.834 465.343667,55.884 467.189667,55.884 C468.957667,55.884 469.997667,57.756 469.971667,59.914 L464.303667,59.914 Z M492.427,50.788 C494.585,50.788 496.665,51.724 498.069,52.946 L498.069,49.878 C496.717,49.098 494.507,48.4997573 492.115,48.4997573 C485.719,48.474 482.911,52.608 482.911,58.77 C482.911,65.114 486.005,68.338 492.011,68.338 C494.455,68.338 497.003,67.766 498.407,66.726 L498.407,58.328 L491.907,58.328 L491.907,60.434 L495.053,60.434 L495.053,65.582 C494.455,65.894 493.311,66.024 492.349,65.998 C488.137,65.894 486.655,63.086 486.655,58.64 C486.655,54.324 488.007,50.814 492.427,50.788 Z M501.821667,68.026 L505.279667,68.026 L505.279667,61.136 C505.279667,59.524 506.137667,57.678 508.009667,57.184 C508.607667,57.028 509.049667,57.028 509.699667,57.262 L509.699667,54.142 C509.023667,54.012 508.529667,54.038 508.035667,54.142 C506.969667,54.324 505.565667,55.494 505.071667,56.95 C505.123667,56.222 505.097667,55.26 505.097667,54.506 L501.821667,54.506 L501.821667,68.026 Z M524.060333,61.266 C524.060333,57.86 522.240333,54.116 517.612333,54.09 C513.088333,54.09 510.956333,57.782 510.956333,61.292 C510.956333,65.088 512.906333,68.442 517.430333,68.468 C522.136333,68.494 524.060333,65.166 524.060333,61.266 Z M520.550333,61.318 C520.550333,63.892 519.822333,66.57 517.612333,66.57 C515.543039,66.57 514.526948,63.9982266 514.468967,61.5409945 L514.466333,61.318 C514.440333,58.978 515.194333,55.988 517.404333,56.014 C519.614333,56.014 520.524333,59.004 520.550333,61.318 Z M530.257,54.48 L526.799,54.48 L526.799,63.814 C526.799,66.752 528.307,68.338 531.323,68.364 C533.429,68.364 534.989,67.194 535.535,65.946 L535.535,68 L538.785,68 L538.785,54.48 L535.353,54.48 L535.353,61.682 C535.353,64.152 534.469,66.076 532.493,66.076 C530.751,66.076 530.257,64.88 530.257,63.294 L530.257,54.48 Z M549.479667,54.012 C547.529667,54.012 546.125667,55.078 545.605667,56.196 L545.605667,54.48 L542.355667,54.48 L542.355667,74.136 L545.787667,74.136 L545.787667,66.518 C546.619667,67.662 547.997667,68.338 549.739667,68.312 C552.989667,68.286 555.381667,65.608 555.407667,61.292 C555.433667,56.716 553.275667,54.012 549.479667,54.012 Z M548.725667,56.04 C550.883667,56.066 551.897667,58.146 551.897667,61.214 C551.897667,64.1 550.831667,66.154 548.673667,66.18 C546.801667,66.18 545.605667,64.62 545.475667,61.812 L545.475667,60.694 C545.605667,57.912 546.879667,56.066 548.725667,56.04 Z M567.298333,64.204 C567.272333,62.202 565.530333,61.084 563.216333,60.018 L562.7937,59.8277322 C561.400855,59.1820189 560.902333,58.7247826 560.902333,57.704 C560.902333,56.742 561.734333,56.066 563.060333,56.04 C563.892333,56.04 565.088333,56.378 566.492333,57.47 L566.492333,54.922 C565.348333,54.298 564.074333,54.038 562.930333,54.038 C559.602333,54.038 557.652333,55.806 557.652333,58.146 C557.652333,60.2277931 558.982043,61.160176 561.053935,62.0552555 L561.526333,62.254 C562.982333,62.852 563.944333,63.554 563.944333,64.49 C563.944333,65.478 563.424333,66.492 561.578333,66.466 C560.148333,66.414 558.900333,65.946 557.522333,65.062 L557.522333,67.48 C558.770333,68.13 560.434333,68.494 561.994333,68.468 C565.582333,68.442 567.298333,66.856 567.298333,64.204 Z M570.297,71.276 L568.347,71.276 C570.986,67.4808667 571.754242,63.2970044 571.826012,59.3585273 L571.831,58.952 C571.883,55.26 571.051,50.632 568.451,46.732 L570.401,46.732 C573.573,50.164 575.081,54.688 575.081,58.952 C575.081,63.372 573.521,67.948 570.297,71.276 Z" id="年齡分布LTTCLearnerDemographics(byAgeGroups)" fill="#002C36" fill-rule="nonzero"></path>
        </g>
    </g>
</svg>