<?xml version="1.0" encoding="UTF-8"?>
<svg width="332px" height="63px" viewBox="0 0 332 63" version="1.1" xmlns="http://www.w3.org/2000/svg" xmlns:xlink="http://www.w3.org/1999/xlink">
    <!-- Generator: Sketch 59.1 (86144) - https://sketch.com -->
    <title>Fill 1 Copy 8</title>
    <desc>Created with Sketch.</desc>
    <g id="Page-1" stroke="none" stroke-width="1" fill="none" fill-rule="evenodd">
        <polygon id="Fill-1-Copy-8" fill="#F4D0B7" points="10.4751229 0 0 63 321.524105 63 332 0"></polygon>
        <polygon id="Stroke-2-Copy-8" stroke="#002D37" stroke-width="2" points="321.524105 63 0 63 10.4751229 0 332 0"></polygon>
        <path d="M107.530667,25.664 C107.610667,25.248 107.674667,24.832 107.722667,24.4 L110.426667,24.4 L110.426667,23.408 L107.786667,23.408 L107.786667,20.256 L110.074667,20.256 L110.074667,19.28 L105.642667,19.28 C105.978667,18.496 106.234667,17.664 106.410667,16.832 L104.330667,16.448 C104.026667,18.848 103.370667,21.184 102.522667,22.512 L103.114667,23.024 C103.930667,22.272 104.634667,21.312 105.178667,20.256 L105.706667,20.256 L105.706667,23.408 L102.778667,23.408 L102.778667,24.4 L105.658667,24.4 C105.482667,27.2 104.730667,29.04 102.538667,30.752 L102.954667,31.456 C105.146667,30.464 106.506667,28.896 107.210667,26.88 C107.770667,27.84 108.394667,29.072 108.890667,30.16 L110.634667,28.912 C109.866667,27.792 108.634667,26.544 107.530667,25.664 Z M110.714667,18.336 L110.714667,31.088 L112.634667,31.088 L112.634667,29.376 L114.394667,29.376 L114.394667,30.768 L116.346667,30.768 L116.346667,18.336 L110.714667,18.336 Z M114.394667,28.416 L112.634667,28.416 L112.634667,19.296 L114.394667,19.296 L114.394667,28.416 Z M128.48,18.352 L126.592,18.352 L127.264,17.776 C126.672,17.184 125.76,16.592 125.024,16.24 L124.528,16.784 C124.944,17.248 125.392,17.808 125.776,18.352 L123.76,18.352 L123.76,19.248 L128.48,19.248 L128.48,18.352 Z M123.616,19.04 L121.44,19.04 L122.336,18.512 C121.84,17.792 120.992,16.896 120.16,16.288 L119.584,16.752 C119.984,17.424 120.4,18.24 120.736,19.04 L118.8,19.04 L118.8,20.032 L123.616,20.032 L123.616,19.04 Z M132.88,27.024 L132.128,27.024 C132.176,29.216 131.936,29.552 131.664,29.344 C131.36,29.104 131.104,28.56 130.912,27.792 C131.696,26.72 132.288,25.472 132.832,24.064 L131.36,23.424 C131.136,24.192 130.864,24.912 130.56,25.568 C130.48,24.736 130.432,23.808 130.4,22.816 L132.784,22.816 L132.784,21.856 L130.368,21.856 L130.347,20.49775 C130.329,19.132 130.32,17.764 130.32,16.576 L128.72,16.576 L128.71375,17.824 C128.713,19.123 128.728,20.548 128.752,21.856 L127.36,21.856 C127.744,21.232 128.08,20.496 128.368,19.728 L126.896,19.344 C126.816,20.176 126.672,21.088 126.496,21.856 L125.296,21.856 L126.096,21.584 C125.84,20.88 125.36,19.968 124.864,19.36 L124.192,19.632 C124.4,20.272 124.592,21.072 124.752,21.856 L123.456,21.856 L123.456,22.816 L128.768,22.816 C128.816,24.56 128.928,26.304 129.248,27.76 C128.96,28.128 128.656,28.464 128.32,28.784 L128.32,23.584 L123.936,23.584 L123.936,29.936 L125.504,29.936 L125.504,28.848 L128.256,28.848 C127.536,29.52 126.688,30.112 125.68,30.624 L126.016,31.344 C127.52,30.816 128.704,30.096 129.664,29.216 C130.032,30.16 130.544,30.864 131.28,31.216 C132.896,31.984 133.552,30.368 132.88,27.024 Z M132.656,20.464 C132.384,19.68 131.792,18.48 131.088,17.616 L130.432,17.888 C130.688,18.848 130.992,20.016 131.184,21.04 L132.656,20.464 Z M123.248,22.064 L123.248,21.104 L119.232,21.104 L119.232,22.064 L123.248,22.064 Z M123.248,23.104 L119.232,23.104 L119.232,24.064 L123.248,24.064 L123.248,23.104 Z M126.784,25.744 L125.504,25.744 L125.504,24.496 L126.784,24.496 L126.784,25.744 Z M119.248,31.12 L120.8,31.12 L120.8,29.76 L121.744,29.76 L121.744,30.784 L123.296,30.784 L123.296,25.168 L119.248,25.168 L119.248,31.12 Z M120.8,26.112 L121.744,26.112 L121.744,28.832 L120.8,28.832 L120.8,26.112 Z M126.784,27.92 L125.504,27.92 L125.504,26.624 L126.784,26.624 L126.784,27.92 Z M144.309333,19.456 C144.677333,18.416 144.933333,17.44 145.061333,16.72 L142.869333,16.352 C142.645333,18.368 142.117333,21.296 141.221333,23.312 L141.221333,19.456 L138.405333,19.456 C138.949333,18.672 139.509333,17.648 139.893333,16.72 L137.621333,16.32 C137.557333,17.232 137.413333,18.448 137.253333,19.456 L135.429333,19.456 L135.429333,31.088 L137.365333,31.088 L137.365333,29.44 L139.301333,29.44 L139.301333,30.8 L141.221333,30.8 L141.221333,23.68 L141.765333,24.096 C142.677333,23.04 143.397333,21.728 143.925333,20.448 L146.645333,20.448 L146.638074,22.2782885 C146.615088,25.0013459 146.537507,26.925913 146.405333,28.512 L146.383256,28.7186713 C146.250593,29.7639308 145.837804,29.9021176 143.157333,29.36 L142.917333,30.144 C145.941333,32 148.133333,31.616 148.357333,29.152 L148.402821,28.6153701 C148.574895,26.4179882 148.630564,23.5913846 148.645333,19.456 L144.309333,19.456 Z M139.301333,23.68 L137.365333,23.68 L137.365333,20.448 L139.301333,20.448 L139.301333,23.68 Z M146.245333,25.936 C145.637333,24.752 144.469333,23.296 143.429333,22.368 L142.725333,22.896 C143.285333,24.032 143.941333,25.584 144.389333,26.96 L146.245333,25.936 Z M137.365333,28.448 L137.365333,24.656 L139.301333,24.656 L139.301333,28.448 L137.365333,28.448 Z M165.082667,20.88 L165.082667,19.936 L162.138667,19.936 L162.138667,18.576 C163.114667,18.432 164.058667,18.256 164.890667,18.032 L163.546667,16.384 C162.010667,17.184 159.402667,17.92 157.610667,18.192 L155.978667,17.792 L155.978667,21.536 C155.978667,26.432 155.802667,28.736 154.682667,30.784 L155.306667,31.232 C157.230545,29.0753939 157.830465,26.437348 157.865057,21.91731 L157.866667,20.88 L160.250667,20.88 L160.250667,22.32 L158.026667,22.32 L158.026667,31.264 L159.866667,31.264 L159.866667,30.224 L162.650667,30.224 L162.650667,31.248 L164.522667,31.248 L164.522667,22.32 L162.138667,22.32 L162.138667,20.88 L165.082667,20.88 Z M155.546667,17.376 L153.658667,16.448 C152.986667,18.24 152.058667,19.776 150.810667,21.024 L151.242667,21.648 C153.066667,20.608 154.490667,18.944 155.546667,17.376 Z M157.866667,19.936 L157.866667,19.024 C158.570667,18.992 159.386667,18.928 160.250667,18.832 L160.250667,19.936 L157.866667,19.936 Z M155.946667,20.512 L154.202667,19.696 C153.354667,21.824 152.218667,23.792 150.698667,25.264 L151.130667,25.888 C151.642667,25.552 152.122667,25.184 152.570667,24.8 L152.570667,31.28 L154.474667,31.28 L154.474667,22.8 C155.050667,22.064 155.546667,21.28 155.946667,20.512 Z M162.650667,24.624 L159.866667,24.624 L159.866667,23.28 L162.650667,23.28 L162.650667,24.624 Z M162.650667,26.912 L159.866667,26.912 L159.866667,25.568 L162.650667,25.568 L162.650667,26.912 Z M162.650667,29.264 L159.866667,29.264 L159.866667,27.856 L162.650667,27.856 L162.650667,29.264 Z M180.512,17.072 L172.24,17.072 L172.24,20.592 L180.512,20.592 L180.512,17.072 Z M171.968,25.52 C171.536,25.712 171.008,25.904 170.432,26.096 L170.432,22.88 L171.824,22.88 L171.824,21.92 L170.432,21.92 L170.432,18.512 L171.952,18.512 L171.952,17.568 L166.88,17.568 L166.88,18.48 L168.48,18.48 L168.48,21.904 L167.04,21.904 L167.04,22.864 L168.48,22.864 L168.48,26.688 C167.808,26.864 167.168,27.008 166.608,27.12 L167.328,29.072 C168.848,28.512 171.232,27.2 172.336,26.256 L171.968,25.52 Z M174.656,19.648 L173.92,19.648 L173.92,18 L174.656,18 L174.656,19.648 Z M176.72,19.648 L175.968,19.648 L175.968,18 L176.72,18 L176.72,19.648 Z M178.816,19.648 L178.032,19.648 L178.032,18 L178.816,18 L178.816,19.648 Z M171.936,22.224 L180.88,22.224 L180.88,21.28 L171.936,21.28 L171.936,22.224 Z M178.736,28.176 C179.52,27.872 180.256,27.488 180.976,26.944 L179.6,25.808 L180.256,25.808 L180.256,22.896 L172.48,22.896 L172.48,25.808 L174.192,25.808 C173.152,26.944 171.744,27.744 170.48,28.256 L170.784,29.024 C171.456,28.848 172.528,28.448 173.584,27.872 L173.584,29.36 C173.024,29.472 172.464,29.552 171.92,29.616 L172.496,31.328 C174.016,30.96 175.616,30.304 177.184,29.216 L176.848,28.496 C176.352,28.672 175.856,28.832 175.328,28.96 L175.328,26.752 C175.696,26.448 176.032,26.144 176.272,25.808 L176.384,25.808 C176.8,28.528 178.256,30.448 180.272,31.408 L181.296,29.568 C180.272,29.216 179.424,28.768 178.736,28.176 Z M174.304,23.792 L178.432,23.792 L178.432,24.928 L174.304,24.928 L174.304,23.792 Z M179.568,25.808 C179.152,26.464 178.624,27.024 178.096,27.504 C177.728,27.024 177.44,26.464 177.216,25.808 L179.568,25.808 Z M197.141333,27.392 L197.141333,26.432 L195.733333,26.432 L196.293333,17.36 L192.597333,17.36 L192.597333,18.32 L194.421333,18.32 L194.293333,20.416 L192.725333,20.416 L192.725333,21.328 L194.229333,21.328 L194.101333,23.232 L192.613333,23.232 L192.613333,24.16 L194.053333,24.16 L193.909333,26.432 L191.909333,26.432 C192.085333,24.784 192.245333,22.768 192.373333,20.752 L189.717333,20.752 C189.797333,20.272 189.861333,19.776 189.925333,19.296 L192.357333,19.296 L192.357333,18.368 L190.053333,18.368 L190.176593,17.2740741 C190.195556,17.0968889 190.213333,16.9226667 190.229333,16.752 L188.501333,16.544 C188.469333,16.896 188.437333,17.248 188.389333,17.6 L187.013333,16.272 C186.453333,16.896 185.861333,17.44 185.173333,17.904 L183.829333,17.696 L183.927572,19.7101564 C184.03358,21.9755062 184.113778,24.0053333 184.213333,26.432 L183.029333,26.432 L183.029333,27.392 L187.509333,27.392 C186.293333,28.768 184.677333,29.872 182.773333,30.736 L183.077333,31.504 C185.269333,31.088 188.021333,29.824 189.621333,28.4 L187.989333,27.392 L197.141333,27.392 Z M185.941333,24.032 L187.557333,24.032 L187.557333,23.12 L185.909333,23.12 L185.845333,21.184 L185.845333,21.184 L187.541333,21.184 L187.541333,20.272 L185.813333,20.272 C185.797333,19.76 185.781333,19.248 185.749333,18.72 C186.613333,18.48 187.573333,18.112 188.389333,17.648 C188.213333,19.152 188.005333,20.688 187.781333,22.112 L189.461333,22.336 L189.573333,21.664 L189.573333,21.664 L190.581333,21.664 C190.517333,23.136 190.389333,24.928 190.229333,26.432 L189.269333,26.432 C189.461333,25.152 189.573333,24.192 189.717333,22.864 L188.085333,22.592 C187.957333,23.936 187.829333,25.072 187.621333,26.432 L186.021333,26.432 C186.005333,25.616 185.973333,24.816 185.941333,24.032 Z M191.333333,27.424 L190.981333,28.256 C192.789333,29.216 194.693333,30.432 196.277333,31.632 L197.477333,29.584 C195.349333,28.528 193.525333,27.904 191.333333,27.424 Z M199.834667,31.248 L201.850667,31.248 L201.850667,29.872 L210.330667,29.872 L210.330667,31.184 L212.362667,31.184 L212.362667,17.472 L199.834667,17.472 L199.834667,31.248 Z M201.850667,28.864 L201.850667,18.48 L210.330667,18.48 L210.330667,28.864 L201.850667,28.864 Z M203.002667,26.544 L209.178667,26.544 L209.178667,20.736 L203.002667,20.736 L203.002667,26.544 Z M204.874667,25.584 L204.874667,21.696 L207.306667,21.696 L207.306667,25.584 L204.874667,25.584 Z M219.856,30.16 L221.36,29.344 C220.88,28.432 219.952,27.184 219.152,26.464 L218.496,26.896 C218.704,27.28 218.912,27.744 219.12,28.224 C218.64,28.352 218.16,28.464 217.68,28.56 L217.68,26.112 L220.704,26.112 L220.704,21.232 L218.656,21.232 L219.696,20.608 C219.36,20.064 218.896,19.536 218.416,19.104 C218.576,18.864 218.736,18.624 218.88,18.384 C219.392,19.088 219.84,19.808 220.304,20.688 L221.488,19.776 L221.488,20.512 L224.016,20.512 L224.016,21.168 L220.944,21.168 L220.944,22.08 L229.072,22.08 L229.072,21.168 L225.792,21.168 L225.792,20.512 L228.32,20.512 L228.32,17.792 L225.792,17.792 L225.792,16.544 L224.016,16.544 L224.016,17.792 L221.488,17.792 L221.488,19.552 C220.928,18.88 220.112,18.144 219.296,17.584 C219.408,17.376 219.504,17.152 219.584,16.944 L217.68,16.4 C217.12,18.336 216.192,20.144 214.832,21.648 L215.28,22.256 C215.52,22.096 215.76,21.92 215.984,21.728 L215.984,28.864 C215.664,28.912 215.344,28.944 215.024,28.976 L215.632,30.864 C216.784,30.528 218.272,29.888 219.488,29.104 L219.69,29.656 C219.752,29.832 219.808,30 219.856,30.16 Z M223.072,18.672 L224.016,18.672 L224.016,19.616 L223.072,19.616 L223.072,18.672 Z M225.792,18.672 L226.752,18.672 L226.752,19.616 L225.792,19.616 L225.792,18.672 Z M217.824,19.888 C218.032,20.304 218.24,20.768 218.416,21.232 L216.576,21.232 C217.024,20.816 217.44,20.368 217.824,19.888 Z M219.104,23.216 L217.68,23.216 L217.68,22.128 L219.104,22.128 L219.104,23.216 Z M228.304,28.384 L228.304,22.608 L221.456,22.608 L221.456,28.384 L223.104,28.384 C222.016,29.52 220.896,30.144 219.68,30.672 L219.984,31.392 C221.456,31.104 223.472,30.32 224.752,29.248 L223.488,28.384 L228.304,28.384 Z M223.28,23.504 L226.464,23.504 L226.464,24.256 L223.28,24.256 L223.28,23.504 Z M217.68,25.232 L217.68,24.096 L219.104,24.096 L219.104,25.232 L217.68,25.232 Z M223.28,25.056 L226.464,25.056 L226.464,25.872 L223.28,25.872 L223.28,25.056 Z M223.28,26.704 L226.464,26.704 L226.464,27.504 L223.28,27.504 L223.28,26.704 Z M225.52,28.416 L225.184,29.104 C226.432,29.856 227.488,30.56 228.56,31.456 L229.6,29.888 C228.448,29.2 226.848,28.656 225.52,28.416 Z M52.216,47.016 L54.472,47.016 L54.472,36.6 L57.368,36.6 L57.368,35.256 L49.384,35.256 L49.384,36.6 L52.216,36.6 L52.216,47.016 Z M64.0613333,47 L66.1733333,47 L66.1733333,41.336 C66.1733333,39.64 65.1173333,38.472 63.2773333,38.456 C62.1093333,38.44 61.1813333,39.128 60.8293333,39.816 L60.8293333,34.728 L58.7013333,34.728 L58.7013333,47 L60.8613333,47 L60.8613333,42.472 C60.8613333,40.936 61.3733333,39.848 62.6853333,39.848 C63.6773333,39.864 64.0613333,40.632 64.0613333,41.48 L64.0613333,47 Z M72.4186667,47.304 C73.6826667,47.304 74.6426667,47.064 75.2666667,46.6 L75.2666667,45.096 C74.4666667,45.72 73.5866667,46.056 72.5466667,46.024 C70.8986667,45.992 70.1466667,44.952 70.1466667,43.128 L75.7626667,43.128 C75.7986667,42.888 75.8166667,42.675 75.8166667,42.45525 L75.8106667,42.232 C75.7946667,40.44 74.6746667,38.408 72.0026667,38.408 C69.4266667,38.408 67.9386667,40.44 67.9226667,42.776 C67.9066667,45.656 69.4266667,47.304 72.4186667,47.304 Z M70.1946667,42.024 C70.1946667,40.744 70.8346667,39.544 71.9706667,39.544 C73.0586667,39.544 73.6986667,40.696 73.6826667,42.024 L70.1946667,42.024 Z M84.9573333,41.848 L88.0293333,47 L90.5093333,47 L86.1253333,40.536 L90.3493333,35.256 L88.0453333,35.256 L86.9315226,36.8492401 C86.4814815,37.489679 86.0577778,38.0862222 85.6933333,38.584 L85.2362838,39.1864956 C84.8544762,39.6837551 84.4773333,40.1588571 84.1573333,40.536 L84.1573333,35.256 L81.9653333,35.256 L81.9653333,47.016 L84.1573333,47.016 L84.1573333,42.856 L84.9573333,41.848 Z M97.0586667,47 L99.1866667,47 L99.1866667,41.4 C99.1866667,39.704 98.2426667,38.472 96.3706667,38.456 C95.0746667,38.44 94.0826667,39.176 93.7466667,39.992 L93.7466667,38.664 L91.7786667,38.664 L91.7786667,47.016 L93.8906667,47.016 L93.8906667,42.568 C93.8906667,41.016 94.3706667,39.912 95.6826667,39.912 C96.7226667,39.912 97.0586667,40.664 97.0586667,41.576 L97.0586667,47 Z M108.984,42.856 C108.984,40.76 107.864,38.456 105.016,38.44 C102.232,38.44 100.92,40.712 100.92,42.872 C100.92,45.208 102.12,47.272 104.904,47.288 C107.8,47.304 108.984,45.256 108.984,42.856 Z M106.824,42.888 C106.824,44.472 106.376,46.12 105.016,46.12 C103.704,46.12 103.08,44.44 103.08,42.888 C103.064,41.448 103.528,39.608 104.888,39.624 C106.248,39.624 106.808,41.464 106.824,42.888 Z M112.445333,46.984 L114.509333,46.984 L115.741333,42.84 L115.923724,42.1933761 C116.076027,41.6380408 116.221333,41.0617143 116.301333,40.616 L116.413333,40.616 C116.525333,41.256 116.781333,42.136 116.973333,42.84 L118.157333,46.984 L120.157333,46.984 L122.573333,38.68 L120.717333,38.68 L119.789333,42.888 C119.613333,43.656 119.469333,44.344 119.341333,44.968 L119.245333,44.968 C119.117333,44.36 118.893333,43.528 118.701333,42.856 L117.517333,38.68 L115.261333,38.68 L114.349333,42.408 L113.909333,44.0665938 C113.823833,44.398 113.747333,44.71 113.693333,44.968 L113.597333,44.968 L113.379365,44.03425 C113.242333,43.45925 113.087333,42.828 112.957333,42.328 L111.997333,38.68 L109.741333,38.68 L112.445333,46.984 Z M127.490667,47.016 L127.490667,45.688 C127.266667,45.8 126.994667,45.864 126.738667,45.848 C126.130667,45.832 126.002667,45.576 126.002667,44.568 L126.002667,34.728 L123.890667,34.728 L123.890667,44.712 C123.890667,45.784 124.082667,46.376 124.498667,46.776 C125.106667,47.368 126.498667,47.4 127.490667,47.016 Z M132.888,47.304 C134.152,47.304 135.112,47.064 135.736,46.6 L135.736,45.096 C134.936,45.72 134.056,46.056 133.016,46.024 C131.368,45.992 130.616,44.952 130.616,43.128 L136.232,43.128 C136.268,42.888 136.286,42.675 136.286,42.45525 L136.28,42.232 C136.264,40.44 135.144,38.408 132.472,38.408 C129.896,38.408 128.408,40.44 128.392,42.776 C128.376,45.656 129.896,47.304 132.888,47.304 Z M130.664,42.024 C130.664,40.744 131.304,39.544 132.44,39.544 C133.528,39.544 134.168,40.696 134.152,42.024 L130.664,42.024 Z M141.405333,47.256 C142.605333,47.256 143.453333,46.584 143.789333,45.912 L143.789333,47 L145.789333,47 L145.789333,34.744 L143.661333,34.744 L143.661333,39.544 C143.165333,38.84 142.317333,38.44 141.245333,38.456 C139.229333,38.456 137.773333,40.104 137.757333,42.776 C137.741333,45.576 139.069333,47.256 141.405333,47.256 Z M141.869333,46.04 C140.541333,46.024 139.901333,44.696 139.901333,42.808 C139.901333,41.048 140.557333,39.768 141.901333,39.768 C143.053333,39.752 143.789333,40.712 143.869333,42.44 L143.869333,43.128 C143.789333,44.84 142.989333,46.024 141.869333,46.04 Z M151.218667,50.76 C154.882667,50.808 155.810667,48.728 155.746667,45.688 L155.746667,38.664 L153.746667,38.664 L153.746667,39.704 C153.330667,38.904 152.450667,38.376 151.346667,38.376 C148.962667,38.392 147.506667,40.296 147.506667,42.728 C147.490667,45.32 148.722667,47.096 151.346667,47.096 C152.306667,47.096 153.282667,46.616 153.666667,45.912 C153.642667,46.272 153.645667,46.578 153.628417,46.90425 L153.602667,47.24 C153.522667,48.424 152.882667,49.432 151.282667,49.432 C150.178667,49.4 149.250667,49 148.306667,48.328 L148.306667,49.832 C149.122667,50.392 150.258667,50.728 151.218667,50.76 Z M151.682667,45.832 C150.386667,45.816 149.650667,44.424 149.650667,42.76 C149.650667,40.952 150.370667,39.576 151.762667,39.576 C152.930667,39.576 153.586667,40.792 153.666667,42.216 L153.666667,43 C153.634667,44.76 152.978667,45.848 151.682667,45.832 Z M162.024,47.304 C163.288,47.304 164.248,47.064 164.872,46.6 L164.872,45.096 C164.072,45.72 163.192,46.056 162.152,46.024 C160.504,45.992 159.752,44.952 159.752,43.128 L165.368,43.128 C165.404,42.888 165.422,42.675 165.422,42.45525 L165.416,42.232 C165.4,40.44 164.28,38.408 161.608,38.408 C159.032,38.408 157.544,40.44 157.528,42.776 C157.512,45.656 159.032,47.304 162.024,47.304 Z M159.8,42.024 C159.8,40.744 160.44,39.544 161.576,39.544 C162.664,39.544 163.304,40.696 163.288,42.024 L159.8,42.024 Z M173.730667,36.6 L177.858667,36.6 L177.858667,35.256 L171.474667,35.256 L171.474667,47 L173.730667,47 L173.730667,41.32 L177.138667,41.32 L177.138667,39.992 L173.730667,39.992 L173.730667,36.6 Z M182.952,47.304 C184.216,47.304 185.176,47.064 185.8,46.6 L185.8,45.096 C185,45.72 184.12,46.056 183.08,46.024 C181.432,45.992 180.68,44.952 180.68,43.128 L186.296,43.128 C186.332,42.888 186.35,42.675 186.35,42.45525 L186.344,42.232 C186.328,40.44 185.208,38.408 182.536,38.408 C179.96,38.408 178.472,40.44 178.456,42.776 C178.44,45.656 179.96,47.304 182.952,47.304 Z M180.728,42.024 C180.728,40.744 181.368,39.544 182.504,39.544 C183.592,39.544 184.232,40.696 184.216,42.024 L180.728,42.024 Z M192.237333,47.304 C193.501333,47.304 194.461333,47.064 195.085333,46.6 L195.085333,45.096 C194.285333,45.72 193.405333,46.056 192.365333,46.024 C190.717333,45.992 189.965333,44.952 189.965333,43.128 L195.581333,43.128 C195.617333,42.888 195.635333,42.675 195.635333,42.45525 L195.629333,42.232 C195.613333,40.44 194.493333,38.408 191.821333,38.408 C189.245333,38.408 187.757333,40.44 187.741333,42.776 C187.725333,45.656 189.245333,47.304 192.237333,47.304 Z M190.013333,42.024 C190.013333,40.744 190.653333,39.544 191.789333,39.544 C192.877333,39.544 193.517333,40.696 193.501333,42.024 L190.013333,42.024 Z M200.754667,47.256 C201.954667,47.256 202.802667,46.584 203.138667,45.912 L203.138667,47 L205.138667,47 L205.138667,34.744 L203.010667,34.744 L203.010667,39.544 C202.514667,38.84 201.666667,38.44 200.594667,38.456 C198.578667,38.456 197.122667,40.104 197.106667,42.776 C197.090667,45.576 198.418667,47.256 200.754667,47.256 Z M201.218667,46.04 C199.890667,46.024 199.250667,44.696 199.250667,42.808 C199.250667,41.048 199.906667,39.768 201.250667,39.768 C202.402667,39.752 203.138667,40.712 203.218667,42.44 L203.218667,43.128 C203.138667,44.84 202.338667,46.024 201.218667,46.04 Z M211.592,47.256 C213.944,47.288 215.256,45.576 215.24,42.776 C215.224,40.104 213.752,38.456 211.752,38.456 C210.68,38.44 209.832,38.84 209.336,39.544 L209.336,34.744 L207.208,34.744 L207.208,47.016 L209.208,47.016 L209.208,45.912 C209.544,46.6 210.36,47.256 211.592,47.256 Z M211.128,46.008 C210.024,45.976 209.208,44.84 209.128,43.128 L209.128,42.44 C209.208,40.712 209.944,39.752 211.096,39.768 C212.424,39.768 213.08,41.048 213.08,42.808 C213.08,44.696 212.584,45.992 211.128,46.008 Z M222.061333,47.032 L224.093333,47.032 C223.981333,46.552 223.901333,45.736 223.885333,45.208 L223.885333,41.32 C223.885333,39.512 222.749333,38.392 220.669333,38.408 C219.357333,38.424 218.173333,38.808 217.341333,39.336 L217.341333,40.824 C218.221333,40.136 219.421333,39.672 220.429333,39.672 C221.325333,39.672 221.789333,40.184 221.789333,41.208 L221.789333,41.848 C221.433778,41.7768889 221.078222,41.7563457 220.520395,41.7863704 L220.301333,41.8 C217.933333,41.912 216.717333,43.064 216.701333,44.536 C216.685333,46.008 217.485333,47.272 219.661333,47.224 C220.861333,47.208 221.629333,46.584 221.949333,45.976 C221.949333,46.296 221.981333,46.632 222.061333,47.032 Z M221.837333,42.936 L221.837333,43.88 C221.821333,44.488 221.773333,44.952 221.341333,45.416 C220.893333,45.832 220.445333,45.896 219.949333,45.864 C219.165333,45.816 218.749333,45.288 218.749333,44.392 C218.765333,43.416 219.565333,43 220.445333,42.904 C220.957333,42.84 221.437333,42.856 221.837333,42.936 Z M232.546667,46.584 L232.546667,45.08 C231.778667,45.784 231.234667,46.04 230.162667,46.04 C228.338667,46.056 227.778667,44.632 227.746667,42.872 C227.730667,41.432 228.178667,39.64 229.986667,39.608 C230.978667,39.592 231.730667,39.976 232.514667,40.744 L232.514667,39.16 C231.778667,38.648 230.866667,38.3758374 229.714667,38.3758374 C226.898667,38.36 225.586667,40.696 225.586667,42.856 C225.586667,45.528 226.962667,47.272 229.874667,47.304 C231.026667,47.304 231.890667,47.08 232.546667,46.584 Z M239.208,47.016 L241.608,47.016 L238.168,42.232 L241.272,38.648 L239.064,38.648 L237.805935,40.2674046 C237.171977,41.0934291 236.80313,41.5933913 236.584,41.896 L236.488,41.896 L236.488,34.728 L234.344,34.728 L234.344,47 L236.488,47 L236.488,43.976 L237.032,43.336 L239.208,47.016 Z M253.474667,47 L253.474667,45.64 L249.314667,45.64 L249.314667,35.24 L247.058667,35.24 L247.058667,47 L253.474667,47 Z M262.776,42.856 C262.776,40.76 261.656,38.456 258.808,38.44 C256.024,38.44 254.712,40.712 254.712,42.872 C254.712,45.208 255.912,47.272 258.696,47.288 C261.592,47.304 262.776,45.256 262.776,42.856 Z M260.616,42.888 C260.616,44.472 260.168,46.12 258.808,46.12 C257.546462,46.12 256.921018,44.5667456 256.874773,43.0675421 L256.872,42.888 C256.856,41.448 257.32,39.608 258.68,39.624 C260.04,39.624 260.6,41.464 260.616,42.888 Z M272.237333,42.856 C272.237333,40.76 271.117333,38.456 268.269333,38.44 C265.485333,38.44 264.173333,40.712 264.173333,42.872 C264.173333,45.208 265.373333,47.272 268.157333,47.288 C271.053333,47.304 272.237333,45.256 272.237333,42.856 Z M270.077333,42.888 C270.077333,44.472 269.629333,46.12 268.269333,46.12 C266.957333,46.12 266.333333,44.44 266.333333,42.888 C266.317333,41.448 266.781333,39.608 268.141333,39.624 C269.501333,39.624 270.061333,41.464 270.077333,42.888 Z M278.418667,38.392 C277.218667,38.392 276.354667,39.048 276.034667,39.736 L276.034667,38.68 L274.034667,38.68 L274.034667,50.776 L276.146667,50.776 L276.146667,46.088 C276.658667,46.792 277.506667,47.208 278.578667,47.192 C280.578667,47.176 282.050667,45.528 282.066667,42.872 C282.082667,40.056 280.754667,38.392 278.418667,38.392 Z M277.954667,39.64 C279.282667,39.656 279.906667,40.936 279.906667,42.824 C279.906667,44.6 279.250667,45.864 277.922667,45.88 C276.770667,45.88 276.034667,44.92 275.954667,43.192 L275.954667,42.504 C276.034667,40.792 276.818667,39.656 277.954667,39.64 Z" id="知識的循環與回饋TheKnowledgeFeedbackLoop" fill="#002C36" fill-rule="nonzero"></path>
    </g>
</svg>