<svg xmlns="http://www.w3.org/2000/svg" width="629.674" height="102" viewBox="0 0 629.674 102">
  <g id="psgEx4-11--02" transform="translate(-9752.663 7698)">
    <g id="psgEx4-11" transform="translate(-1355 -1412)">
      <path id="Fill_1_Copy_2" data-name="Fill 1 Copy 2" d="M29.467,0,0,100H597.531L627,0Z" transform="translate(11109 -6285)" fill="#f4d0b7"/>
      <path id="Stroke_2_Copy_2" data-name="Stroke 2 Copy 2" d="M597.531,100H0L29.467,0H627Z" transform="translate(11109 -6285)" fill="none" stroke="#002d37" stroke-miterlimit="10" stroke-width="2"/>
    </g>
  </g>
</svg>
