<svg xmlns="http://www.w3.org/2000/svg" xmlns:xlink="http://www.w3.org/1999/xlink" width="311.376" height="311.375" viewBox="0 0 311.376 311.375">
  <defs>
    <clipPath id="clip-path">
      <path id="Clip_4" data-name="Clip 4" d="M0,0H311.376V311.376H0Z" transform="translate(0 0.624)" fill="none"/>
    </clipPath>
  </defs>
  <g id="psgEx4-12" transform="translate(0 -1)" opacity="0.2">
    <path id="Fill_1" data-name="Fill 1" d="M56.635,0A56.634,56.634,0,1,0,113.27,56.634,56.635,56.635,0,0,0,56.635,0Z" transform="translate(99.054 100.053)" fill="#fed59f"/>
    <g id="Group_5" data-name="Group 5" transform="translate(0 0.376)">
      <path id="Clip_4-2" data-name="Clip 4" d="M0,0H311.376V311.376H0Z" transform="translate(0 0.624)" fill="none"/>
      <g id="Group_5-2" data-name="Group 5" clip-path="url(#clip-path)">
        <path id="Fill_3" data-name="Fill 3" d="M155.7,311.376a156.946,156.946,0,0,1-31.386-3.162A154.842,154.842,0,0,1,68.638,284.79a156.1,156.1,0,0,1-56.405-68.5,154.94,154.94,0,0,1-9.07-29.23,157.278,157.278,0,0,1,0-62.762A154.806,154.806,0,0,1,26.586,68.631a156.11,156.11,0,0,1,68.5-56.4,154.955,154.955,0,0,1,29.23-9.07,157.281,157.281,0,0,1,62.762,0,154.818,154.818,0,0,1,55.666,23.422,156.105,156.105,0,0,1,56.4,68.491,154.9,154.9,0,0,1,9.07,29.223,157.28,157.28,0,0,1,0,62.762,154.858,154.858,0,0,1-23.422,55.678,156.095,156.095,0,0,1-68.49,56.405,154.885,154.885,0,0,1-29.223,9.07A156.853,156.853,0,0,1,155.7,311.376Zm0-265.56A109.873,109.873,0,1,0,265.56,155.674,110,110,0,0,0,155.7,45.815Z" transform="translate(0 0.624)" fill="#fed59f"/>
      </g>
    </g>
  </g>
</svg>
