<?xml version="1.0" encoding="UTF-8"?>
<svg width="332px" height="63px" viewBox="0 0 332 63" version="1.1" xmlns="http://www.w3.org/2000/svg" xmlns:xlink="http://www.w3.org/1999/xlink">
    <!-- Generator: Sketch 59.1 (86144) - https://sketch.com -->
    <title>Fill 1 Copy 8</title>
    <desc>Created with Sketch.</desc>
    <g id="Page-1" stroke="none" stroke-width="1" fill="none" fill-rule="evenodd">
        <polygon id="Fill-1-Copy-8" fill="#F4D0B7" points="10.4751229 0 0 63 321.524105 63 332 0"></polygon>
        <polygon id="Stroke-2-Copy-8" stroke="#002D37" stroke-width="2" points="321.524105 63 0 63 10.4751229 0 332 0"></polygon>
        <path d="M148.901333,18.36 L148.117333,18.36 L148.127189,19.071808 C148.125653,19.91712 148.056533,20.3344 147.813333,20.168 C147.541333,19.992 147.317333,19.4 147.141333,18.616 C147.893333,17.624 148.565333,16.472 149.125333,15.144 L147.685333,14.44 C147.429333,15.16 147.157333,15.832 146.837333,16.456 C146.741333,15.56 146.693333,14.632 146.677333,13.832 L148.997333,13.832 L148.997333,12.872 L146.677333,12.872 L146.661333,7.496 L146.661333,7.496 L144.901333,7.496 C144.885333,9.176 144.917333,11.064 144.933333,12.872 L143.445333,12.872 C143.861333,12.264 144.213333,11.592 144.533333,10.76 L143.141333,10.36 L144.661333,10.36 L144.661333,9.432 L142.725333,9.432 L143.381333,9.016 C142.853333,8.312 142.101333,7.64 141.461333,7.24 L140.885333,7.72 C141.205333,8.248 141.525333,8.808 141.829333,9.432 L139.957333,9.432 L139.957333,10.36 L142.981333,10.36 C142.885333,11.4 142.757333,12.088 142.565333,12.872 L141.429333,12.872 L142.245333,12.536 C141.925333,11.768 141.413333,10.984 140.853333,10.36 L140.245333,10.696 C140.453333,11.24 140.709333,12.024 140.917333,12.872 L139.605333,12.872 L139.605333,9.144 L140.357333,9.144 L140.357333,8.216 L134.789333,8.216 L134.789333,9.144 L135.445333,9.144 L135.445333,18.504 L134.549333,18.648 L135.093333,20.376 C136.021333,20.04 137.093333,19.544 137.957333,18.984 L137.957333,22.328 L139.605333,22.328 L139.605333,13.832 L144.949333,13.832 C144.997333,15.448 145.093333,17.192 145.413333,18.696 C145.077333,19.112 144.725333,19.512 144.357333,19.88 L144.357333,14.6 L140.181333,14.6 L140.181333,20.904 L141.669333,20.904 L141.669333,19.896 L144.341333,19.896 C143.573333,20.632 142.757333,21.224 141.893333,21.688 L142.261333,22.408 C143.557333,21.896 144.757333,21.128 145.829333,20.104 C146.213333,21.128 146.757333,21.896 147.541333,22.2 C149.109333,22.84 149.477333,21.08 148.901333,18.36 Z M149.077333,11.608 C148.613333,10.568 148.069333,9.544 147.333333,8.616 L146.693333,8.92 C146.997333,9.928 147.285333,11.032 147.541333,12.2 L149.077333,11.608 Z M136.997333,9.144 L137.957333,9.144 L137.957333,11.288 L136.997333,11.288 L136.997333,9.144 Z M136.997333,12.2 L137.957333,12.2 L137.957333,14.472 L136.997333,14.472 L136.997333,12.2 Z M136.997333,18.168 L136.997333,15.384 L137.957333,15.384 L137.957333,17.896 L136.997333,18.168 L136.997333,18.168 Z M142.869333,16.728 L141.669333,16.728 L141.669333,15.512 L142.869333,15.512 L142.869333,16.728 Z M142.869333,18.968 L141.669333,18.968 L141.669333,17.624 L142.869333,17.624 L142.869333,18.968 Z M159.514667,17.944 L164.810667,17.944 L164.810667,17 L158.970667,17 L158.970667,16.104 L163.210667,16.104 L163.210667,15.192 L158.970667,15.192 L158.970667,14.36 L164.170667,14.36 L164.170667,13.416 L160.250667,13.416 C160.762667,13.016 161.290667,12.52 161.770667,11.992 L160.874667,11.576 L164.538667,11.576 L164.538667,10.648 L161.770667,10.648 C162.426667,10.04 163.146667,9.224 163.626667,8.536 L161.802667,7.656 C161.482667,8.696 160.970667,9.928 160.586667,10.648 L160.298667,10.648 L160.298667,7.528 L158.490667,7.528 L158.490667,10.648 L157.434667,10.648 L157.434667,7.528 L155.626667,7.528 L155.626667,10.648 L154.266667,10.648 L155.226667,10.04 C154.618667,9.256 153.786667,8.392 152.938667,7.736 L152.298667,8.216 C152.762667,9.016 153.210667,9.912 153.530667,10.648 L151.386667,10.648 L151.386667,11.576 L154.106667,11.576 L154.090667,11.592 C154.474667,12.152 154.858667,12.792 155.210667,13.416 L151.738667,13.416 L151.738667,14.36 L156.906667,14.36 L156.906667,15.192 L152.682667,15.192 L152.682667,16.104 L156.906667,16.104 L156.906667,17 L151.082667,17 L151.082667,17.944 L155.658667,17.944 C154.298667,19.384 152.602667,20.36 150.682667,21.064 L150.954667,21.832 C153.418667,21.352 155.594667,20.296 156.906667,19.16 L156.906667,22.328 L158.970667,22.328 L158.970667,18.872 C160.394667,20.376 162.602667,21.464 164.442667,21.88 L165.258667,19.8 C163.482667,19.56 161.226667,19 159.514667,17.944 Z M155.418667,11.576 L159.786667,11.576 C159.562667,12.2 159.258667,12.888 158.986667,13.416 L156.426667,13.416 L157.050667,12.936 C156.602667,12.472 156.026667,11.992 155.418667,11.576 Z M176.768,7.928 L173.072,7.928 L173.072,9.032 L175.936,9.032 C176.224,10.568 176.912,12.36 178.08,13.848 L169.904,13.848 C171.296,12.28 172.176,10.44 172.608,8.92 L170.448,8.328 C169.776,11.016 168.8,13.336 166.656,15.336 L167.168,16.056 C167.952,15.624 168.656,15.08 169.28,14.488 L169.28,14.952 L171.568,14.952 C171.312,17.416 170.608,19.928 167.136,21.72 L167.44,22.504 C171.856,21.352 173.408,18.088 173.728,14.952 L176.384,14.952 L176.333259,16.0445185 C176.249951,17.6315309 176.145671,18.7168477 176.012892,19.6241783 L175.984,19.816 C175.824,20.872 175.376,20.92 172.864,20.488 L172.64,21.304 C175.84,23 177.696,22.456 178.016,20.52 L178.057269,20.2518704 C178.213,19.1944444 178.414667,17.3146667 178.576,14.44 C179.072,14.968 179.632,15.432 180.256,15.816 L181.52,13.736 C178.944,12.44 177.408,10.456 176.768,7.928 Z M197.077333,11.112 L197.077333,10.024 L189.573333,10.024 C189.797333,9.272 189.989333,8.52 190.117333,7.784 L187.861333,7.448 C187.733333,8.36 187.557333,9.208 187.349333,10.024 L183.253333,10.024 L183.253333,11.112 L187.029333,11.112 C186.101333,14.072 184.645333,16.328 182.789333,18.024 L183.253333,18.696 C184.197333,18.168 185.077333,17.448 185.877333,16.6 L185.877333,21.144 L187.925333,21.144 L187.925333,14.856 L189.941333,14.856 L189.941333,22.36 L192.053333,22.36 L192.053333,14.856 L194.101333,14.856 L194.101333,18.952 C194.101333,19.704 193.781333,19.816 192.469333,19.608 L192.277333,20.424 C194.245333,21.528 196.133333,21.096 196.133333,19.432 L196.133333,13.848 L192.053333,13.848 L192.053333,11.624 L189.941333,11.624 L189.941333,13.848 L187.893333,13.848 C188.405333,12.984 188.837333,12.056 189.189333,11.112 L197.077333,11.112 Z M69.0293333,38 L69.0293333,36.64 L64.8693333,36.64 L64.8693333,26.24 L62.6133333,26.24 L62.6133333,38 L69.0293333,38 Z M71.6586667,38.016 L73.9146667,38.016 L73.9146667,27.6 L76.8106667,27.6 L76.8106667,26.256 L68.8266667,26.256 L68.8266667,27.6 L71.6586667,27.6 L71.6586667,38.016 Z M80.784,38.016 L83.04,38.016 L83.04,27.6 L85.936,27.6 L85.936,26.256 L77.952,26.256 L77.952,27.6 L80.784,27.6 L80.784,38.016 Z M95.0613333,28.768 L95.0613333,26.848 C94.2933333,26.368 93.0933333,25.9998438 91.7493333,25.9998438 C88.5333333,25.984 86.5813333,28.416 86.5653333,32.096 C86.5493333,35.552 88.2933333,38.272 91.9093333,38.272 C93.2853333,38.272 94.4053333,38.032 95.0773333,37.52 L95.0773333,35.68 C94.2613333,36.4 93.3333333,36.848 92.1973333,36.848 C89.7104762,36.848 88.9146819,34.7039739 88.8859054,32.3373487 L88.8853333,32.128 C88.8853333,29.744 89.6533333,27.408 91.9093333,27.408 C93.0293333,27.408 94.2933333,28.016 95.0613333,28.768 Z M107.76,38 L107.76,36.64 L103.6,36.64 L103.6,26.24 L101.344,26.24 L101.344,38 L107.76,38 Z M113.493333,38.304 C114.757333,38.304 115.717333,38.064 116.341333,37.6 L116.341333,36.096 C115.541333,36.72 114.661333,37.056 113.621333,37.024 C111.973333,36.992 111.221333,35.952 111.221333,34.128 L116.837333,34.128 C116.873333,33.888 116.891333,33.675 116.891333,33.45525 L116.885333,33.232 C116.869333,31.44 115.749333,29.408 113.077333,29.408 C110.501333,29.408 109.013333,31.44 108.997333,33.776 C108.981333,36.656 110.501333,38.304 113.493333,38.304 Z M111.269333,33.024 C111.269333,31.744 111.909333,30.544 113.045333,30.544 C114.133333,30.544 114.773333,31.696 114.757333,33.024 L111.269333,33.024 Z M123.626667,38.032 L125.658667,38.032 C125.546667,37.552 125.466667,36.736 125.450667,36.208 L125.450667,32.32 C125.450667,30.512 124.314667,29.392 122.234667,29.408 C120.922667,29.424 119.738667,29.808 118.906667,30.336 L118.906667,31.824 C119.786667,31.136 120.986667,30.672 121.994667,30.672 C122.890667,30.672 123.354667,31.184 123.354667,32.208 L123.354667,32.848 C122.999111,32.7768889 122.643556,32.7563457 122.085728,32.7863704 L121.866667,32.8 C119.498667,32.912 118.282667,34.064 118.266667,35.536 C118.250667,37.008 119.050667,38.272 121.226667,38.224 C122.426667,38.208 123.194667,37.584 123.514667,36.976 C123.514667,37.296 123.546667,37.632 123.626667,38.032 Z M123.402667,33.936 L123.402667,34.88 C123.386667,35.488 123.338667,35.952 122.906667,36.416 C122.458667,36.832 122.010667,36.896 121.514667,36.864 C120.730667,36.816 120.314667,36.288 120.314667,35.392 C120.330667,34.416 121.130667,34 122.010667,33.904 C122.522667,33.84 123.002667,33.856 123.402667,33.936 Z M127.488,38.016 L129.616,38.016 L129.616,33.776 C129.616,32.784 130.144,31.648 131.296,31.344 C131.664,31.248 131.936,31.248 132.336,31.392 L132.336,29.472 C131.92,29.392 131.616,29.408 131.312,29.472 C130.656,29.584 129.792,30.304 129.488,31.2 C129.52,30.752 129.504,30.16 129.504,29.696 L127.488,29.696 L127.488,38.016 Z M138.901333,38 L141.029333,38 L141.029333,32.4 C141.029333,30.704 140.085333,29.472 138.213333,29.456 C136.917333,29.44 135.925333,30.176 135.589333,30.992 L135.589333,29.664 L133.621333,29.664 L133.621333,38.016 L135.733333,38.016 L135.733333,33.568 C135.733333,32.016 136.213333,30.912 137.525333,30.912 C138.565333,30.912 138.901333,31.664 138.901333,32.576 L138.901333,38 Z M147.258667,38.304 C148.522667,38.304 149.482667,38.064 150.106667,37.6 L150.106667,36.096 C149.306667,36.72 148.426667,37.056 147.386667,37.024 C145.738667,36.992 144.986667,35.952 144.986667,34.128 L150.602667,34.128 C150.638667,33.888 150.656667,33.675 150.656667,33.45525 L150.650667,33.232 C150.634667,31.44 149.514667,29.408 146.842667,29.408 C144.266667,29.408 142.778667,31.44 142.762667,33.776 C142.746667,36.656 144.266667,38.304 147.258667,38.304 Z M145.034667,33.024 C145.034667,31.744 145.674667,30.544 146.810667,30.544 C147.898667,30.544 148.538667,31.696 148.522667,33.024 L145.034667,33.024 Z M152.384,38.016 L154.512,38.016 L154.512,33.776 C154.512,32.784 155.04,31.648 156.192,31.344 C156.56,31.248 156.832,31.248 157.232,31.392 L157.232,29.472 C156.816,29.392 156.512,29.408 156.208,29.472 C155.552,29.584 154.688,30.304 154.384,31.2 C154.416,30.752 154.4,30.16 154.4,29.696 L152.384,29.696 L152.384,38.016 Z M166.954667,38 C169.210667,37.904 170.698667,36.912 171.450667,35.632 C172.026667,34.656 172.266667,33.536 172.282667,32.064 C172.282667,30.768 172.042667,29.632 171.514667,28.736 C170.714667,27.344 169.226667,26.368 166.826667,26.24 C165.578667,26.176 163.930667,26.256 162.810667,26.352 L162.810667,37.872 C164.074667,38.016 165.498667,38.064 166.954667,38 Z M166.378667,36.624 C165.978667,36.656 165.482667,36.64 165.050667,36.56 L165.050667,27.648 C165.345067,27.6096 165.690667,27.59168 166.062891,27.602432 L166.346667,27.616 C168.986667,27.728 170.010667,29.12 170.010667,32.08 C170.010667,35.136 169.082667,36.464 166.378667,36.624 Z M178.48,38.304 C179.744,38.304 180.704,38.064 181.328,37.6 L181.328,36.096 C180.528,36.72 179.648,37.056 178.608,37.024 C176.96,36.992 176.208,35.952 176.208,34.128 L181.824,34.128 C181.86,33.888 181.878,33.675 181.878,33.45525 L181.872,33.232 C181.856,31.44 180.736,29.408 178.064,29.408 C175.488,29.408 174,31.44 173.984,33.776 C173.968,36.656 175.488,38.304 178.48,38.304 Z M176.256,33.024 C176.256,31.744 176.896,30.544 178.032,30.544 C179.12,30.544 179.76,31.696 179.744,33.024 L176.256,33.024 Z M183.669333,38 L185.781333,38 L185.781333,33.392 C185.781333,31.904 186.229333,30.88 187.285333,30.88 C188.293333,30.88 188.677333,31.728 188.677333,32.736 L188.677333,38 L190.805333,38 L190.805333,33.408 C190.805333,31.936 191.221333,30.88 192.341333,30.88 C193.349333,30.88 193.701333,31.6 193.701333,32.768 L193.701333,38.016 L195.813333,38.016 L195.813333,32.544 C195.813333,30.704 194.949333,29.44 192.949333,29.44 C191.685333,29.44 190.757333,30.272 190.389333,31.168 C190.053333,30.144 189.189333,29.44 187.829333,29.456 C186.693333,29.456 185.877333,30.288 185.653333,30.976 L185.653333,29.664 L183.669333,29.664 L183.669333,38 Z M205.610667,33.856 C205.610667,31.76 204.490667,29.456 201.642667,29.44 C198.858667,29.44 197.546667,31.712 197.546667,33.872 C197.546667,36.208 198.746667,38.272 201.530667,38.288 C204.426667,38.304 205.610667,36.256 205.610667,33.856 Z M203.450667,33.888 C203.450667,35.472 203.002667,37.12 201.642667,37.12 C200.330667,37.12 199.706667,35.44 199.706667,33.888 C199.690667,32.448 200.154667,30.608 201.514667,30.624 C202.874667,30.624 203.434667,32.464 203.450667,33.888 Z M210.704,41.76 C214.368,41.808 215.296,39.728 215.232,36.688 L215.232,29.664 L213.232,29.664 L213.232,30.704 C212.816,29.904 211.936,29.376 210.832,29.376 C208.448,29.392 206.992,31.296 206.992,33.728 C206.976,36.32 208.208,38.096 210.832,38.096 C211.792,38.096 212.768,37.616 213.152,36.912 C213.128,37.272 213.131,37.578 213.11375,37.90425 L213.088,38.24 C213.008,39.424 212.368,40.432 210.768,40.432 C209.664,40.4 208.736,40 207.792,39.328 L207.792,40.832 C208.608,41.392 209.744,41.728 210.704,41.76 Z M211.168,36.832 C209.872,36.816 209.136,35.424 209.136,33.76 C209.136,31.952 209.856,30.576 211.248,30.576 C212.416,30.576 213.072,31.792 213.152,33.216 L213.152,34 C213.12,35.76 212.464,36.848 211.168,36.832 Z M217.349333,38.016 L219.477333,38.016 L219.477333,33.776 C219.477333,32.784 220.005333,31.648 221.157333,31.344 C221.525333,31.248 221.797333,31.248 222.197333,31.392 L222.197333,29.472 C221.781333,29.392 221.477333,29.408 221.173333,29.472 C220.517333,29.584 219.653333,30.304 219.349333,31.2 C219.381333,30.752 219.365333,30.16 219.365333,29.696 L217.349333,29.696 L217.349333,38.016 Z M228.442667,38.032 L230.474667,38.032 C230.362667,37.552 230.282667,36.736 230.266667,36.208 L230.266667,32.32 C230.266667,30.512 229.130667,29.392 227.050667,29.408 C225.738667,29.424 224.554667,29.808 223.722667,30.336 L223.722667,31.824 C224.602667,31.136 225.802667,30.672 226.810667,30.672 C227.706667,30.672 228.170667,31.184 228.170667,32.208 L228.170667,32.848 C227.815111,32.7768889 227.459556,32.7563457 226.901728,32.7863704 L226.682667,32.8 C224.314667,32.912 223.098667,34.064 223.082667,35.536 C223.066667,37.008 223.866667,38.272 226.042667,38.224 C227.242667,38.208 228.010667,37.584 228.330667,36.976 C228.330667,37.296 228.362667,37.632 228.442667,38.032 Z M228.218667,33.936 L228.218667,34.88 C228.202667,35.488 228.154667,35.952 227.722667,36.416 C227.274667,36.832 226.826667,36.896 226.330667,36.864 C225.546667,36.816 225.130667,36.288 225.130667,35.392 C225.146667,34.416 225.946667,34 226.826667,33.904 C227.338667,33.84 227.818667,33.856 228.218667,33.936 Z M236.752,29.392 C235.552,29.392 234.688,30.048 234.368,30.736 L234.368,29.68 L232.368,29.68 L232.368,41.776 L234.48,41.776 L234.48,37.088 C234.992,37.792 235.84,38.208 236.912,38.192 C238.912,38.176 240.384,36.528 240.4,33.872 C240.416,31.056 239.088,29.392 236.752,29.392 Z M236.288,30.64 C237.616,30.656 238.24,31.936 238.24,33.824 C238.24,35.6 237.584,36.864 236.256,36.88 C235.104,36.88 234.368,35.92 234.288,34.192 L234.288,33.504 C234.368,31.792 235.152,30.656 236.288,30.64 Z M247.525333,38 L249.637333,38 L249.637333,32.336 C249.637333,30.64 248.581333,29.472 246.741333,29.456 C245.573333,29.44 244.645333,30.128 244.293333,30.816 L244.293333,25.728 L242.165333,25.728 L242.165333,38 L244.325333,38 L244.325333,33.472 C244.325333,31.936 244.837333,30.848 246.149333,30.848 C247.141333,30.864 247.525333,31.632 247.525333,32.48 L247.525333,38 Z M252.922667,28.384 C253.594667,28.384 254.154667,27.824 254.154667,27.152 C254.154667,26.496 253.594667,25.936 252.922667,25.936 C252.234667,25.936 251.658667,26.496 251.658667,27.152 C251.658667,27.824 252.234667,28.384 252.922667,28.384 Z M251.850667,38 L253.962667,38 L253.962667,29.696 L251.850667,29.696 L251.850667,38 Z M262.784,37.584 L262.784,36.08 C262.016,36.784 261.472,37.04 260.4,37.04 C258.576,37.056 258.016,35.632 257.984,33.872 L257.987604,33.5697391 C258.036262,32.1931986 258.54069,30.6377931 260.224,30.608 C261.216,30.592 261.968,30.976 262.752,31.744 L262.752,30.16 C262.016,29.648 261.104,29.3758374 259.952,29.3758374 C257.136,29.36 255.824,31.696 255.824,33.856 C255.824,36.528 257.2,38.272 260.112,38.304 C261.264,38.304 262.128,38.08 262.784,37.584 Z M270.021333,35.664 C270.006095,34.4906667 269.033034,33.8107574 267.710291,33.1819873 L267.509333,33.088 C266.453333,32.624 266.085333,32.352 266.085333,31.664 C266.085333,31.072 266.597333,30.656 267.413333,30.64 C267.925333,30.64 268.661333,30.848 269.525333,31.52 L269.525333,29.952 C268.821333,29.568 268.037333,29.408 267.333333,29.408 C265.285333,29.408 264.085333,30.496 264.085333,31.936 C264.085333,33.2494545 264.945466,33.819405 266.276086,34.3833914 L266.469333,34.464 C267.365333,34.832 267.957333,35.264 267.957333,35.84 C267.957333,36.448 267.637333,37.072 266.501333,37.056 C265.621333,37.024 264.853333,36.736 264.005333,36.192 L264.005333,37.68 C264.773333,38.08 265.797333,38.304 266.757333,38.288 C268.965333,38.272 270.021333,37.296 270.021333,35.664 Z M112.282667,57.016 L113.482667,57.016 C111.802667,54.6 111.354667,51.928 111.338667,49.432 C111.306667,47.16 111.818667,44.312 113.418667,41.912 L112.218667,41.912 C110.266667,44.024 109.322667,46.808 109.322667,49.432 C109.322667,52.152 110.298667,54.968 112.282667,57.016 Z M119.152,55.256 C121.504,55.288 122.816,53.576 122.8,50.776 C122.784,48.104 121.312,46.456 119.312,46.456 C118.24,46.44 117.392,46.84 116.896,47.544 L116.896,42.744 L114.768,42.744 L114.768,55.016 L116.768,55.016 L116.768,53.912 C117.104,54.6 117.92,55.256 119.152,55.256 Z M118.688,54.008 C117.584,53.976 116.768,52.84 116.688,51.128 L116.688,50.44 C116.768,48.712 117.504,47.752 118.656,47.768 C119.984,47.768 120.64,49.048 120.64,50.808 C120.64,52.696 120.144,53.992 118.688,54.008 Z M123.701333,58.296 C125.075879,58.7236364 126.450424,58.4952397 127.212672,57.4577355 L127.317333,57.304 C127.829333,56.6 128.309333,55.608 128.789333,54.376 L131.621333,46.68 L129.621333,46.68 L128.485333,50.616 C128.309333,51.176 128.101333,51.896 127.941333,52.52 L127.845333,52.52 C127.653333,51.896 127.381333,51.128 127.157333,50.52 L125.845333,46.68 L123.493333,46.68 L126.981333,54.68 C126.741333,55.464 126.341333,56.2 126.069333,56.584 C125.541333,57.272 124.773333,57.176 123.701333,56.76 L123.701333,58.296 Z M142.128,55.2881227 C145.872,55.304 147.424,52.2 147.424,49.048 C147.424,45.832 145.92,43 142.16,43 C138.48,43 136.832,45.944 136.832,49.048 C136.832,52.232 138.416,55.2881227 142.128,55.2881227 Z M142.112,53.864 C140.208,53.864 139.152,51.576 139.152,49.128 C139.152,46.648 140.08,44.376 142.048,44.376 C144.064,44.376 145.104,46.648 145.104,49.096 C145.12,51.56 144.08,53.864 142.112,53.864 Z M155.941333,54.584 L155.941333,53.08 C155.173333,53.784 154.629333,54.04 153.557333,54.04 C151.733333,54.056 151.173333,52.632 151.141333,50.872 C151.125333,49.432 151.573333,47.64 153.381333,47.608 C154.373333,47.592 155.125333,47.976 155.909333,48.744 L155.909333,47.16 C155.173333,46.648 154.261333,46.3758374 153.109333,46.3758374 C150.293333,46.36 148.981333,48.696 148.981333,50.856 C148.981333,53.528 150.357333,55.272 153.269333,55.304 C154.421333,55.304 155.285333,55.08 155.941333,54.584 Z M164.266667,54.584 L164.266667,53.08 C163.498667,53.784 162.954667,54.04 161.882667,54.04 C160.058667,54.056 159.498667,52.632 159.466667,50.872 C159.450667,49.432 159.898667,47.64 161.706667,47.608 C162.698667,47.592 163.450667,47.976 164.234667,48.744 L164.234667,47.16 C163.498667,46.648 162.586667,46.3758374 161.434667,46.3758374 C158.618667,46.36 157.306667,48.696 157.306667,50.856 C157.306667,53.528 158.682667,55.272 161.594667,55.304 C162.746667,55.304 163.610667,55.08 164.266667,54.584 Z M168.08,46.68 L165.952,46.68 L165.952,52.424 C165.952,54.232 166.88,55.208 168.736,55.224 C170.032,55.224 170.992,54.504 171.328,53.736 L171.328,55 L173.328,55 L173.328,46.68 L171.216,46.68 L171.216,51.112 C171.216,52.632 170.672,53.816 169.456,53.816 C168.384,53.816 168.08,53.08 168.08,52.104 L168.08,46.68 Z M179.909333,46.392 C178.709333,46.392 177.845333,47.048 177.525333,47.736 L177.525333,46.68 L175.525333,46.68 L175.525333,58.776 L177.637333,58.776 L177.637333,54.088 C178.149333,54.792 178.997333,55.208 180.069333,55.192 C182.069333,55.176 183.541333,53.528 183.557333,50.872 C183.573333,48.056 182.245333,46.392 179.909333,46.392 Z M179.445333,47.64 C180.773333,47.656 181.397333,48.936 181.397333,50.824 C181.397333,52.6 180.741333,53.864 179.413333,53.88 C178.261333,53.88 177.525333,52.92 177.445333,51.192 L177.445333,50.504 C177.525333,48.792 178.309333,47.656 179.445333,47.64 Z M190.266667,55.032 L192.298667,55.032 C192.186667,54.552 192.106667,53.736 192.090667,53.208 L192.090667,49.32 C192.090667,47.512 190.954667,46.392 188.874667,46.408 C187.562667,46.424 186.378667,46.808 185.546667,47.336 L185.546667,48.824 C186.426667,48.136 187.626667,47.672 188.634667,47.672 C189.530667,47.672 189.994667,48.184 189.994667,49.208 L189.994667,49.848 C189.639111,49.7768889 189.283556,49.7563457 188.725728,49.7863704 L188.506667,49.8 C186.138667,49.912 184.922667,51.064 184.906667,52.536 C184.890667,54.008 185.690667,55.272 187.866667,55.224 C189.066667,55.208 189.834667,54.584 190.154667,53.976 C190.154667,54.296 190.186667,54.632 190.266667,55.032 Z M190.042667,50.936 L190.042667,51.88 C190.026667,52.488 189.978667,52.952 189.546667,53.416 C189.098667,53.832 188.650667,53.896 188.154667,53.864 C187.370667,53.816 186.954667,53.288 186.954667,52.392 C186.970667,51.416 187.770667,51 188.650667,50.904 C189.162667,50.84 189.642667,50.856 190.042667,50.936 Z M198.576,54.984 L198.576,53.64 C198.32,53.8 198.128,53.848 197.824,53.848 C196.976,53.848 196.8,53.432 196.8,52.392 L196.8,47.832 L198.496,47.832 L198.496,46.696 L196.8,46.696 L196.8,44.472 L194.704,44.472 L194.704,46.696 L193.472,46.696 L193.472,47.832 L194.704,47.832 L194.704,52.536 C194.704,53.496 194.912,54.104 195.28,54.552 C195.616,54.968 196.272,55.24 197.152,55.24 C197.712,55.24 198.192,55.144 198.576,54.984 Z M201.253333,45.384 C201.925333,45.384 202.485333,44.824 202.485333,44.152 C202.485333,43.496 201.925333,42.936 201.253333,42.936 C200.565333,42.936 199.989333,43.496 199.989333,44.152 C199.989333,44.824 200.565333,45.384 201.253333,45.384 Z M200.181333,55 L202.293333,55 L202.293333,46.696 L200.181333,46.696 L200.181333,55 Z M212.218667,50.856 C212.218667,48.76 211.098667,46.456 208.250667,46.44 C205.466667,46.44 204.154667,48.712 204.154667,50.872 C204.154667,53.208 205.354667,55.272 208.138667,55.288 C211.034667,55.304 212.218667,53.256 212.218667,50.856 Z M210.058667,50.888 C210.058667,52.472 209.610667,54.12 208.250667,54.12 C206.938667,54.12 206.314667,52.44 206.314667,50.888 C206.298667,49.448 206.762667,47.608 208.122667,47.624 C209.482667,47.624 210.042667,49.464 210.058667,50.888 Z M219.28,55 L221.408,55 L221.408,49.4 C221.408,47.704 220.464,46.472 218.592,46.456 C217.296,46.44 216.304,47.176 215.968,47.992 L215.968,46.664 L214,46.664 L214,55.016 L216.112,55.016 L216.112,50.568 C216.112,49.016 216.592,47.912 217.904,47.912 C218.944,47.912 219.28,48.664 219.28,49.576 L219.28,55 Z M223.797333,57.016 L222.597333,57.016 C224.277333,54.6 224.725333,51.928 224.741333,49.432 C224.773333,47.16 224.261333,44.312 222.661333,41.912 L223.861333,41.912 C225.813333,44.024 226.741333,46.808 226.741333,49.432 C226.741333,52.152 225.781333,54.968 223.797333,57.016 Z" id="職業分布LTTCLearnerDemographics(byOccupation)" fill="#002C36" fill-rule="nonzero"></path>
    </g>
</svg>