<svg xmlns="http://www.w3.org/2000/svg" xmlns:xlink="http://www.w3.org/1999/xlink" width="526.632" height="606.272" viewBox="0 0 526.632 606.272">
  <defs>
    <clipPath id="clip-path">
      <path id="Clip_52" data-name="Clip 52" d="M0,0H29.547V109.91H0Z" transform="translate(0.094 0.09)" fill="none"/>
    </clipPath>
  </defs>
  <g id="wish02" transform="matrix(0.914, 0.407, -0.407, 0.914, 185.517, -0.521)">
    <path id="Fill_1" data-name="Fill 1" d="M15.937.606A106.2,106.2,0,0,1,0,18.846l6.265,2.741a3,3,0,0,0,1.859.369,3.012,3.012,0,0,0,1.568-1.373A106.909,106.909,0,0,1,24,4.213L15.608,0" transform="translate(116.487 201.406)" fill="#25a5da"/>
    <path id="Fill_3" data-name="Fill 3" d="M.967,1.114Q.425,4.422.043,7.753A2.5,2.5,0,0,0,.1,8.927,2.449,2.449,0,0,0,.957,9.9a126.571,126.571,0,0,0,13.3,9.1q.351-3.052.7-6.1a2.229,2.229,0,0,0-.053-1.077,2.162,2.162,0,0,0-.557-.719A139.9,139.9,0,0,0,1.383,0" transform="translate(128.821 165.474)" fill="#f4d924"/>
    <path id="Fill_5" data-name="Fill 5" d="M.9,5.533,18.941.061a.7.7,0,0,1,.478-.029.75.75,0,0,1,.334.5L22,7.4A188.278,188.278,0,0,0,.468,14Q.233,9.72,0,5.441" transform="translate(341.341 449.132)" fill="#f4d924"/>
    <path id="Fill_7" data-name="Fill 7" d="M1.092,15a.6.6,0,0,1-.606-.609q-.115-2-.229-4l-.006-.11Q.126,8.1,0,5.915a.5.5,0,0,1,.124-.383.551.551,0,0,1,.408-.159.693.693,0,0,1,.566.281.617.617,0,0,1,.312-.2L17.263.857c.261-.076.554-.187.865-.3A6.552,6.552,0,0,1,20.249,0,1.385,1.385,0,0,1,21.6.814a28.809,28.809,0,0,1,1.665,4.649c.226.766.46,1.557.713,2.3a.463.463,0,0,1-.043.378.687.687,0,0,1-.423.326,205.975,205.975,0,0,0-22.15,6.487A.8.8,0,0,1,1.092,15Zm.151-8.419h0q.2,3.51.4,7.02A208.827,208.827,0,0,1,22.613,7.456c-.163-.5-.321-1.024-.474-1.528a31.89,31.89,0,0,0-1.492-4.2c-.152-.326-.311-.465-.529-.465A1.653,1.653,0,0,0,19.6,1.4c-.116.042-.248.09-.393.132l-1.416.41-1.557.451-.065.019-1.492.433L9.274,4.409,1.66,6.618a.624.624,0,0,1-.174.026.489.489,0,0,1-.243-.063Z" transform="translate(340.591 449.065)" fill="#002d37"/>
    <path id="Fill_9" data-name="Fill 9" d="M.6,13.811A129.514,129.514,0,0,0,7.615,0,147.881,147.881,0,0,1,46.457,17.882a1.08,1.08,0,0,1,.525.567,1.084,1.084,0,0,1-.158.719l-6.28,13c-.17.353-.393.748-.779.819a1.261,1.261,0,0,1-.7-.142L10.7,21.091,0,16.658" transform="translate(202.639 162.043)" fill="#25a5da"/>
    <path id="Fill_11" data-name="Fill 11" d="M48.988,20c-.116-1.075-1.091-1.561-1.882-2.089a136.494,136.494,0,0,0-12.661-7.444A149.762,149.762,0,0,0,8.9.038,1.086,1.086,0,0,0,7.67.553a143.376,143.376,0,0,1-7,14.137c-.707,1.249,1.179,2.379,1.885,1.131A143.119,143.119,0,0,0,9.2,2.478a145.9,145.9,0,0,1,21.965,8.813q5.464,2.739,10.7,5.932c.742.454,4.758,2.32,4.957,3.166.084.355-1.209,2.295-1.369,2.635L44.11,25.875l-2.685,5.7c-.174.368-.647,1.891-1.134,2.079a15.642,15.642,0,0,1-2.929-1.245L25.646,27.435Q13.476,22.262,1.3,17.09c-1.3-.552-1.863,1.616-.58,2.16L28.971,31.256l6.834,2.9c1.408.6,3.88,2.355,5.44,1.692,1.41-.6,1.923-2.841,2.512-4.092l3.133-6.655c.6-1.266,2.265-3.558,2.1-5.1" transform="translate(201.389 160.11)" fill="#002d37"/>
    <path id="Fill_13" data-name="Fill 13" d="M9.016,25a3.386,3.386,0,0,1-.495-.038,19.777,19.777,0,0,1-5.688-2.23c-.8-.41-1.558-.8-2.29-1.118a.936.936,0,0,1-.527-.731,1.138,1.138,0,0,1,.3-1.007A113.307,113.307,0,0,0,16.242,1.667,1.014,1.014,0,0,1,16.257.629,1.172,1.172,0,0,1,17.264,0a1.155,1.155,0,0,1,.523.13l2.178,1.1,6.491,3.276a1.013,1.013,0,0,1,.532.778,1.1,1.1,0,0,1-.307.96A112.241,112.241,0,0,0,13.22,21.427c-.172.236-.347.489-.515.735C11.747,23.558,10.757,25,9.016,25Zm9.14-22.2h0A115.925,115.925,0,0,1,3.072,20.321l1.44.633.853.375q.925.408,1.85.813a4.487,4.487,0,0,0,1.481.294A2.12,2.12,0,0,0,10.723,21.1a20.912,20.912,0,0,0,2.545-3.232c.483-.7.982-1.426,1.495-2.06A114.161,114.161,0,0,1,24.01,5.75L19.626,3.537,18.156,2.8Z" transform="translate(113.938 201.089)" fill="#002d37"/>
    <path id="Fill_15" data-name="Fill 15" d="M16.041,21a1.126,1.126,0,0,1-.558-.155A97.186,97.186,0,0,1,1.555,11.852C-.747,9.965,0,6.7.658,3.821c.151-.663.294-1.288.393-1.869a.877.877,0,0,1,.48-.682A1.249,1.249,0,0,1,1.848.327.936.936,0,0,1,2.539,0a1.006,1.006,0,0,1,.589.207C7.48,3.334,11.371,6.418,15.022,9.635c.211.185.436.371.653.55a5.346,5.346,0,0,1,2.222,2.87,13.754,13.754,0,0,1-.386,4.839c-.14.721-.273,1.4-.348,2.023A1.2,1.2,0,0,1,16.041,21ZM3.134,2.9c-.079.374-.187.807-.3,1.266C2.438,5.741,1.948,7.707,2.278,8.8,2.742,10.336,4.551,11.482,6,12.4c.322.2.627.4.9.584,2.586,1.755,5.311,3.459,8.331,5.208l.025-.12a11.985,11.985,0,0,0,.4-4.191c-.269-1.338-1.641-2.4-2.851-3.339-.33-.256-.642-.5-.918-.734C9.193,7.5,6.247,5.174,3.134,2.9Z" transform="translate(128.254 165.09)" fill="#002d37"/>
    <path id="Fill_17" data-name="Fill 17" d="M7.481,0,.846,9.575A2.9,2.9,0,0,0,.1,12.127a2.911,2.911,0,0,0,.871,1.045L30.491,39a24.187,24.187,0,0,1,4.477-10.288c.571-.759,1.224-1.642.979-2.552A3.027,3.027,0,0,0,34.913,24.8L8.1.912" transform="translate(302 304.616)" fill="#f4d924"/>
    <path id="Fill_19" data-name="Fill 19" d="M30.692,41h0a1.21,1.21,0,0,1-.8-.294L7.21,20.311c-.652-.586-1.345-1.173-2.016-1.741a44.037,44.037,0,0,1-3.952-3.627,3.242,3.242,0,0,1-1.2-2.97A10.261,10.261,0,0,1,2.336,7.859c.348-.453.678-.881.954-1.291L7.387.491A1.059,1.059,0,0,1,8.283,0,1.131,1.131,0,0,1,9.44,1.01a1.184,1.184,0,0,1,.247.171L31.376,21.04c.4.369.909.767,1.446,1.189,2.191,1.723,4.917,3.868,3.995,6.52a11.392,11.392,0,0,1-1.6,2.723,15.875,15.875,0,0,0-1.25,1.936,25.3,25.3,0,0,0-2.267,6.82A.971.971,0,0,1,30.692,41ZM8.366,2.907,5.453,7.229c-.217.321-.476.664-.749,1.027-1.136,1.5-2.549,3.376-1.93,5.154.17.487.948,1.06,1.635,1.564.291.214.566.416.751.583Q6.355,16.631,7.548,17.7L9.93,19.846l.006.005L12.324,22l6.1,5.485L30.01,37.9a26.292,26.292,0,0,1,3.518-8l.064-.1c.688-1.037,1.281-1.933.589-3.254A5.839,5.839,0,0,0,32.6,25.01c-.29-.222-.564-.432-.781-.63l-2.841-2.6-.015-.013-.136-.125-1.74-1.593L17.964,11.7l-.239-.219-.4-.365Z" transform="translate(301.933 303.366)" fill="#002d37"/>
    <path id="Fill_21" data-name="Fill 21" d="M33.548.8,53,3.071Q38.584,26.37,23.466,49.225a4.491,4.491,0,0,1-1.175,1.345c-1.018.674-2.361.416-3.556.166A64.632,64.632,0,0,0,0,49.616L34.42,0" transform="translate(365.342 346.05)" fill="#c5576a"/>
    <path id="Fill_23" data-name="Fill 23" d="M21.483,53h0c-.082,0-.166,0-.25-.005a36.4,36.4,0,0,1-5.168-.724,41.938,41.938,0,0,0-4.551-.689c-1.535-.117-3.126-.176-4.728-.176-1.83,0-3.741.077-5.68.23l-.068,0a1.048,1.048,0,0,1-.9-.6,1.022,1.022,0,0,1,.022-1.057l20.984-30.3L33.483,1.868a1.118,1.118,0,0,1,.21-.822.819.819,0,0,1,.567-.3l.066-.1,0,0,.108-.156A1.088,1.088,0,0,1,35.351,0a1.143,1.143,0,0,1,1.173.982L45.206,2l.024,0,8.658,1.011A1.3,1.3,0,0,1,54.9,3.7a.975.975,0,0,1-.067.965c-7.543,12.2-15.265,24.378-22.951,36.184l-.932,1.432c-1.61,2.476-3.273,5.033-4.94,7.528C24.724,51.736,23.713,53,21.483,53ZM6.468,49.227h0A68.756,68.756,0,0,1,19.544,50.49a4.774,4.774,0,0,0,.9.09c2.841,0,4.5-2.795,5.959-5.261.325-.549.633-1.067.946-1.546,1.683-2.57,3.355-5.137,4.97-7.63,6.521-10.07,13.157-20.551,19.722-31.15l-6.678-.78h-.007L35.333,3.043q-11.707,16.9-23.413,33.8L3.292,49.3C4.359,49.252,5.428,49.227,6.468,49.227Z" transform="translate(364.842 345.916)" fill="#002d37"/>
    <path id="Fill_25" data-name="Fill 25" d="M42.79,121.976c-.8.578-5.9-9.2-22.062-16.445C11.615,99.739,3.085,87.282,1.513,68.515S-4.922,18.977,18.344,5.688C28.239-.361,56.97-7.092,73.955,17.271,80.2,27.016,92.048,43.09,82.279,74.22c-5.794,12.9-15,29.989-39.489,47.756" transform="translate(28.232 190.236)" fill="#f4d924"/>
    <path id="Fill_27" data-name="Fill 27" d="M62,59.244S58.175,73.175,43.313,76.7s-25.138.311-33.991-15.155S-2.983,25.392,2.961,14.376,17.347-1.752,26.715.536C26.578,10.86,24.889,25.626,35.842,39S62,59.244,62,59.244" transform="translate(1.93 245.896)" fill="#c9e8f2"/>
    <path id="Fill_29" data-name="Fill 29" d="M17.64,0c-.014,1.052,2.517,14.27-16.45,31.812C-1.141,34.234-.662,38.2,8.271,43.9S23.9,51.075,23.9,51.075s-.927,8.647,5.515,8.878S44.135,59.93,46.478,50.1A113.381,113.381,0,0,0,49.294,33.24S55.465,20.7,51.881,8.746c-3.228.376-10.253,3.815-17.866-.072S17.64,0,17.64,0" transform="translate(189.829 257.553)" fill="#f4d0b7"/>
    <path id="Fill_31" data-name="Fill 31" d="M90.391,0,106,14S97.963,50.022,73.578,70.829,35.476,96.039,20.916,96-1.038,94.774.118,87.62,18.335,75.781,29.226,77.583C36.849,72.9,64.439,50.558,73.152,35.064S90.391,0,90.391,0" transform="translate(64.323 359.068)" fill="#f4d0b7"/>
    <path id="Fill_33" data-name="Fill 33" d="M0,133.734S25.58,96.925,27.609,59.667c2.02-20.279,3.557-41.38,0-45.439S12.361,4.18,11.974,0C29.351.256,61,1.522,61,1.522l-18.065,18.7s3.956,32.6,2.229,53.954-2.135,42.7-22.68,70.824C11.5,141.082,0,133.734,0,133.734" transform="translate(259.548 140.737)" fill="#f4d0b7"/>
    <path id="Fill_35" data-name="Fill 35" d="M79.923,9.069S83.288,33.141,62.54,45.6c-1.012.557-3.3.111-3.3.111S54.811,58.9,38.812,60.659C16.975,63.055,0,52.03,0,52.03s13.558-2.561,19.214-7.537,12.518-8.641,14.9-19.991S39.213-.212,58,3.234c9.734,2.979,10.706,2.849,10.706,2.849S80.623-2.379,93.956.658,115,22.619,115,22.619s-8.909,4.62-18.222-.07-15.13-7.509-16.855-13.48" transform="translate(126.893 243.737)" fill="#da763c"/>
    <path id="Fill_37" data-name="Fill 37" d="M60.306,32.738s-20.744-2.4-31.758,6.46S0,78.643,0,78.643l18.727,19.51s4.028,2.955,10.682-4.167,19.72-16.379,19.72-16.379a61.007,61.007,0,0,1,6.127,23.686c.355,12.685,1.076,44.929,1.076,44.929s15.1,12.57,30.322,15.127,25.682-3.255,25.682-3.255,4.54-27.835,4.156-52.613-1.848-41.662,7.589-67.053,6.481-27.143,6.481-27.143L108.289,0s-7.008,16.318-21.038,19.3c2.755,15.206-19.289,36.015-26.945,13.439" transform="translate(151.384 275.514)" fill="#da763c"/>
    <path id="Fill_39" data-name="Fill 39" d="M28.694,0S13.707,17.258,7.967,25.527C-5.5,44.929,1.6,81.477,4.239,109,64.026,91.25,118,79.638,118,79.638l-35.345-66.7S55.228,23.268,28.694,0" transform="translate(180.56 422.29)" fill="#a9ce52"/>
    <path id="Fill_41" data-name="Fill 41" d="M1.516.879S-.139,25.357.009,33.526c.166,9.11,3,36.322,3,36.322L117,73,115.653,5.074S68.533.586,52.771.085C39.962-.324,1.516.879,1.516.879" transform="translate(244.84 69.759)" fill="#a9ce52"/>
    <path id="Fill_43" data-name="Fill 43" d="M0,0V26.725s43.488-1.387,57.977-.937C77.807,26.4,137.094,32,137.094,32L139,4.121Z" transform="translate(232.642 44.185)" fill="#82a013"/>
    <path id="Fill_45" data-name="Fill 45" d="M32.94,42.81S1.651,29.349.084,18.769,19.482.193,19.482.193s3.086-2.2,8.3,8.239S43.678,39.359,43.678,39.359s5.909-14.613,16.94-20.346c6.4-3.567,8.456-3.878,8.456-3.878L78,37s-6.4,5.314-28.094,6.486C37.967,44.951,32.94,42.81,32.94,42.81" transform="translate(258.199 0.624)" fill="#a9ce52"/>
    <path id="Fill_47" data-name="Fill 47" d="M0,2.227c13.353,14.878,37,18.417,56.017,14,1.721-.4.993-3.012-.731-2.613-18.113,4.208-40.639.853-53.343-13.3C.769-1,0,2.227,0,2.227" transform="translate(207.564 420.734)" fill="#002c36"/>
    <path id="Fill_49" data-name="Fill 49" d="M20.311.984A751.868,751.868,0,0,1,.071,78.323c-.536,1.68,2.123,2.4,2.657.726A752.007,752.007,0,0,0,22.968,1.71c.353-1.716-2.3-2.451-2.657-.726" transform="translate(239.904 436.303)" fill="#002d37"/>
    <g id="Group_53" data-name="Group 53" transform="translate(179.535 421.805)">
      <path id="Clip_52-2" data-name="Clip 52" d="M0,0H29.547V109.91H0Z" transform="translate(0.094 0.09)" fill="none"/>
      <g id="Group_53-2" data-name="Group 53" clip-path="url(#clip-path)">
        <path id="Fill_51" data-name="Fill 51" d="M27.4,0C21.282,7.265,14.242,16.2,8.622,23.885A37.733,37.733,0,0,0,2.5,35.818a68.289,68.289,0,0,0-1.917,13.1,189.969,189.969,0,0,0,4.88,60.013c.418,1.715,3,.988,2.583-.731A187.571,187.571,0,0,1,3.11,51.022a77.179,77.179,0,0,1,1.73-13.536,35.275,35.275,0,0,1,6.1-12.213C16.428,17.788,23.327,9.03,29.3,1.945,30.419.612,27.4,0,27.4,0" transform="translate(0.094 0.09)" fill="#002d37"/>
      </g>
    </g>
    <path id="Fill_54" data-name="Fill 54" d="M0,1.81C12.861,22.375,24.608,47.6,35.516,69.309c.79,1.571,3.111.185,2.323-1.384C26.93,46.219,15.184,20.991,2.322.426,1.395-1.058,0,1.81,0,1.81" transform="translate(261.951 433.481)" fill="#002d37"/>
    <path id="Fill_56" data-name="Fill 56" d="M83.837,457h0c-1.584,0-3.182-.07-4.75-.209a53.24,53.24,0,0,1-11.513-2.27c-2.515-.8-5.029-1.8-5.726-4.332-.715-2.6.5-5.181,3.617-7.681a34.392,34.392,0,0,1,8.037-4.5,34.944,34.944,0,0,1,9.366-2.416l-23.1-67.7-15.3-44.837c-.9.248-1.8.459-2.672.627a29.529,29.529,0,0,1-5.6.55c-8.654,0-16.676-4.107-23.2-11.88a51.58,51.58,0,0,1-7.353-11.843,60.042,60.042,0,0,1-4.208-13.1c-2.32-11.852-1.852-21.3,1.428-28.894A24.83,24.83,0,0,1,11.3,248.216a21.852,21.852,0,0,1,12.571-4.144,19.661,19.661,0,0,1,2.586.171c-.478-6.734-.791-13.922.142-20.85,1.034-7.676,3.461-13.917,7.42-19.081a37.446,37.446,0,0,1,6.35-6.453,41.225,41.225,0,0,1,7.648-4.818A45.117,45.117,0,0,1,65.5,188.584c.675-.032,1.359-.049,2.032-.049A41.475,41.475,0,0,1,85.92,192.83a48.3,48.3,0,0,1,14.748,11.331,57.66,57.66,0,0,1,14.367,34.462,66.381,66.381,0,0,1-2.778,22.75,79.483,79.483,0,0,1-9.714,20.82,97.217,97.217,0,0,1-13.722,16.4,148.435,148.435,0,0,1-16.513,13.7c2.23,4.358,3.061,9.348,3.865,14.174.117.7.238,1.428.361,2.138,3.006,17.367,6.139,35.717,9.169,53.462l.006.035c2.969,17.39,6.039,35.372,8.986,52.406,1.811-1.5,3.608-3.006,5.338-4.481l.022-.019c8.9-7.592,18.108-15.442,25.78-24.407,6.015-7.03,11.768-13.986,16.042-21.777,4.451-8.115,6.893-17.245,9.048-25.3-2.227-2.773-2.347-5.4-.39-8.517,2.218-3.533,4.587-7.058,6.879-10.468,1.156-1.719,2.351-3.5,3.511-5.254.7-1.064,1.392-2.129,2.122-3.257a127.973,127.973,0,0,1,7.755-11.107,37.99,37.99,0,0,1,9.782-8.93c4.943-2.969,11.932-4.948,19.174-5.43a31.942,31.942,0,0,1-9.664-7.232,34.985,34.985,0,0,1-5.142-7.463,15.392,15.392,0,0,1-3.374,6.791,19.959,19.959,0,0,1-5.949,4.638,33.1,33.1,0,0,1-15.172,3.5h-.318a84.977,84.977,0,0,1-19.161-2.093,50.405,50.405,0,0,1-9.143-3.1,36.617,36.617,0,0,1-8.1-5,1.077,1.077,0,0,1-.413-1.031,1.725,1.725,0,0,1,1.018-1.258,41.756,41.756,0,0,1,8.363-2.194,55.864,55.864,0,0,0,6.318-1.452,28.366,28.366,0,0,0,10.945-6.479,28.67,28.67,0,0,0,7.114-10.536,47.443,47.443,0,0,0,2.123-8.949c.163-.963.332-1.958.518-2.935,1.719-9.029,5.56-14.086,11.743-15.459a23.4,23.4,0,0,1,5.131-.533c4.87,0,9.783,1.245,14.535,2.449l.047.012c.858.217,1.745.442,2.6.651a1.293,1.293,0,0,1,.654.371,31.645,31.645,0,0,1,7.246-3.932A31.975,31.975,0,0,1,210,242.369c.921-.091,1.855-.137,2.776-.137a28.033,28.033,0,0,1,10.357,1.986,30.288,30.288,0,0,1,8.832,5.43,33.106,33.106,0,0,1,10.5,18.031,31.245,31.245,0,0,1,.062,12.4,34.946,34.946,0,0,1-4.437,11.4,1.286,1.286,0,0,1,.23.562l.03.191c8.491-3.991,13.926-9.021,19.386-17.941a212.111,212.111,0,0,0,16.819-34.019,194.3,194.3,0,0,0,12.513-62.158c.174-5.048.147-10.154-.081-15.177-.02-.446-.014-.934-.007-1.452v-.006a9.228,9.228,0,0,0-.508-4.038,13.565,13.565,0,0,0-1.913-2.542c-.21-.239-.409-.464-.6-.693l-.183-.217a17.539,17.539,0,0,0-3.5-3.447,13.529,13.529,0,0,0-1.995-1.01c-.424-.186-.863-.379-1.274-.592l-.12-.062c-2.6-1.348-6.155-3.194-7.567-5.944a1.324,1.324,0,0,1,.023-1.318l-12.711-.492-9.8-.38a1.374,1.374,0,0,1-1.322-1.005,273.627,273.627,0,0,1-1.387-68.786c-1.5.061-3.039.1-4.529.148-2.818.081-5.731.164-8.434.363l-.075,0a1.275,1.275,0,0,1-.9-.413,1.359,1.359,0,0,1-.4-.96q.24-6.669.479-13.338t.479-13.338a1.391,1.391,0,0,1,1.368-1.37c18.012.054,36.379.341,54.592.853a87.01,87.01,0,0,1-10.093-6.406c-1.422-1-2.765-1.939-4.079-2.8s-2.794-1.651-4.364-2.487a41.748,41.748,0,0,1-6.887-4.257,11.379,11.379,0,0,1-4.213-6.351c-1.762-7.9,6.7-13.23,12.292-16.759l.024-.015c.429-.27.865-.563,1.328-.872C272.769,1.567,275.108,0,277.482,0a5.141,5.141,0,0,1,2.5.651A14.2,14.2,0,0,1,284.427,4.8a41.773,41.773,0,0,1,3.19,5.238C291,16.38,294.154,22.992,297.2,29.385l.008.016c1.324,2.775,2.693,5.645,4.061,8.451,2.016-3.96,6.241-11.306,11.872-16.011a45.834,45.834,0,0,1,9.937-6.4,6.68,6.68,0,0,1,2.746-.753c1.825,0,2.872,1.419,4.065,3.869a138.041,138.041,0,0,1,5.687,13.464l.121.335c.767,2.115,1.492,4.113.767,5.653a4.118,4.118,0,0,1-2.543,1.981,100.833,100.833,0,0,1-15.63,4.027c17.452.744,35.067,1.708,52.357,2.865a1.382,1.382,0,0,1,1.323,1.005,68.276,68.276,0,0,1-.885,27.835,1.383,1.383,0,0,1-1.251,1.008l-.071,0-.563-.042-7.6-.565q.375,33.838.751,67.675a1.374,1.374,0,0,1-.41.968,1.293,1.293,0,0,1-.917.4h-.045l-18.166-.7-3.133-.121-.3-.012-20.183-.782a1.176,1.176,0,0,1-.391,1.218A203.433,203.433,0,0,0,303,160.782c1.212,13.38,1.893,24.172,2.083,32.991.4,18.413-.839,34.265-3.784,48.46a132.611,132.611,0,0,1-6.981,23.231A102.884,102.884,0,0,1,282.634,286.7c.433,10.091-3.426,19.508-7.158,28.615l-.1.254-.284.694c-4.516,11.032-6.658,20.1-6.945,29.4-.243,7.9-.048,15.954.141,23.745.075,3.094.153,6.293.2,9.435.047,3.017.126,6.089.2,9.061.19,7.324.386,14.9.112,22.318-.307,8.3-2.346,16.225-4.5,23.556a1.28,1.28,0,0,1-1.279.962,1.506,1.506,0,0,1-1.195-.568,1.219,1.219,0,0,1-.172-1.122c3.1-10.541,4.483-19.05,4.479-27.592,0-7.437-.151-15-.3-22.309-.066-3.349-.134-6.813-.187-10.227-.041-2.665-.115-5.379-.187-8a228.61,228.61,0,0,1,.187-24c.8-10.106,4.227-19.141,7.673-27.528,3.86-9.4,6.8-17.286,6.588-26.045A58.393,58.393,0,0,1,259.263,277a49.424,49.424,0,0,1-8.8,10.648,44.41,44.41,0,0,1-11.772,7.421,29.2,29.2,0,0,1-1.088,10.984,17.956,17.956,0,0,1-6.061,9.011,17.083,17.083,0,0,1-10.294,3.485,13.712,13.712,0,0,1-5.111-.938,11.154,11.154,0,0,1-4.28-3,5.2,5.2,0,0,1-1.2-5.612c-1.287-.215-2.595-.5-3.884-.84-.773-.041-1.582-.062-2.4-.062-7.211,0-17.855,1.678-24.121,6.405-6.494,4.9-11.131,12.106-15.615,19.076l-.011.018c-.813,1.264-1.654,2.57-2.478,3.818q-1.519,2.3-3.042,4.6l-.042.064c-1.832,2.767-3.724,5.624-5.575,8.44-.111.168-.224.334-.344.51-.8,1.174-1.713,2.5-1.309,3.979a7.387,7.387,0,0,0,2.351,3.025l.323.3c1.188,1.1,2.417,2.2,3.606,3.263l.015.013c.6.537,1.222,1.092,1.83,1.641l6.23,5.62c.327.3.662.625,1.017.974,1.44,1.417,3.072,3.023,4.937,3.023a3.433,3.433,0,0,0,1.488-.352c2.834-1.355,5.329-4.161,7.531-6.637l.018-.02c.412-.463.8-.9,1.186-1.322l.718-.787.058-.064c4.574-5.022,9.3-10.215,16.092-12.245a1.236,1.236,0,0,1,.354-.051,1.407,1.407,0,0,1,1.333,1.007,220.865,220.865,0,0,1,7.033,70.059,1.387,1.387,0,0,1-1.452,1.318,1.351,1.351,0,0,1-.988-.393,1.2,1.2,0,0,1-.3-.925,218.6,218.6,0,0,0-6.574-67.918c-5.622,2.135-9.732,6.7-13.707,11.122a60.467,60.467,0,0,1-8.064,7.918l-.111.084c-1.4,1.062-3.15,2.384-5.023,2.385a3.983,3.983,0,0,1-.49-.03,160.141,160.141,0,0,1-7.94,20.124,122.811,122.811,0,0,1-10.97,18.633A111.446,111.446,0,0,1,125.9,440.881c-9.193,6.461-17.34,10.828-24.907,13.351A54.1,54.1,0,0,1,83.837,457Zm3.2-18.949A32.531,32.531,0,0,0,72.2,441.609c-2.33,1.2-5.85,3.011-7.173,5.58a2.782,2.782,0,0,0-.244,2.48c.753,1.649,3.521,2.325,5.542,2.818.242.059.491.12.716.178a52.153,52.153,0,0,0,13,1.627,48.823,48.823,0,0,0,21.188-4.659c14.86-7.2,26.691-15.649,36.17-25.82,11.814-12.677,21.01-29.149,27.331-48.961-.513-.4-.995-.857-1.461-1.3l0,0c-.237-.224-.46-.437-.687-.641-1.548-1.4-3.177-2.85-4.614-4.132-2.909-2.6-5.916-5.279-8.818-7.975a141.436,141.436,0,0,1-5.929,17.65,79.063,79.063,0,0,1-9.116,16.271,174.4,174.4,0,0,1-20.612,23.391c-5.037,4.767-10.563,9.673-17.391,15.441l-.009.008c-1.552,1.311-3.312,2.8-5.062,4.22a3.851,3.851,0,0,1-2.566.831,14.292,14.292,0,0,1-2.354-.274,15.913,15.913,0,0,0-2.262-.279C87.577,438.054,87.305,438.051,87.035,438.051Zm-.1-2.694a37.153,37.153,0,0,1,5.194.37c-.371-2.194-.8-4.912-1.222-7.541l0-.022v0c-.474-2.975-.963-6.051-1.365-8.377l-4.271-24.676q-2.617-15.119-5.234-30.238-1.314-7.588-2.627-15.176l-.312-1.8-1.907-11.017c-.248-1.434-.5-2.892-.736-4.3v-.008c-.527-3.1-1.072-6.3-1.649-9.447-.674-3.666-1.592-7.873-3.97-11.409a23.037,23.037,0,0,0-4.172-4.609,26.018,26.018,0,0,1-7.2,9.28,34.462,34.462,0,0,1-10.373,5.854L69.26,387.221l16.274,47.7a1.367,1.367,0,0,1,.072.46C86.057,435.365,86.506,435.357,86.94,435.357ZM23.951,246.814c-9.252,0-17.489,7.049-20.031,17.141-1.9,7.548-1.554,16.49,1.034,26.577,1.863,7.259,5.916,17.436,14.644,24.7a25.457,25.457,0,0,0,16.6,6.249,28.129,28.129,0,0,0,7.6-1.086c8.937-2.511,15.908-8.135,18.649-15.044a81.441,81.441,0,0,0-7.864-4.823l-.015-.009c-.6-.339-1.225-.689-1.828-1.033-5.287-3.018-10.737-6.536-14.774-11.8C34.135,282.7,31.4,276.59,29.591,269.02a133.585,133.585,0,0,1-2.8-20.453q-.062-.786-.122-1.579h-.074a1.009,1.009,0,0,1-.127-.007A19.113,19.113,0,0,0,23.951,246.814Zm211.97,47.872a38.824,38.824,0,0,1-12.627,10.835,38.1,38.1,0,0,1-5.361,2.351c-.187.066-.4.136-.6.2-1.627.54-3.854,1.28-4.2,2.656a2.546,2.546,0,0,0,.954,2.274,9.893,9.893,0,0,0,7.269,2.8,14.128,14.128,0,0,0,4.209-.656c8.856-2.8,11.113-12.778,10.355-20.467ZM67.275,191.322a41.2,41.2,0,0,0-15.454,3.008C38.973,199.5,30.7,210.717,29.129,225.092c-.826,7.553-.23,15.279.346,22.751l.024.313a129.623,129.623,0,0,0,2.811,20.258c1.839,7.637,4.553,13.6,8.3,18.233,4.192,5.185,10.04,8.5,15.2,11.433l.031.017c5.08,2.883,10.332,5.864,14.058,10.458.327.4.659.856,1.015,1.381,15.016-10.842,25.6-22.047,32.354-34.256,8.695-15.712,11.319-33.285,7.2-48.212-3.611-13.088-11.941-24.259-22.853-30.65A40.269,40.269,0,0,0,67.275,191.322Zm139.784,67.01h0a39.684,39.684,0,0,1-19,32.563,31.543,31.543,0,0,0,3.47,4.93c5.034,5.842,12.147,9.527,20.57,10.656a1.442,1.442,0,0,1,.751.329,16.025,16.025,0,0,1,3.015-1.152c.441-.135.9-.275,1.337-.429a33.92,33.92,0,0,0,5.4-2.452,35.651,35.651,0,0,0,15.945-18.343,30.131,30.131,0,0,0,.66-18.065,11.654,11.654,0,0,1-7.947,2.679,22.987,22.987,0,0,1-6.843-1.141c-5.681-1.785-11.2-4.828-17.356-9.576ZM176.7,247.407a17.3,17.3,0,0,0-6.465,1.124c-6.3,2.493-7.454,9.761-8.473,16.173-.276,1.734-.536,3.372-.886,4.853a31.629,31.629,0,0,1-11.669,17.854,30.658,30.658,0,0,1-10.219,5.127c-1.826.517-3.713.874-5.538,1.22a59.726,59.726,0,0,0-5.9,1.327c8.558,5.992,19.817,7.345,29.7,7.879.739.04,1.5.06,2.255.06,10.94,0,22.748-4.014,23.081-15.281a1.277,1.277,0,0,1,.542-1.048,34.711,34.711,0,0,1-2.073-12.826,33.066,33.066,0,0,1,3.1-13.126,32.258,32.258,0,0,1,7.8-10.486c-.677-.173-1.344-.348-2.051-.534C185.774,248.637,181.092,247.407,176.7,247.407Zm36.209-2.445a29.931,29.931,0,0,0-16.691,5.25A29.5,29.5,0,0,0,183.891,272.2a32.64,32.64,0,0,0,2.916,16.252,36.685,36.685,0,0,0,17.33-35,1.154,1.154,0,0,1,.262-.919,1.292,1.292,0,0,1,.968-.39,1.462,1.462,0,0,1,1.514,1.309c.047.45.086.913.117,1.377l.036.023a.412.412,0,0,1,.046.031,57.933,57.933,0,0,0,16.66,9.9,22.193,22.193,0,0,0,7.526,1.559,8.776,8.776,0,0,0,6.983-2.888l.008-.008.006-.005c-3.31-8.826-10.012-15.221-18.388-17.545A26.043,26.043,0,0,0,212.91,244.962Zm58.862-103.255h0c1.305,2.36,4.022,3.607,6.65,4.814a31.37,31.37,0,0,1,3.03,1.52c2.675,1.61,4.762,4.447,6.6,6.95l.366.5c1.548,2.1,1.481,5.237,1.423,8.008-.017.806-.033,1.568-.011,2.283.166,5.487.092,11.071-.22,16.6a198.46,198.46,0,0,1-4.413,31.817,207.4,207.4,0,0,1-24.5,60.472,55.314,55.314,0,0,0,19.983,10.056,99.5,99.5,0,0,0,11.884-22.057c12.03-31.415,10.8-67.581,7.678-101.984a1.576,1.576,0,0,1,0-.261,1.343,1.343,0,0,1,.349-1.056,203.846,203.846,0,0,1,15.612-15.935l-21.6-.836-.5-.02-22.332-.865Zm26.953-36.255c-.439,11.469-.427,23.1.037,34.561l33.315,1.29L359.6,142.37q-.176-15.775-.351-31.55l0-.35c-18.368-1.546-37.462-3.119-55.927-4.64Zm-53.41-4.433a270.145,270.145,0,0,0,2.7,37.028l22.595.875.091,0,25.316.981c-.463-11.5-.471-23.172-.024-34.68C277.807,103.73,261.441,102.378,245.317,101.021Zm56.048-29.656h0c-1.207,10.338-2.055,20.888-2.521,31.359l3.224.265.115.009c18.83,1.551,38.3,3.154,57.028,4.73q-.1-8.816-.2-17.634-.077-6.969-.154-13.938c-18.98-2.3-38.324-3.911-57.5-4.792ZM265.8,70.548c-6.039,0-12.159.072-18.189.214l-.484.031-.249.015a273.858,273.858,0,0,0-1.551,27.473c16.746,1.41,34.271,2.856,50.785,4.216.471-10.448,1.321-20.963,2.525-31.252C287.741,70.783,276.693,70.548,265.8,70.548Zm88.132,2.262.05,0,7.358.547.818.061,6.54.486a64.74,64.74,0,0,0,.785-24.364c-45.073-2.988-90.846-4.587-136.045-4.751l-.285,7.922q-.286,7.959-.571,15.918c2.277-.134,4.685-.2,7.013-.27h.014c2.166-.062,4.405-.127,6.534-.243a1.465,1.465,0,0,1,.42-.073c.212-.005.424-.009.635-.013h.07l.352-.007.2-.013h.009l.2-.013.006.01.005.008c5.927-.137,11.932-.206,17.848-.206a776.674,776.674,0,0,1,87.9,5.008l.038,0C353.855,72.813,353.891,72.81,353.928,72.81ZM298.376,43.184a1.359,1.359,0,0,1,.434.072c.372-.927.779-1.874,1.209-2.812a1.143,1.143,0,0,1-.859-.68c-1.48-3.028-2.951-6.128-4.373-9.127-3.083-6.5-6.271-13.222-9.754-19.62a27.617,27.617,0,0,0-4.485-6.4c-1.1-1.1-1.913-1.82-3.105-1.82a4.431,4.431,0,0,0-1.62.358,13.915,13.915,0,0,0-2.407,1.368c-.321.212-.625.411-.931.6q-.576.352-1.165.707c-3.709,2.242-7.544,4.561-10.017,8.021-1.493,2.089-2.034,4.1-1.608,5.971.92,4.05,6.179,6.95,10.405,9.28,1.274.7,2.477,1.365,3.463,2,1.452.937,2.955,2,4.547,3.134,5.92,4.2,12.63,8.966,19.585,8.966.208,0,.411,0,.618-.013Zm27.147-25.716a3.014,3.014,0,0,0-1.207.41l-.219.105a41.759,41.759,0,0,0-3.962,2.169,44.34,44.34,0,0,0-7.5,5.821c-4.525,4.363-8.587,11.781-10.88,17.267a1.542,1.542,0,0,1,.291-.044,135.661,135.661,0,0,0,25.187-4.09c.4-.106.94-.211,1.512-.323,1.595-.311,3.579-.7,4.446-1.438,1.281-1.094.383-3.195-.272-4.728-.129-.3-.25-.584-.34-.827-1.38-3.73-2.934-7.409-4.619-10.934-.1-.218-.216-.489-.334-.776a8.083,8.083,0,0,0-1.013-1.969A1.472,1.472,0,0,0,325.523,17.468Z" transform="translate(0.543 0.328)" fill="#002d37"/>
  </g>
</svg>
